2.6209
2.7633
2.6192
2.6656
2.7753
2.8447
2.4193
2.4671
2.518
2.3506
2.3426
2.4528
2.695
2.8651
3.3374
3.0565
3.0815
3.4201
3.1334
3.1758
3.5733
3.3138
3.7948
3.836
4.058
3.7542
3.268
3.4262
3.419
3.5921
3.7211
3.4113
3.2364
3.4614
3.1507
3.1696
3.071
2.8643
2.6037
2.339
2.6419
2.6409
2.8532
2.774
2.9087
3.0699
2.9682
2.6663
3.2146
3.3697
3.2775
3.4357
3.2616
3.2711
3.2395
3.3525
3.4167
3.2201
3.0533
2.9208
3.1156
3.2492
3.3627
3.0017
2.2643
2.8813
2.1255
2.1304
