0.079083
0.077112
0.075606
0.078467
0.081449
0.085763
0.076457
0.076358
0.079287
0.070675
0.070646
0.07399
0.081976
0.088629
0.092499
0.085772
0.085447
0.090014
0.084893
0.085568
0.094283
0.095413
0.10502
0.10113
0.10644
0.095438
0.081788
0.084216
0.08402
0.087402
0.08497
0.082034
0.077649
0.082374
0.075339
0.071161
0.068893
0.062712
0.053302
0.052066
0.060647
0.05829
0.061956
0.060917
0.060665
0.063967
0.061395
0.056756
0.070741
0.073977
0.070518
0.071415
0.066179
0.065511
0.068725
0.068699
0.07338
0.069251
0.067426
0.063639
0.070996
0.069115
0.071438
0.062619
0.047173
0.060334
0.043034
0.041243
