scene00001.jpg
scene00011.jpg
scene00021.jpg
scene00031.jpg
scene00041.jpg
scene00051.jpg
scene00061.jpg
scene00071.jpg
scene00081.jpg
scene00091.jpg
scene00101.jpg
scene00111.jpg
scene00121.jpg
scene00131.jpg
scene00141.jpg
scene00151.jpg
scene00161.jpg
scene00171.jpg
scene00181.jpg
scene00191.jpg
scene00201.jpg
scene00211.jpg
scene00221.jpg
scene00231.jpg
scene00241.jpg
scene00251.jpg
scene00261.jpg
scene00271.jpg
scene00281.jpg
scene00291.jpg
scene00301.jpg
scene00311.jpg
scene00321.jpg
scene00331.jpg
scene00341.jpg
scene00351.jpg
scene00361.jpg
scene00371.jpg
scene00381.jpg
scene00391.jpg
scene00401.jpg
scene00411.jpg
scene00421.jpg
scene00431.jpg
scene00441.jpg
scene00451.jpg
scene00461.jpg
scene00471.jpg
scene00481.jpg
scene00491.jpg
scene00501.jpg
scene00511.jpg
scene00521.jpg
scene00531.jpg
scene00541.jpg
scene00551.jpg
scene00561.jpg
scene00571.jpg
scene00581.jpg
scene00591.jpg
scene00601.jpg
scene00611.jpg
scene00621.jpg
scene00631.jpg
scene00641.jpg
scene00651.jpg
scene00661.jpg
scene00671.jpg
scene00681.jpg
scene00691.jpg
scene00701.jpg
scene00711.jpg
scene00721.jpg
scene00731.jpg
scene00741.jpg
scene00751.jpg
scene00761.jpg
scene00771.jpg
scene00781.jpg
scene00791.jpg
scene00801.jpg
scene00811.jpg
scene00821.jpg
scene00831.jpg
scene00841.jpg
scene00851.jpg
scene00861.jpg
scene00871.jpg
scene00881.jpg
scene00891.jpg
scene00901.jpg
scene00911.jpg
scene00921.jpg
scene00931.jpg
scene00941.jpg
scene00951.jpg
scene00961.jpg
scene00971.jpg
scene00981.jpg
scene00991.jpg
scene01001.jpg
scene01011.jpg
scene01021.jpg
scene01031.jpg
scene01041.jpg
scene01051.jpg
scene01061.jpg
scene01071.jpg
scene01081.jpg
scene01091.jpg
scene01101.jpg
scene01111.jpg
scene01121.jpg
scene01131.jpg
scene01141.jpg
scene01151.jpg
scene01161.jpg
scene01171.jpg
scene01181.jpg
scene01191.jpg
scene01201.jpg
scene01211.jpg
scene01221.jpg
scene01231.jpg
scene01241.jpg
scene01251.jpg
scene01261.jpg
scene01271.jpg
scene01281.jpg
scene01291.jpg
scene01301.jpg
scene01311.jpg
scene01321.jpg
scene01331.jpg
scene01341.jpg
scene01351.jpg
scene01361.jpg
scene01371.jpg
scene01381.jpg
scene01391.jpg
scene01401.jpg
scene01411.jpg
scene01421.jpg
scene01431.jpg
scene01441.jpg
scene01451.jpg
scene01461.jpg
scene01471.jpg
scene01481.jpg
scene01491.jpg
scene01501.jpg
scene01511.jpg
scene01521.jpg
scene01531.jpg
scene01541.jpg
scene01551.jpg
scene01561.jpg
scene01571.jpg
scene01581.jpg
scene01591.jpg
scene01601.jpg
scene01611.jpg
scene01621.jpg
scene01631.jpg
scene01641.jpg
scene01651.jpg
scene01661.jpg
scene01671.jpg
scene01681.jpg
scene01691.jpg
scene01701.jpg
scene01711.jpg
scene01721.jpg
scene01731.jpg
scene01741.jpg
scene01751.jpg
scene01761.jpg
scene01771.jpg
scene01781.jpg
scene01791.jpg
scene01801.jpg
scene01811.jpg
scene01821.jpg
scene01831.jpg
scene01841.jpg
scene01851.jpg
scene01861.jpg
scene01871.jpg
scene01881.jpg
scene01891.jpg
scene01901.jpg
scene01911.jpg
scene01921.jpg
scene01931.jpg
scene01941.jpg
scene01951.jpg
scene01961.jpg
scene01971.jpg
scene01981.jpg
scene01991.jpg
scene02001.jpg
scene02011.jpg
scene02021.jpg
scene02031.jpg
scene02041.jpg
scene02051.jpg
scene02061.jpg
scene02071.jpg
scene02081.jpg
scene02091.jpg
scene02101.jpg
scene02111.jpg
scene02121.jpg
scene02131.jpg
scene02141.jpg
scene02151.jpg
scene02161.jpg
scene02171.jpg
scene02181.jpg
scene02191.jpg
scene02201.jpg
scene02211.jpg
scene02221.jpg
scene02231.jpg
scene02241.jpg
scene02251.jpg
scene02261.jpg
scene02271.jpg
scene02281.jpg
scene02291.jpg
scene02301.jpg
scene02311.jpg
scene02321.jpg
scene02331.jpg
scene02341.jpg
scene02351.jpg
scene02361.jpg
scene02371.jpg
scene02381.jpg
scene02391.jpg
scene02401.jpg
scene02411.jpg
scene02421.jpg
scene02431.jpg
scene02441.jpg
scene02451.jpg
scene02461.jpg
scene02471.jpg
scene02481.jpg
scene02491.jpg
scene02501.jpg
scene02511.jpg
scene02521.jpg
scene02531.jpg
scene02541.jpg
scene02551.jpg
scene02561.jpg
scene02571.jpg
scene02581.jpg
scene02591.jpg
scene02601.jpg
scene02611.jpg
scene02621.jpg
scene02631.jpg
scene02641.jpg
scene02651.jpg
scene02661.jpg
scene02671.jpg
scene02681.jpg
scene02691.jpg
scene02701.jpg
scene02711.jpg
scene02721.jpg
scene02731.jpg
scene02741.jpg
scene02751.jpg
scene02761.jpg
scene02771.jpg
scene02781.jpg
scene02791.jpg
scene02801.jpg
scene02811.jpg
scene02821.jpg
scene02831.jpg
scene02841.jpg
scene02851.jpg
scene02861.jpg
scene02871.jpg
scene02881.jpg
scene02891.jpg
scene02901.jpg
scene02911.jpg
scene02921.jpg
scene02931.jpg
scene02941.jpg
scene02951.jpg
scene02961.jpg
scene02971.jpg
scene02981.jpg
scene02991.jpg
scene03001.jpg
scene03011.jpg
scene03021.jpg
scene03031.jpg
scene03041.jpg
scene03051.jpg
scene03061.jpg
scene03071.jpg
scene03081.jpg
scene03091.jpg
scene03101.jpg
scene03111.jpg
scene03121.jpg
scene03131.jpg
scene03141.jpg
scene03151.jpg
scene03161.jpg
scene03171.jpg
scene03181.jpg
scene03191.jpg
scene03201.jpg
scene03211.jpg
scene03221.jpg
scene03231.jpg
scene03241.jpg
scene03251.jpg
scene03261.jpg
scene03271.jpg
scene03281.jpg
scene03291.jpg
scene03301.jpg
scene03311.jpg
scene03321.jpg
scene03331.jpg
scene03341.jpg
scene03351.jpg
scene03361.jpg
scene03371.jpg
scene03381.jpg
scene03391.jpg
scene03401.jpg
scene03411.jpg
scene03421.jpg
scene03431.jpg
scene03441.jpg
scene03451.jpg
scene03461.jpg
scene03471.jpg
scene03481.jpg
scene03491.jpg
scene03501.jpg
scene03511.jpg
scene03521.jpg
scene03531.jpg
scene03541.jpg
scene03551.jpg
scene03561.jpg
scene03571.jpg
scene03581.jpg
scene03591.jpg
scene03601.jpg
scene03611.jpg
scene03621.jpg
scene03631.jpg
scene03641.jpg
scene03651.jpg
scene03661.jpg
scene03671.jpg
scene03681.jpg
scene03691.jpg
scene03701.jpg
scene03711.jpg
scene03721.jpg
scene03731.jpg
scene03741.jpg
scene03751.jpg
scene03761.jpg
scene03771.jpg
scene03781.jpg
scene03791.jpg
scene03801.jpg
scene03811.jpg
scene03821.jpg
scene03831.jpg
scene03841.jpg
scene03851.jpg
scene03861.jpg
scene03871.jpg
scene03881.jpg
scene03891.jpg
scene03901.jpg
scene03911.jpg
scene03921.jpg
scene03931.jpg
scene03941.jpg
scene03951.jpg
scene03961.jpg
scene03971.jpg
scene03981.jpg
scene03991.jpg
scene04001.jpg
scene04011.jpg
scene04021.jpg
scene04031.jpg
scene04041.jpg
scene04051.jpg
scene04061.jpg
scene04071.jpg
scene04081.jpg
scene04091.jpg
scene04101.jpg
scene04111.jpg
scene04121.jpg
scene04131.jpg
scene04141.jpg
scene04151.jpg
scene04161.jpg
scene04171.jpg
scene04181.jpg
scene04191.jpg
scene04201.jpg
scene04211.jpg
scene04221.jpg
scene04231.jpg
scene04241.jpg
scene04251.jpg
scene04261.jpg
scene04271.jpg
scene04281.jpg
scene04291.jpg
scene04301.jpg
scene04311.jpg
scene04321.jpg
scene04331.jpg
scene04341.jpg
scene04351.jpg
scene04361.jpg
scene04371.jpg
scene04381.jpg
scene04391.jpg
scene04401.jpg
scene04411.jpg
scene04421.jpg
scene04431.jpg
scene04441.jpg
scene04451.jpg
scene04461.jpg
scene04471.jpg
scene04481.jpg
scene04491.jpg
scene04501.jpg
