1.6236
1.2919
1.5953
1.484
1.3441
1.6089
1.6128
1.8708
1.5877
1.551
1.5133
2.054
2.3143
2.2973
2.492
2.6157
2.3548
2.4146
2.8567
3.0207
3.0411
3.0241
2.9828
2.8259
3.1219
3.2418
3.2134
3.0791
3.0081
2.8482
2.9001
3.0441
3.3124
3.2452
3.3408
3.4494
3.4527
3.3855
3.2763
2.9477
2.7755
2.8918
2.7578
2.8666
3.1827
3.4016
3.1216
2.8664
3.1691
3.1241
3.2218
3.2188
3.2606
2.9909
3.203
3.3104
3.3646
3.3048
3.1937
3.1631
3.5922
3.6639
3.6126
3.3663
3.4229
3.5987
3.6249
3.4309
3.4493
3.7167
3.592
3.5644
3.6121
3.7843
3.7212
3.5249
3.6053
3.6272
3.5275
3.5394
3.8058
3.8671
3.5467
3.7335
3.65
3.7326
3.6988
3.4808
3.8622
4.0401
3.9106
3.8805
3.847
3.7924
3.6485
3.6544
3.5644
3.4185
3.5269
3.3576
3.412
3.444
3.4375
3.6059
3.6514
3.8113
3.9204
3.9716
3.9332
3.6827
3.878
3.6789
3.8152
3.7619
3.8784
3.7924
3.7827
3.6134
3.5142
3.5286
3.5378
3.7197
3.6077
3.8233
3.8917
3.9697
4.0929
3.9533
4.0284
3.5981
3.8844
3.935
4.0075
3.823
3.8082
3.7939
3.9466
3.8721
3.906
4.122
4.0601
3.8979
3.8759
3.6867
3.775
3.9449
3.6269
3.6341
3.7945
3.9496
3.8166
3.8524
3.8715
3.8865
3.8728
3.9702
3.9973
3.7632
3.6985
3.8009
3.8303
3.9325
4.0127
3.964
3.6925
3.777
3.8558
3.9438
4.0414
3.9583
3.7893
3.9575
4.0379
4.067
4.1222
4.0864
3.9816
3.9112
3.8374
3.9342
3.9253
3.8175
3.8583
3.6307
3.8215
3.824
3.6545
3.6226
3.7594
3.7609
4.0161
4.0122
4.1702
4.2148
4.4146
4.2267
4.0004
4.0216
4.1771
4.2803
4.1429
4.2045
4.329
4.2996
4.3513
4.4348
4.3617
4.2264
4.3978
4.4376
4.2502
4.3072
4.1474
4.0201
4.1118
4.2016
4.354
4.111
4.1266
4.2972
4.4692
4.2101
4.3099
4.3983
4.6382
4.5094
4.2736
4.6476
4.4366
4.2516
4.4291
4.377
4.5002
4.6667
4.4085
4.1592
4.0482
4.1128
4.1557
3.9171
4.0574
4.1381
3.963
4.1022
4.2435
4.1855
4.0688
4.0036
3.9312
4.0159
4.0564
4.026
4.0707
4.2263
3.9102
4.1044
4.1715
4.1461
4.1421
3.9757
4.04
4.0624
3.9831
3.9775
4.2844
4.24
4.1973
4.1724
4.3487
4.2743
4.3561
4.4409
4.428
4.4483
4.3997
4.5174
4.5216
4.3284
4.2513
4.3774
4.3006
4.2344
4.3026
4.1732
4.2197
4.3127
4.2151
4.3527
4.4574
4.5356
4.5417
4.3156
4.1648
4.1957
4.3013
4.2347
4.2789
4.2049
4.3748
4.243
4.4836
4.4238
4.3102
4.249
4.5208
4.5125
4.2533
4.3302
4.4094
4.2613
4.0716
4.0663
4.0854
4.2421
4.2399
4.0204
3.9602
3.8839
4.1417
4.3607
4.3587
4.3034
4.1062
4.1038
3.8354
3.7557
3.7878
3.9097
3.9315
4.0347
4.0721
4.2102
4.2299
3.9312
3.701
3.6004
3.6169
3.7086
3.6707
3.8236
4.0472
4.1498
4.1545
4.1733
4.2767
4.4108
4.5235
4.431
4.551
4.5364
4.4745
4.5004
4.2321
4.3977
3.9155
3.9802
4.1084
4.0593
4.0238
3.9838
4.0108
3.906
4.0651
4.0571
3.8568
3.9517
4.2017
3.9853
4.0192
3.8245
3.953
3.9866
3.8022
3.6593
3.6684
3.4345
3.2371
3.3392
3.3555
3.3444
3.7438
3.778
3.5911
3.3601
3.4666
3.6252
3.742
3.7983
3.8955
3.7868
3.8755
3.8691
3.7872
4.1315
3.9127
4.1907
4.2626
4.0607
4.2716
4.3764
4.3545
4.3164
4.4047
4.623
4.6305
4.5209
4.2403
4.2726
4.1793
4.1759
4.2588
4.1392
4.0255
4.1765
4.1612
4.2162
4.3929
4.4943
4.4882
4.3131
4.386
4.5905
4.4714
4.4991
4.2429
4.4036
4.363
4.314
4.1908
4.1053
4.0521
4.1458
4.1937
4.2209
4.3808
4.3511
4.4464
4.5562
4.6837
4.4544
4.2733
4.4101
4.2699
4.2885
4.2566
4.2404
4.3813
4.3882
4.2995
4.345
4.3082
4.2596
4.2889
4.4147
4.3043
4.1155
4.1546
4.0551
3.9281
4.0185
4.206
4.1897
4.0419
3.8586
3.6042
3.645
3.6177
3.6149
3.8243
3.6102
3.6042
3.8589
3.7066
3.6464
3.5098
3.466
3.5903
3.764
3.7831
4.018
4.2459
4.3661
4.549
4.4582
4.4206
4.3453
4.2807
4.1964
4.3395
4.5165
4.3944
4.2402
4.1493
4.0834
4.0398
4.1995
4.167
4.364
4.2738
4.1306
4.1668
4.0564
3.9776
4.0449
4.0638
4.123
4.0174
4.1173
4.2928
4.3303
4.5434
4.6708
4.6321
4.6855
4.6609
4.8138
4.8399
4.8251
4.8535
4.7844
4.7755
4.6963
4.6447
4.573
4.5448
4.4191
4.5443
4.6821
4.7131
4.7635
4.6492
4.5609
4.555
4.5772
4.6362
4.652
4.6526
4.661
4.6104
4.524
4.3217
4.2468
4.0183
4.0102
4.2546
4.307
4.2769
4.2458
4.5493
4.5028
4.3051
4.2265
4.1013
4.2346
4.4655
4.237
4.1651
4.0535
4.1509
4.0611
3.9484
4.0928
4.1902
3.9485
3.9409
4.0389
3.9743
3.9598
4.0194
3.9624
4.0003
3.8008
3.9352
3.8425
3.9743
4.1191
3.789
3.6094
3.654
3.6866
3.8967
3.9547
3.917
3.8276
3.798
3.5643
3.5603
3.5723
3.5666
3.5057
3.4297
3.6237
3.7144
3.7725
3.7663
3.6326
3.6475
3.5842
3.6146
3.5645
3.4912
3.4065
3.289
3.2664
3.4503
3.3462
3.3619
3.3837
3.4255
3.3928
3.4711
3.7618
3.988
3.7338
3.6153
3.9757
3.764
3.7718
3.7558
3.948
4.1699
4.149
4.1131
4.0613
4.162
4.1648
4.3038
4.3648
4.2615
4.1746
4.081
4.1985
4.161
4.0733
3.8939
3.8687
3.8383
3.8299
3.9331
4.2406
4.2705
4.2652
4.3336
4.4339
4.4462
4.3753
4.4264
4.3622
4.4616
4.4444
4.3995
4.5052
4.3797
4.157
4.1834
3.9902
3.9085
4.0385
3.9624
3.9828
4.1029
4.2125
4.1627
4.1333
4.1836
4.3791
4.5629
4.5123
4.5118
4.7122
4.7096
4.6787
4.7357
4.4243
4.4698
4.3366
4.5678
4.5828
4.67
4.6535
4.7036
4.4239
4.2934
4.5319
4.5881
4.3699
4.3664
4.3711
4.2382
4.1442
4.1527
4.1294
4.0758
3.9438
3.991
3.9905
3.924
3.8763
3.7292
3.8203
3.7963
3.6222
3.4777
3.4712
3.4876
3.3988
3.3776
3.2784
3.1308
3.2721
3.3831
3.3319
3.4774
3.363
3.1853
3.1009
2.9211
3.1929
3.1757
3.2895
3.401
3.4191
3.5141
3.6366
3.3931
3.3341
3.4031
3.6745
3.6269
3.7964
3.8031
3.7652
3.7284
3.7274
3.7484
3.7656
3.7415
3.8163
3.6686
3.6422
3.663
3.7332
3.803
3.6757
3.3685
3.6673
3.6309
3.7362
3.8271
3.7527
3.8478
3.5879
3.5977
3.5788
3.5356
3.7519
3.9096
3.9325
3.8936
3.9697
4.0423
3.9693
3.6262
3.5921
3.7349
3.8473
3.8764
3.7063
3.6437
3.3934
3.6296
3.7661
3.7548
3.655
3.6374
3.5163
3.4128
3.2262
3.346
3.1097
2.9548
2.891
3.0067
2.9041
2.9339
3.1528
3.1331
3.2284
3.2874
3.5014
3.4939
3.4775
3.551
3.47
3.1634
3.1122
3.2237
3.5404
3.5391
3.6728
3.6244
3.6009
3.5515
3.6342
3.4949
3.64
3.6855
3.7149
3.5392
3.3301
3.2716
3.3759
3.4338
3.5157
3.5021
3.4273
3.4545
3.4157
3.6247
3.5298
3.3555
3.3557
3.3589
3.5465
3.5548
3.7629
3.737
3.6849
3.4716
3.6609
3.5277
3.6128
3.7172
3.838
3.6948
3.5095
3.5249
3.4733
3.2402
3.2643
3.3032
3.3532
3.5091
3.372
3.5265
3.642
3.6565
3.8618
4.1441
4.1105
4.1212
4.0746
4.0808
4.1
4.0384
4.1018
4.1006
4.0716
4.0853
4.1387
4.121
4.0481
3.9947
3.961
4.0239
3.9766
3.9525
4.0279
3.9712
3.9689
3.6178
3.9207
3.9467
3.8413
3.71
3.7493
3.6469
3.5831
3.9347
3.8828
4.0382
3.9368
3.8636
3.9325
3.9758
3.8517
3.8438
3.8884
3.8939
3.9507
4.0798
4.1472
4.1553
3.9838
4.1878
4.275
4.167
4.0177
3.6756
3.5859
3.5813
3.8019
3.9821
3.6863
3.9686
4.0326
4.179
4.167
3.91
4.0697
4.0881
4.2492
4.3541
4.366
4.3612
4.2802
4.3279
4.4938
4.4577
4.3007
4.1792
4.0896
4.1364
4.0699
3.9783
3.9006
3.8573
3.7716
3.7927
3.8924
4.0538
4.034
3.9961
4.0809
4.0816
4.2591
4.0752
4.0141
4.0061
4.0122
3.9948
3.9534
3.8439
3.8764
3.855
3.9335
3.9615
3.8986
3.964
3.8706
3.8254
3.803
3.6054
3.5629
3.6159
3.5902
3.4758
3.4192
3.4161
3.49
3.5157
3.5548
3.6768
3.7948
3.8767
3.8853
3.983
3.9509
4.0132
4.0215
4.0263
4.0544
4.0256
3.9939
3.9243
4.083
4.1669
4.1356
4.2188
4.0933
4.0555
3.9617
4.0107
4.0224
3.8062
3.7748
3.6897
3.642
3.7761
3.8422
3.8319
4.0081
4.097
4.0106
4.1568
4.2745
4.2534
4.2895
4.1923
4.2683
4.2596
4.2419
4.2569
4.0979
4.1138
4.0214
4.2073
4.3387
4.2183
4.2701
4.1044
4.0388
3.9831
3.873
3.9568
3.9199
3.9513
4.1366
4.3074
4.3074
4.3002
4.2983
4.1464
4.2117
4.283
4.4097
4.3815
4.592
4.5391
4.4791
4.3606
4.27
4.3529
4.2066
4.2024
3.9602
3.9288
3.7615
3.8419
3.8149
3.6775
3.7097
3.7094
3.6863
3.8098
3.7935
3.5191
3.4981
3.2735
3.1613
3.2215
3.4004
3.3438
3.2953
3.3482
3.4095
3.5742
3.5669
3.4716
3.5129
3.5018
3.1921
3.2654
3.2161
3.4069
3.2819
3.249
3.2968
3.139
3.2061
3.1054
3.1997
3.3214
3.2216
3.2703
3.2031
3.1616
3.2151
3.1058
3.0583
3.0253
3.2449
3.3851
3.2303
2.9479
3.1511
3.1628
3.221
3.2404
3.3242
3.4293
3.2926
3.4022
3.2114
2.9391
2.9636
2.9136
3.1041
2.9668
3.0496
3.0039
3.0412
2.7807
2.8008
2.815
2.8803
2.6809
2.4734
2.4557
2.636
2.4429
2.4514
2.53
2.6002
2.676
2.7704
2.7592
2.6257
2.6093
2.5794
2.4199
2.6287
2.476
2.4485
2.2218
2.3631
2.3013
2.2575
2.7567
2.745
2.7662
2.5904
2.3408
2.4874
2.1842
2.1576
2.2534
2.5261
2.5176
2.6488
2.6013
2.5276
2.4847
2.4509
2.3639
2.2125
2.2188
2.2732
2.3459
2.6647
2.8019
2.8433
3.1207
3.0551
3.096
3.0011
3.0049
3.0648
3.1484
3.3401
3.0158
2.8631
2.9044
2.5434
2.7211
2.8254
2.9402
2.8549
2.7902
2.9962
3.079
2.6348
2.0364
2.4355
2.4829
2.6145
2.6214
2.991
3.0408
3.2001
3.2549
3.3359
3.0939
3.2154
3.1608
3.0683
2.9264
2.812
2.6283
2.609
2.6332
2.9105
2.9259
3.0773
3.2942
3.6229
3.5149
3.3022
2.989
2.9786
2.9333
2.9235
3.0751
3.0508
3.0468
3.1402
3.1749
3.3077
3.1777
2.9881
3.2952
3.1449
3.1385
3.0393
2.8636
2.8892
2.8163
2.9935
2.9106
2.8369
3.0799
2.9878
3.2434
3.4029
3.3581
3.3046
3.0702
3.2033
3.5073
3.3342
3.3486
3.3334
3.1075
2.6276
2.5133
2.7119
2.9744
2.2653
2.4274
2.4235
2.5461
2.3867
2.0445
2.0643
2.1528
1.9427
1.9709
2.0174
2.1725
2.2786
2.164
2.4893
2.3958
2.4391
2.6724
2.217
2.5996
2.5997
2.2573
2.1853
2.4954
2.5319
2.4348
2.2695
2.3431
2.1338
2.0602
2.0939
2.1964
2.4952
2.5068
2.47
2.4734
2.3278
2.135
2.1879
2.2422
2.1574
2.0875
1.9821
2.2654
2.2558
2.1824
2.0113
2.1062
2.5034
2.4123
2.2017
2.1561
2.2388
2.0521
2.2367
2.4871
1.9588
1.8158
2.0077
1.7931
1.6432
2.0806
2.1046
2.3186
2.459
2.5488
2.4523
2.4238
2.056
2.0096
1.9019
2.087
2.0985
2.0223
2.2173
2.1862
2.0552
2.4166
2.6071
2.3385
2.487
2.9635
2.9027
2.7814
2.4414
2.3103
2.5086
2.7391
2.9184
3.0362
2.9835
2.8992
2.8067
2.8114
2.8967
2.9439
2.6965
2.7398
2.6491
2.4254
2.2789
2.2558
2.1431
2.2444
2.0131
2.2052
2.4412
2.4128
2.4561
2.5408
2.5805
2.6533
2.8455
2.6343
2.2354
2.28
2.4407
2.7565
2.75
2.6682
2.5083
2.583
2.489
2.4648
2.5725
2.7078
2.8415
2.7806
2.6762
2.8331
2.7538
3.0541
3.0656
3.0362
2.8152
2.5825
2.5339
2.5485
2.4281
2.2025
2.5241
3.0467
3.1279
3.159
3.0776
3.056
3.005
2.8479
2.6507
2.6281
2.6969
2.7215
3.0523
3.2025
3.1236
2.8892
2.9052
3.2944
3.357
3.492
3.3489
3.4273
3.4662
3.4877
3.262
3.1805
3.0332
3.1063
2.9294
2.7943
2.9573
3.0837
3.1804
3.0792
3.1662
3.2933
3.2946
3.3498
3.2795
3.2029
3.2109
3.3211
3.3884
3.4208
3.3948
3.4763
3.6666
3.7008
3.7539
3.7706
3.8452
3.9646
3.9575
3.8837
3.518
3.3847
3.3228
3.3793
3.3446
3.3946
3.3923
3.4972
3.5148
3.4976
3.4246
3.3385
3.3142
3.3522
3.3919
3.3691
3.3753
3.3502
3.412
3.2961
3.1633
3.1964
3.2315
3.3166
3.3193
3.114
3.3681
3.3591
3.4494
3.3773
3.4455
3.5277
3.6145
3.6911
3.7009
3.6226
3.5308
3.4875
3.3515
3.1282
2.944
2.8631
2.9474
2.9393
2.9772
2.9803
2.9708
2.9373
2.9825
2.9625
2.9811
2.8476
2.7982
2.8453
2.8582
2.8678
2.9825
3.1132
3.2103
3.1801
3.1853
3.1132
3.3464
3.3301
3.1087
2.9728
2.7497
2.5786
2.6616
2.7854
2.8657
2.9075
3.0061
2.9086
2.8376
2.5409
2.5234
2.7873
3.179
3.0036
2.9087
2.8167
2.844
2.9149
2.8844
2.7066
2.7458
2.8582
2.9276
2.9864
2.8923
2.9013
3.0567
2.9494
2.9754
2.9187
2.9728
2.826
2.9938
2.8877
2.853
2.706
2.7613
2.9131
2.9341
2.9944
2.914
2.8952
3.078
2.9535
2.7532
2.6452
2.7648
2.8191
2.7639
2.9322
3.0859
2.9217
2.9613
3.1515
3.0002
3.1893
3.2502
3.0418
2.9559
3.0411
3.0528
2.9999
2.967
2.7379
2.8116
2.7134
2.5501
2.4632
2.5802
2.458
2.5903
2.6847
2.6622
2.719
2.6573
2.6888
2.5098
2.6526
2.7765
2.5504
2.641
2.7654
2.9244
3.0454
3.0831
3.1702
3.3002
3.1793
3.107
3.0725
3.106
3.2452
3.3179
3.4718
3.3839
3.2511
3.0244
3.3202
3.3138
3.4472
3.5307
3.6288
3.4608
3.2106
3.452
3.6491
3.7243
3.7135
3.7392
3.6745
3.5211
3.574
3.4264
3.5287
3.5834
3.4588
3.1895
3.3136
3.2108
2.9873
2.7411
2.8509
2.9072
3.125
3.2193
3.2558
3.1954
3.0216
3.017
3.0554
3.2952
3.3883
3.1775
3.3872
3.2852
3.3237
3.2699
3.5457
3.5576
3.4339
3.2608
3.3334
3.3274
3.4936
3.5749
3.5889
3.8137
3.6218
3.502
3.5968
3.4519
3.3173
3.2592
3.1698
3.4187
3.633
3.6441
3.5497
3.4449
3.2238
2.9409
2.7095
2.6808
2.7062
3.0018
3.067
3.0555
3.1624
3.2011
3.2066
2.9405
2.806
2.7227
2.5943
2.796
2.9194
2.9602
2.9222
2.7491
2.5767
2.6662
2.8932
3.0721
3.2906
3.2915
3.3643
3.5308
3.4356
3.3215
3.2543
3.2687
3.3943
3.4558
3.7217
3.4176
3.4971
3.3996
3.6718
3.4689
3.2554
3.4604
3.3781
3.4489
3.3205
3.51
3.6478
3.8093
3.8688
3.7948
3.7425
3.7361
3.7239
3.9031
3.8719
3.9268
3.9429
3.8851
3.8441
3.747
3.62
3.5556
3.4757
3.2578
3.209
3.2649
3.2344
3.2619
3.2487
3.2809
3.1501
3.2034
2.9954
2.9347
2.7927
2.7916
2.8065
3.0617
3.2012
3.3031
3.0435
3.0656
2.9734
2.7914
2.41
2.717
2.9743
2.9655
2.9095
2.7401
2.6062
2.8017
2.8153
2.6764
2.5405
2.451
2.6314
2.741
2.6685
2.393
2.393
2.3076
2.6053
2.6323
2.8597
2.6912
2.5333
2.3263
2.2855
2.1095
1.9927
2.0378
2.1288
2.101
2.0563
1.9968
2.088
2.0667
2.0541
2.0431
1.8889
1.5948
1.3891
1.2632
1.4498
1.6453
1.8542
2.0418
1.8429
2.0167
2.2573
2.4292
2.516
2.7818
2.9634
2.8027
2.6826
2.5526
2.471
2.6314
2.3949
2.3772
2.4723
2.4251
2.311
2.2154
2.381
2.3677
2.1777
1.8565
1.7185
1.4307
1.7273
1.9786
1.9168
2.0642
2.1312
1.9114
1.9676
2.0415
1.8188
2.0864
2.1715
2.2497
2.2009
2.0677
1.6065
1.5843
1.5532
1.6869
1.6316
1.6612
1.8727
1.4744
1.5734
1.5882
1.6917
1.5306
1.4486
1.3287
1.4128
1.3302
1.5191
1.6833
1.5718
1.7603
1.7326
1.5241
1.6961
1.5136
1.5266
1.6478
1.7639
1.634
1.4851
1.1722
1.0902
1.3567
1.5691
1.5359
1.6086
1.5834
1.4783
1.3622
1.3715
1.6846
1.4258
1.4005
1.3337
1.2115
1.2862
1.2674
1.357
1.2704
1.457
1.6835
1.8259
1.9628
2.0468
2.0891
1.7482
1.68
1.6028
1.7893
1.8001
2.0171
2.0445
1.9457
1.8957
1.9853
1.9549
1.7529
1.7108
1.8775
1.9974
1.9435
2.5696
2.482
2.4996
2.5621
2.6499
2.6085
2.3426
2.2873
2.345
2.0813
2.0254
2.0905
2.2403
2.3714
2.1565
2.1568
2.1177
2.0834
2.3236
2.5128
2.6168
2.3888
1.9913
2.1551
2.1953
2.3289
2.6769
2.6436
2.3905
2.3942
2.4601
2.5576
2.6849
2.573
2.3724
2.3178
2.2655
2.1883
2.4585
1.9773
1.9782
2.0932
2.0932
2.3325
2.519
2.5516
2.517
2.3237
2.2065
2.3751
2.3152
2.5536
2.1744
2.0726
1.9641
1.9628
2.2123
2.6398
2.6615
2.6071
2.4706
2.5959
2.4903
2.3839
2.2185
2.4928
2.6381
2.8069
2.975
2.9861
3.0487
3.0012
2.9927
2.9047
2.7158
2.7723
2.7618
2.7267
2.7772
2.8081
2.472
2.5682
2.7382
2.759
2.7423
2.6819
2.47
2.3357
2.4847
2.5124
2.3488
2.4065
2.5047
2.6018
2.3876
2.3588
2.4276
2.8749
2.8092
2.7138
2.5262
2.5477
2.6056
2.4078
2.6393
2.5941
3.0703
3.03
2.9926
3.0638
3.1076
3.0154
3.0254
2.6083
2.638
2.451
2.4197
2.5936
2.6289
2.6389
2.3723
2.2898
2.2667
2.3058
2.3208
2.3023
2.2144
2.0696
2.3107
2.0318
1.6744
1.5345
1.6126
1.8254
1.8873
2.1792
2.2847
2.2786
2.299
2.514
2.487
2.4906
2.6335
2.7991
2.6611
2.5745
2.5848
2.2443
2.6037
2.5178
2.3696
2.5743
2.5273
2.3166
2.4596
2.6675
2.7755
2.8014
2.8969
2.7315
2.6042
2.4863
2.4374
2.3409
2.2057
2.1618
2.0657
1.9965
2.1428
2.2203
1.9763
1.9255
2.0852
2.0456
2.2257
2.4918
2.4158
2.2517
2.3358
2.4257
2.565
2.6075
2.5666
2.4302
2.5313
2.4568
2.5948
2.4712
2.3699
2.2003
2.1365
1.9745
1.7918
1.7362
1.7743
1.7073
1.4483
1.5504
1.6686
1.7426
1.8374
1.9108
2.0012
1.9504
2.0766
2.2607
2.3387
2.4564
2.6316
2.873
3.1199
3.0947
3.066
3.0771
2.8999
2.6679
2.4794
2.4036
2.4473
2.3204
2.3188
2.0993
1.8378
1.9303
1.8605
1.6396
1.8741
2.133
2.034
1.5115
1.3674
1.399
1.6318
1.8348
1.6684
1.6474
1.7964
1.7777
1.6872
1.754
1.8674
2.0187
1.9983
2.0094
1.7551
1.7107
1.6884
1.5099
1.3694
1.2794
1.0547
1.2026
1.1241
1.061
1.2161
1.4278
1.5164
1.3926
1.503
1.8481
2.2893
2.1772
2.154
2.2109
2.2897
2.3931
2.5157
2.4929
2.3639
2.2612
2.1979
2.0836
1.9881
1.9175
2.0866
2.0404
1.7354
1.3748
1.1167
1.2998
1.7869
1.886
2.0225
1.948
2.2764
2.2319
2.2624
2.1502
2.1282
2.2316
2.3233
2.3805
2.3855
2.369
2.2382
2.1843
1.9103
1.9191
1.8158
1.841
1.9895
2.1808
2.2725
2.3605
2.4002
2.1786
1.8695
1.9578
1.8098
1.9467
2.0538
2.0016
1.953
2.0547
2.4229
2.42
2.2578
1.905
1.76
1.6307
1.6978
1.6878
1.6688
1.6538
1.5869
1.7568
1.8281
2.0293
2.152
2.0365
1.8283
2.0489
2.3782
2.2782
2.116
2.0135
2.0832
2.1817
2.1485
2.0445
1.9966
1.9976
2.129
2.1933
1.9017
1.8475
1.9816
1.8784
1.7821
1.8254
1.8702
1.9821
1.7673
1.693
1.4074
1.2205
1.1697
1.367
1.5422
1.3917
1.5071
1.5739
1.6524
1.6604
1.6563
1.6901
1.7777
1.809
1.3548
1.431
1.604
1.4276
1.4328
1.4459
1.5822
1.7133
1.827
1.6526
1.4194
1.5154
1.7235
1.9596
2.0394
2.1675
2.2241
2.2183
2.2197
2.1313
2.2719
2.3599
2.3314
2.1093
2.1578
2.3406
2.1967
2.1612
2.3087
2.3469
2.3862
2.4906
2.4865
2.4033
2.4483
2.333
2.1958
2.5378
2.1842
2.1669
2.0591
2.1421
2.2181
2.4018
2.517
2.3133
2.0269
2.1506
2.3232
2.4692
2.4039
2.5817
2.6921
2.6618
2.4746
2.3792
2.3984
2.5097
2.7314
2.7931
2.7908
2.8066
2.7341
2.9228
2.9693
2.9592
2.9101
3.0732
3.0723
3.0901
2.9557
2.8918
2.8925
2.8572
3.0067
3.0421
2.893
3.0219
3.0645
3.0893
2.9804
2.7746
2.6309
2.8289
2.8256
2.7778
2.8304
2.6684
2.8266
2.672
2.8004
2.904
2.8619
2.8424
2.8357
2.5229
2.3631
2.4827
2.4548
2.5462
2.7577
2.786
2.8544
2.9012
3.0798
3.2879
3.3681
3.2863
3.2774
3.2462
3.1667
3.0911
3.0736
3.2083
3.0477
2.994
2.92
2.8882
3.0541
2.9311
2.6746
2.6131
3.024
2.9018
2.8265
2.9846
3.0862
3.2118
3.1288
3.2909
3.2512
3.0453
3.1404
2.9254
2.8551
2.8471
2.98
3.1318
2.8361
2.9929
2.9028
2.8696
2.9095
3.1751
3.2028
3.2706
3.2388
2.8776
2.7978
2.7879
2.6074
2.6674
2.627
2.7318
2.7453
2.4491
2.6084
2.6778
2.7525
2.8392
2.9841
3.1665
2.8386
2.8829
2.7714
2.6142
2.6244
2.5166
2.1628
1.9501
1.8805
1.7518
1.4669
1.4026
1.4633
1.4165
1.4982
1.6652
1.7489
1.9524
1.8658
1.8045
1.522
1.5939
1.8214
1.8059
1.8863
1.8249
1.9778
2.0954
2.12
2.3048
2.3955
2.6418
2.8981
2.77
2.7494
2.6179
2.4308
2.3928
2.4713
2.3758
2.5081
2.5068
2.7071
2.7575
2.9729
3.0635
2.8553
2.8546
2.877
2.9669
2.8353
2.9135
2.7416
2.6711
2.6723
2.7587
2.7936
2.9637
2.8606
3.022
3.0852
3.119
2.8874
2.829
2.5799
2.4998
2.658
3.0081
2.9463
2.9137
2.9369
3.0227
3.1336
2.9986
2.9635
3.0642
2.9981
3.102
3.0334
3.0543
2.9154
2.8476
2.9474
2.9192
2.9873
2.9775
3.0448
3.0937
3.1399
3.0146
2.5014
2.3732
2.4621
2.5779
2.7095
2.5051
2.2343
2.531
2.5211
2.2996
2.1535
2.0819
2.2322
2.613
2.5593
2.5218
2.5905
2.7759
2.8751
2.9453
2.8676
2.8211
2.5823
2.7653
2.6788
2.8157
2.664
2.557
2.3638
2.2765
2.4345
2.3803
2.2608
2.3234
2.2161
2.1446
2.4084
2.4875
2.7194
2.5529
2.653
2.6364
2.7881
2.8611
2.9633
2.9131
2.9111
2.9518
3.0073
3.0019
3.0134
3.1469
3.0546
3.0018
3.0312
2.8551
2.9588
2.9048
3.197
3.0787
3.0743
3.1749
3.0404
2.9455
3.1851
3.0421
2.883
2.8926
2.9019
2.8834
2.8607
2.7886
2.5946
2.3771
2.1594
2.1032
2.1051
2.2008
2.1608
2.3971
2.7835
2.8433
2.7029
2.7267
2.6862
2.6549
2.727
2.8211
2.8672
2.9535
2.914
3.0785
2.947
3.0097
2.8694
3.0244
3.0407
3.0653
3.0078
2.7136
2.6207
2.6654
2.7226
2.9867
3.0655
3.0081
2.984
2.7187
2.6701
2.5771
2.5901
2.4931
2.5768
2.5138
2.4531
2.4563
2.2435
2.3597
2.54
2.6105
2.8365
2.8284
2.7844
2.7223
2.7109
3.0487
3.2388
3.2363
3.5178
3.5612
3.3466
3.2772
3.413
3.3296
3.0171
2.9349
2.7826
2.8744
2.8441
2.7593
2.656
2.823
2.7548
2.7277
2.9825
2.8046
2.5975
2.7485
2.6289
2.778
2.7562
2.7891
2.8224
2.9041
3.061
2.979
3.2505
3.2782
3.4843
3.6064
3.5378
3.5619
3.509
3.5302
3.6087
3.6457
3.6371
3.6048
3.4049
3.171
3.113
3.0672
3.1115
2.9382
2.8206
3.0237
3.1552
3.3536
3.0927
3.1868
3.2541
3.1635
3.1935
3.2633
3.4732
3.3393
3.4433
3.365
3.3013
2.964
2.9043
2.7271
2.714
2.7506
2.6016
2.7703
2.6611
2.687
2.6129
2.4268
2.5242
2.5812
2.8166
2.8408
2.9722
3.0457
3.1584
3.3076
3.3095
3.2951
3.1583
3.1058
3.1201
3.1987
3.3179
3.2297
3.3409
3.2651
3.4067
3.3168
3.2663
3.092
3.1282
3.1163
2.9877
2.973
3.0872
3.0469
3.1117
3.1645
3.05
3.1428
3.0475
2.9105
2.9173
2.8574
2.9273
3.0652
3.1424
3.2184
3.3587
3.2093
3.1904
3.3087
2.9441
2.8913
2.9718
2.7313
2.724
2.7988
2.8713
2.6631
2.719
2.6509
2.7594
2.7261
2.5844
2.6214
2.7381
2.6035
2.5285
2.3055
2.3882
2.4729
2.2507
2.0618
2.0445
2.0149
1.7545
1.6983
1.6418
1.5827
1.5813
1.5644
1.4935
1.7045
1.8148
2.0711
2.1195
2.2633
2.3318
2.1269
2.1925
2.1839
2.1987
2.1329
2.0992
2.1192
1.8096
1.9094
1.8736
2.0017
2.032
2.0864
2.0359
2.1319
2.3379
2.4324
2.496
2.4797
2.3925
2.319
2.1118
2.0391
2.028
2.2803
2.3023
2.0339
1.9131
2.0129
2.0682
2.1281
2.2863
2.318
2.4248
2.4069
2.5163
2.5155
2.8043
2.9108
2.9316
2.9513
2.9378
2.9025
2.8634
2.8217
2.8057
2.905
2.8047
2.8164
2.8365
2.8025
2.9561
2.985
2.9126
2.9437
2.8003
2.8648
2.9729
3.0304
3.034
3.0059
2.8435
2.8809
2.8184
2.8884
2.8854
2.8445
2.6989
2.6656
2.6997
2.581
2.4897
2.2316
2.1981
2.0316
1.9877
1.8815
1.8962
2.0757
1.9721
2.0263
2.0732
2.0779
1.8917
2.1015
1.7137
1.6656
1.5754
1.8182
1.8118
1.7382
1.6995
1.7317
1.6954
1.8664
1.8754
1.9309
1.7722
1.5437
1.5533
1.5409
1.5277
1.7162
1.8313
1.752
1.7548
1.7645
1.7445
1.6625
1.6634
1.6146
2.0751
2.0755
1.8599
1.8429
1.8319
1.6099
1.5652
1.5668
1.5009
1.3783
1.2364
1.1961
0.93975
1.359
1.4155
1.5546
1.4389
1.5813
1.7687
1.7963
1.6825
1.659
1.5279
1.4076
1.6553
1.8414
1.8383
1.7077
1.8405
1.7904
1.8975
1.941
2.0674
2.0837
1.9686
1.9638
1.9688
2.0049
1.9373
2.0311
2.0488
1.9875
1.7519
1.6409
1.9529
2.0861
1.839
1.794
1.7219
1.8176
1.6276
1.55
1.5279
1.5519
1.3736
1.3298
1.1084
1.1033
1.0925
1.6296
1.5229
1.5124
1.5235
1.4949
1.5257
1.4491
1.452
1.5671
1.6021
1.7027
1.7151
1.6458
1.754
1.9262
2.0064
2.0834
2.1155
2.2344
