0.46783
0.53657
0.58874
0.56671
0.44713
0.42303
0.58306
0.52755
0.5642
0.53059
0.57132
0.5276
0.54239
0.4647
0.43062
0.49392
0.4852
0.50533
0.49438
0.56688
0.49882
0.45128
0.48166
0.44146
0.43073
0.44672
0.43455
0.4488
0.54232
0.53482
0.51957
0.52191
0.5266
0.42478
0.40137
0.43781
0.37072
0.44974
0.50486
0.48039
0.43269
0.43147
0.44087
0.45128
0.44895
0.44407
0.50781
0.58469
0.5473
0.55214
0.59179
0.55869
0.56864
0.4921
0.50471
0.55199
0.58872
0.5449
0.53492
0.51167
0.50588
0.59511
0.52784
0.55403
0.5372
0.58412
0.56769
0.54433
0.54962
0.59924
0.58377
0.57105
0.57593
0.52827
0.56766
0.5427
0.55148
0.53378
0.51273
0.51974
0.46392
0.42129
0.35101
0.40486
0.39459
0.40741
0.46581
0.46287
0.41191
0.37681
0.36156
0.33891
0.33585
0.3044
0.3168
0.31068
0.3217
0.33688
0.37434
0.38637
0.38702
0.36059
0.26298
0.24739
0.21468
0.22077
0.23556
0.20691
0.22182
0.21174
0.22109
0.23464
0.25018
0.24485
0.27659
0.27335
0.27781
0.24717
0.22331
0.22109
0.24805
0.26217
0.2489
0.31803
0.35256
0.30727
0.30381
0.28377
0.26036
0.2405
0.25225
0.28894
0.30699
0.29989
0.31454
0.3772
0.37952
0.3904
0.34364
0.35044
0.35359
0.37308
0.36404
0.40753
0.38654
0.43671
0.40403
0.38753
0.39392
0.41606
0.37167
0.40339
0.42309
0.46719
0.50497
0.51106
0.50396
0.51565
0.53838
0.63936
0.64291
0.59264
0.62997
0.56997
0.62047
0.60227
0.57763
0.57012
0.49898
0.52112
0.57662
0.50819
0.49758
0.50543
0.49814
0.50191
0.4871
0.56442
0.57954
0.61452
0.51502
0.39359
0.41588
0.41603
0.43656
0.47658
0.5004
0.51253
0.5209
0.50176
0.51252
0.47787
0.46054
0.44952
0.43032
0.42401
0.40901
0.38637
0.40966
0.37996
0.42277
0.45412
0.46716
0.46299
0.46738
0.49025
0.51757
0.50308
0.52017
0.54575
0.58993
0.60258
0.60424
0.59445
0.62673
0.63581
0.55511
0.54272
0.59679
0.57354
0.54614
0.49941
0.48277
0.5172
0.47221
0.47946
0.50012
0.47414
0.45769
0.46393
0.44778
0.47388
0.50929
0.53788
0.5697
0.56815
0.54081
0.56731
0.56186
0.54487
0.51656
0.50413
0.49308
0.495
0.56028
0.55408
0.5429
0.53574
0.5478
0.48356
0.4444
0.45962
0.49648
0.51264
0.56374
0.58057
0.58515
0.57858
0.55357
0.6184
0.61692
0.62
0.63032
0.62404
0.62939
0.67261
0.62361
0.56562
0.58068
0.57822
0.5818
0.60168
0.57846
0.5675
0.54277
0.62966
0.6239
0.64969
0.65586
0.64772
0.66557
0.65515
0.64179
0.64451
0.63994
0.62454
0.61703
0.61342
0.60493
0.6115
0.58748
0.55724
0.56455
0.62238
0.60214
0.58735
0.58879
0.57569
0.61212
0.67337
0.68994
0.68476
0.67635
0.69829
0.69674
0.6898
0.66479
0.67063
0.6507
0.65326
0.62715
0.6119
0.60129
0.57352
0.59327
0.57404
0.54401
0.52726
0.56066
0.59784
0.58356
0.7015
0.72208
0.68992
0.69199
0.71323
0.71706
0.70978
0.72879
0.75106
0.73122
0.75152
0.73397
0.76858
0.75453
0.75672
0.73416
0.75398
0.76294
0.71212
0.76962
0.8079
0.77827
0.77464
0.75206
0.73322
0.69809
0.68232
0.6393
0.68471
0.66304
0.6474
0.64108
0.61513
0.63791
0.66416
0.69717
0.72699
0.71459
0.70465
0.65986
0.65065
0.64425
0.66689
0.68994
0.6948
0.75145
0.7527
0.71488
0.69197
0.65797
0.67829
0.66943
0.6254
0.61521
0.58085
0.57826
0.58968
0.57629
0.55577
0.52967
0.57854
0.62333
0.59132
0.5805
0.57482
0.5681
0.54273
0.55483
0.58061
0.58274
0.61682
0.63615
0.62901
0.62431
0.64478
0.62327
0.62666
0.63477
0.65549
0.66875
0.66579
0.6863
0.68607
0.66224
0.64207
0.65048
0.65974
0.63787
