0.40493
0.41543
0.42502
0.44918
0.44442
0.456
0.47206
0.52517
0.49403
0.48186
0.50127
0.51728
0.53535
0.58299
0.62127
0.64418
0.66193
0.65292
0.65467
0.6402
0.6454
0.64746
0.65117
0.65899
0.63891
0.66027
0.63219
0.63115
0.65012
0.63471
0.65387
0.65781
0.66722
0.63575
0.64807
0.64913
0.64004
0.646
0.65453
0.65224
0.67275
0.65078
0.66282
0.64071
0.66931
0.66953
0.65322
0.65842
0.66683
0.65042
0.61952
