0.035457
0.034859
0.031278
0.02804
0.02112
0.024825
0.027928
0.031041
0.031099
0.027829
0.02473
0.022585
0.016629
0.033264
0.039335
0.045764
0.043037
0.042427
0.03315
0.03791
0.042324
0.040513
0.040453
0.034371
0.026698
0.018267
0.019912
0.025922
0.031505
0.031044
0.029771
0.033438
0.031042
0.03373
0.026048
0.022647
0.026889
0.030563
0.029507
0.028622
0.027086
0.023514
0.022937
0.027684
0.022016
0.021254
0.025617
0.027014
0.027983
0.023733
0.015371
0.02227
0.020102
0.025186
0.031805
0.022316
0.018604
0.013042
0.0098295
0.012193
0.016042
0.020058
0.019014
0.018973
0.018022
0.024485
0.023233
0.02322
0.019085
0.015513
0.019778
0.018096
0.02115
0.025924
0.019394
0.012222
0.016152
0.018056
0.02118
0.02043
0.033538
0.037645
0.041989
0.0454
0.043711
0.048488
0.046924
0.044407
0.044387
0.038513
0.040217
0.042359
0.045934
0.043743
0.046504
0.052922
0.053155
0.053275
0.042501
0.034101
0.033516
0.03086
0.036076
0.037679
0.035789
0.044927
0.040249
0.039834
0.04077
0.037392
0.031068
0.029041
0.029434
0.034201
0.033156
0.024111
0.025784
0.028199
0.031587
0.032882
0.034802
0.026824
0.027078
0.030655
0.030245
0.030094
0.030535
0.03323
0.023146
0.011937
0.012581
0.01443
0.016674
0.0088051
0.0078504
0.011321
0.0056762
0.007432
0.0070809
0.011601
0.010919
0.007035
0.0048917
0.0085362
0.013179
0.01335
0.01664
0.025055
0.026246
0.023761
0.020175
0.015329
0.012503
0.0081979
0.0059179
0.0048603
0.0082555
0.008503
0.0099873
0.01153
0.011639
0.008116
0.010349
0.0074185
0.011266
0.015508
0.016732
0.018041
0.016225
0.018677
0.015198
0.014866
0.017453
0.026138
0.023617
0.020922
0.019338
0.016278
0.02325
0.023062
0.019933
0.021855
0.017839
0.020002
0.023662
0.029247
0.025203
0.022362
0.02546
0.025524
0.027492
0.026354
0.023427
0.020134
0.018926
0.012805
0.014431
0.010016
0.012559
0.010865
0.006534
0.012783
0.025252
0.023177
0.014606
0.01777
0.013706
0.0086385
0.011372
0.011072
0.0099459
0.012058
0.015715
0.017423
0.019399
0.019452
0.021345
0.019344
0.011324
0.0087749
0.011553
0.0088724
0.0084598
0.0093063
0.0086594
0.0073478
0.006285
0.0056806
0.011533
0.0064304
0.0039764
0.0043131
0.0065078
0.006302
0.010498
0.014948
0.012923
0.0094879
0.0098235
0.0065892
0.0071243
0.015457
0.017373
0.020168
0.013633
0.007794
0.009705
0.011116
0.011254
0.0079307
0.0076949
0.0065062
0.0098944
0.016809
0.01561
0.011644
0.010542
0.0073968
0.011429
0.014758
0.016621
0.015338
0.014013
0.012124
0.0076049
0.0067822
0.0047289
0.0078381
0.0066504
0.0099223
0.010686
0.0079804
0.011099
0.01217
0.010513
0.01131
0.0084433
0.0071338
0.0084315
0.0092725
0.013589
0.0088928
0.0057877
0.0098122
0.0096527
0.012994
0.018921
0.015577
0.021255
0.018443
0.015179
0.016179
0.026752
0.024433
0.025826
0.028554
0.029227
0.02973
0.034179
0.03618
0.031642
0.029224
0.020086
0.012664
0.011138
0.0060126
0.0073178
0.015256
0.015033
0.01184
0.013572
0.017724
0.014832
0.01413
0.015922
0.019464
0.019602
0.021792
0.018077
0.022906
0.014569
0.012768
0.014094
0.018311
0.01915
0.021844
0.024351
0.029726
0.027744
0.032846
0.02778
0.029216
0.024539
0.02935
0.035162
0.034563
0.030818
0.034595
0.040362
0.040188
0.047511
0.050727
0.048519
0.043986
0.038851
0.032865
0.036193
0.038181
0.038312
0.039392
0.046182
0.039586
0.042335
0.045045
0.05415
0.065805
0.061602
0.053144
0.04921
0.054089
0.052455
0.049473
0.048456
0.052191
0.04826
0.04709
0.054337
0.052347
0.05073
0.048258
0.046801
0.045301
0.046957
0.046438
0.048044
0.052698
0.043662
0.032452
0.02794
0.022516
0.032814
0.030243
0.028507
0.032494
0.046695
0.047633
0.055152
0.068121
0.070513
0.073113
0.07272
0.07089
0.068133
0.066953
0.066746
0.065838
0.068595
0.071307
0.071694
0.075204
0.079351
0.079794
0.079209
0.077069
0.076451
0.073967
0.065961
0.064011
0.057165
0.054914
0.052538
0.056121
0.066978
0.053701
0.050094
0.040535
0.032521
0.026888
0.028518
0.028327
0.029838
0.034394
0.038274
0.034369
0.037172
0.045789
0.051635
0.056462
0.058504
0.05483
0.051443
0.03849
0.037267
0.031177
0.033375
0.038394
0.035398
0.032989
0.031471
0.023612
0.029759
0.029035
0.020339
0.015912
0.0099278
0.011494
0.016439
0.018637
0.022851
0.026503
0.028623
0.026338
0.028464
0.028304
0.034746
0.037046
0.033068
0.028638
0.011296
0.016408
0.021889
0.025049
0.028686
0.028477
0.027587
0.02888
0.037012
0.035926
0.025891
0.019111
0.024206
0.024576
0.03461
0.039637
0.043072
0.041114
0.035293
0.037624
0.039902
0.042491
0.040585
0.036216
0.033301
0.041126
0.043094
0.034592
0.024589
0.025901
0.024272
0.037217
0.041509
0.040877
0.044166
0.045755
0.050303
0.052463
0.04404
0.043713
0.043593
0.044851
0.044032
0.041835
0.034162
0.031845
0.036281
0.036286
0.036926
0.035291
0.038378
0.041386
0.033971
0.029305
0.025521
0.026091
0.021701
0.026165
0.028909
0.042465
0.034311
0.029666
0.034827
0.050282
0.050098
0.048834
0.049751
0.048112
0.054615
0.058295
0.060474
0.058212
0.060714
0.062779
0.061575
0.062066
0.058593
0.056731
0.055718
0.056594
0.060933
0.045898
0.052115
0.051395
0.05859
0.057126
0.057433
0.057867
0.052925
0.042035
0.041268
0.039869
0.034915
0.040722
0.044358
0.049223
0.048194
0.049912
0.041557
0.033355
0.042845
0.049151
0.062446
0.058966
0.047512
0.034147
0.025334
0.026689
0.028001
0.035759
0.038659
0.036696
0.029616
0.040727
0.042164
0.034613
0.032229
0.032629
0.02982
0.035906
0.02963
0.02736
0.030761
0.034202
0.028227
0.025753
0.023976
0.033434
0.036981
0.029298
0.02238
0.016108
0.019634
0.022278
0.022418
0.023911
0.026439
0.025193
0.023488
0.032731
0.039187
0.045327
0.036209
0.027113
0.033061
0.031247
0.023729
0.022533
0.022068
0.01868
0.024207
0.023893
0.026338
0.020034
0.016883
0.010419
0.009355
0.013403
0.014738
0.015968
0.014806
0.012047
0.012376
0.013897
0.016175
0.01607
0.01492
0.013018
0.010739
0.017303
0.022755
0.021621
0.020397
0.020305
0.02505
0.023392
0.022081
0.014392
0.018093
0.026671
0.029462
0.033439
0.032937
0.031563
0.032664
0.035956
0.036356
0.029605
0.029086
0.029179
0.026121
0.024224
0.025247
0.030136
0.027275
0.032066
0.029224
0.028681
0.034182
0.034087
0.041818
0.044355
0.046683
0.044291
0.048356
0.050619
0.051459
0.048968
0.048155
0.046219
0.044471
0.042381
0.040787
0.041836
0.045236
0.042551
0.038839
0.033788
0.031386
0.035411
0.035634
0.029632
0.027619
0.034914
0.032225
0.034108
0.0328
0.036597
0.033909
0.026813
0.025049
0.022938
0.02579
0.026077
0.02283
0.02327
0.02552
0.021885
0.023548
0.019986
0.019921
0.018032
0.021396
0.028828
0.025957
0.026635
0.022966
0.026047
0.027054
0.024159
0.02642
0.023123
0.023039
0.02337
0.027572
0.035176
0.029316
0.02531
0.023404
0.021743
0.022875
0.024598
0.020764
0.018326
0.023188
0.01773
0.014579
0.015678
0.013479
0.012505
0.014147
0.015052
0.017717
0.017829
0.018446
0.015527
0.012497
0.011149
0.011472
0.013702
0.015201
0.015603
0.01451
0.01576
0.015861
0.01786
0.021683
0.023329
0.027094
0.028862
0.029713
0.029512
0.027196
0.02469
0.034005
0.03208
0.032972
0.036545
0.036066
0.037297
0.043256
0.040608
0.037434
0.039305
0.039966
0.042479
0.043555
0.040803
0.031769
0.029647
0.03159
0.029108
0.024536
0.01586
0.017454
0.022464
0.021903
0.016492
0.013689
0.015582
0.016771
0.012264
0.019939
0.018924
0.016148
0.016748
0.017051
0.018177
0.013956
0.024404
0.024493
0.029892
0.033781
0.038178
0.040909
0.04051
0.034571
0.03528
0.035662
0.035917
0.037314
0.040186
0.039189
0.029551
0.021242
0.016453
0.016502
0.015199
0.016379
0.019163
0.014764
0.010895
0.018364
0.024017
0.024467
0.030708
0.040427
0.040263
0.048647
0.046294
0.043027
0.040177
0.032155
0.024356
0.023989
0.02092
0.024781
0.027666
0.034785
0.039829
0.031406
0.027585
0.026772
0.024275
0.02454
0.029923
0.031877
0.029296
0.024845
0.025192
0.025725
0.024942
0.020823
0.02307
0.020935
0.017905
0.032153
0.030308
0.025968
0.03291
0.035512
0.030777
0.030365
0.034325
0.035007
0.036105
0.038675
0.038076
0.040512
0.04072
0.044258
0.051076
0.05346
0.044671
0.045468
0.044613
0.044103
0.041251
0.032833
0.030838
0.038304
0.0397
0.041443
0.036067
0.029607
0.033027
0.035372
0.038308
0.044308
0.045838
0.047306
0.048076
0.049768
0.052835
0.051372
0.046104
0.048823
0.053389
0.048773
0.049618
0.046108
0.049083
0.042108
0.044801
0.050429
0.051678
0.04578
0.049429
0.051846
0.048233
0.049587
0.049622
0.051407
0.048146
0.050565
0.057325
0.058842
0.051687
0.054263
0.050629
0.050506
0.054849
0.053182
0.045851
0.047701
0.049106
0.047267
0.0371
0.028157
0.027853
0.03056
0.0338
0.040342
0.04014
0.037316
0.039731
0.028173
0.032155
0.036863
0.044058
0.043627
0.054169
0.050539
0.047915
0.048996
0.050202
0.046117
0.040098
0.035641
0.027751
0.032899
0.037929
0.035165
0.036462
0.031988
0.034396
0.031497
0.039636
0.035055
0.034185
0.038908
0.0347
0.03573
0.037301
0.03348
0.030341
0.03294
0.032728
0.032858
0.031176
0.027378
0.032101
0.032232
0.038329
0.039252
0.040247
0.043387
0.041792
0.041431
0.038046
0.036622
0.037403
0.031461
0.028209
0.023846
0.031272
0.037116
0.037273
0.034615
0.035569
0.03348
0.033491
0.035478
0.032954
0.029758
0.033186
0.030901
0.036325
0.037562
0.038759
0.036256
0.04354
0.042512
0.043958
0.049324
0.054501
0.058477
0.05417
0.049664
0.051682
0.050852
0.052852
0.055385
0.061409
0.062233
0.056422
0.05338
0.057333
0.060292
0.058535
0.061576
0.057174
0.053419
0.060271
0.065142
0.06414
0.062365
0.060101
0.062114
0.066041
0.069226
0.07001
0.064628
0.062045
0.063105
0.065889
0.06757
0.06735
0.061639
0.061011
0.062455
0.062688
0.051919
0.051621
0.048576
0.051752
0.063013
0.071771
0.076963
0.076327
0.075877
0.077678
0.077763
0.077668
0.077634
0.074615
0.073488
0.07048
0.077476
0.077048
0.074028
0.072292
0.068784
0.067966
0.068535
0.070048
0.070826
0.070831
0.069524
0.066442
0.064884
0.067673
0.067003
0.064221
0.057248
0.057966
0.057242
0.0548
0.058226
0.060331
0.05394
0.060984
0.064569
0.069536
0.063908
0.062528
0.058045
0.053098
0.050339
0.050752
0.047714
0.045214
0.051349
0.049373
0.051001
0.055496
0.056995
0.057798
0.059649
0.062169
0.057555
0.053134
0.041932
0.035763
0.038697
0.048441
0.053835
0.05397
0.052919
0.03517
0.048124
0.053248
0.047396
0.048448
0.048143
0.040494
0.040975
0.039015
0.039619
0.043753
0.047946
0.047522
0.045341
0.046991
0.040935
0.031307
0.037304
0.043817
0.04165
0.037318
0.03843
0.042083
0.048603
0.046477
0.043789
0.043186
0.043286
0.037115
0.037393
0.037514
0.034671
0.039745
0.045567
0.049937
0.04997
0.043512
0.040051
0.040214
0.036955
0.02763
0.028607
0.029686
0.029442
0.029644
0.025874
0.019095
0.021259
0.021311
0.01982
0.024713
0.031263
0.035083
0.029051
0.027242
0.026679
0.028695
0.031357
0.035054
0.04079
0.048714
0.048387
0.044085
0.041951
0.042696
0.041473
0.041589
0.033039
0.032499
0.037787
0.035576
0.037931
0.042027
0.042933
0.039852
0.043122
0.045777
0.04673
0.048223
0.047616
0.046207
0.041897
0.043174
0.041417
0.041909
0.040395
0.034473
0.037139
0.037034
0.038369
0.0381
0.038387
0.03795
0.033106
0.036496
0.032031
0.034706
0.032836
0.032942
0.031153
0.02712
0.031478
0.034699
0.036896
0.03956
0.036347
0.039278
0.042122
0.041769
0.042192
0.047114
0.040804
0.036611
0.046023
0.049962
0.04729
0.044882
0.045746
0.048219
0.044543
0.04284
0.043905
0.044051
0.035462
0.037764
0.037824
0.037726
0.037791
0.036157
0.042069
0.044288
0.043354
0.048002
0.053161
0.054519
0.050268
0.050296
0.052806
0.051126
0.051561
0.048649
0.050238
0.052195
0.05022
0.051081
0.052745
0.052271
0.046776
0.043893
0.042611
0.040015
0.037679
0.037303
0.036176
0.027349
0.027566
0.026869
0.026356
0.028306
0.028154
0.029147
0.024814
0.023566
0.02428
0.023235
0.021192
0.015593
0.020714
0.023473
0.033291
0.03512
0.040175
0.042061
0.043798
0.047734
0.051061
0.053791
0.05446
0.055694
0.056264
0.056536
0.05628
0.056211
0.05812
0.061636
0.060165
0.058927
0.055255
0.050567
0.039484
0.03939
0.040206
0.039435
0.039675
0.039815
0.042761
0.042436
0.047855
0.0481
0.049806
0.052522
0.065264
0.065769
0.065119
0.063679
0.063301
0.06147
0.055989
0.057123
0.051446
0.041516
0.045136
0.046181
0.042598
0.043797
0.049587
0.053181
0.052294
0.045547
0.047979
0.048709
0.043883
0.042722
0.044335
0.046496
0.046208
0.051808
0.061942
0.053085
0.051226
0.054483
0.055392
0.047318
0.049051
0.051807
0.049822
0.050873
0.051049
0.057206
0.04474
0.047616
0.048442
0.045655
0.046515
0.045418
0.049399
0.055339
0.060462
0.059228
0.056097
0.058202
0.055971
0.058061
0.062511
0.065159
0.066012
0.068522
0.070483
0.069399
0.065837
0.064082
0.066896
0.067067
0.065261
0.065061
0.064385
0.067614
0.064576
0.059732
0.057529
0.058734
0.057028
0.057457
0.062401
0.060151
0.054236
0.054963
0.055914
0.051804
0.043149
0.037583
0.032042
0.035016
0.03491
0.037729
0.037967
0.034774
0.030085
0.028783
0.027013
0.023337
0.019842
0.016268
0.020155
0.029064
0.024954
0.026418
0.025154
0.028203
0.023546
0.028003
0.025778
0.028774
0.025912
0.027853
0.030594
0.033959
0.036768
0.037759
0.031324
0.024882
0.023545
0.024675
0.026928
0.026898
0.026042
0.024506
0.020803
0.018595
0.019456
0.028422
0.03283
0.024319
0.023446
0.024181
0.022586
0.02141
0.019937
0.020659
0.017493
0.020768
0.020225
0.019419
0.02247
0.025839
0.026006
0.022039
0.026371
0.025705
0.029357
0.034108
0.034315
0.031191
0.032545
0.031682
0.028584
0.030576
0.028367
0.026423
0.027535
0.024366
0.021275
0.018826
0.025991
0.025789
0.02508
0.020692
0.015913
0.014251
0.014946
0.015434
0.018849
0.01531
0.012173
0.012612
0.011586
0.016484
0.013807
0.01316
0.013932
0.017613
0.019022
0.022924
0.023406
0.021661
0.020295
0.011065
0.0099169
0.012971
0.013383
0.021838
0.029157
0.029283
0.02882
0.028172
0.029163
0.029745
0.029866
0.030823
0.030701
0.025803
0.021813
0.02136
0.022864
0.025141
0.033321
0.033431
0.023422
0.015527
0.017202
0.0218
0.022558
0.021153
0.018087
0.017402
0.015663
0.015593
0.015929
0.011915
0.0084941
0.01358
0.012132
0.016851
0.016139
0.014415
0.01614
0.013106
0.016557
0.016459
0.013522
0.012469
0.014307
0.012785
0.017314
0.015328
0.0077532
0.011162
0.010763
0.0089155
0.0071181
0.0079766
0.011881
0.011105
0.013068
0.013431
0.019887
0.018255
0.016656
0.015822
0.014166
0.013729
0.016032
0.014
0.016904
0.015324
0.018671
0.017419
0.018391
0.015949
0.015231
0.017133
0.01267
0.015737
0.012861
0.015316
0.017645
0.027126
0.027312
0.026759
0.020706
0.023559
0.024431
0.024913
0.025962
0.025331
0.030068
0.032372
0.031407
0.029002
0.030931
0.032939
0.026015
0.029633
0.02972
0.027761
0.028035
0.036031
0.036987
0.039036
0.04019
0.038004
0.032723
0.031608
0.027949
0.029602
0.022856
0.016373
0.016816
0.015324
0.021663
0.021698
0.018271
0.016501
0.014337
0.017171
0.016188
0.017381
0.01616
0.014616
0.014451
0.013226
0.012197
0.010529
0.014215
0.01699
0.014618
0.016773
0.019893
0.021772
0.022784
0.022961
0.022891
0.022579
0.02464
0.028765
0.029959
0.033838
0.030528
0.023868
0.021222
0.020222
0.017679
0.013971
0.015635
0.018231
0.020553
0.024122
0.028956
0.025972
0.024164
0.020016
0.011618
0.014014
0.023158
0.028114
0.022789
0.024014
0.030375
0.032618
0.033889
0.036096
0.03496
0.036077
0.033165
0.034758
0.038299
0.033037
0.032361
0.037512
0.036849
0.038658
0.043826
0.045146
0.046743
0.046996
0.046876
0.047995
0.054243
0.054357
0.055886
0.056059
0.05501
0.050934
0.05069
0.048381
0.046982
0.048349
0.050743
0.060421
0.061193
0.063777
0.058889
0.054952
0.051485
0.048926
0.047698
0.049563
0.048231
0.052912
0.047582
0.043121
0.044993
0.048811
0.051906
0.052866
0.054677
0.054816
0.056121
0.055274
0.046865
0.048614
0.0477
0.046595
0.044601
0.040769
0.043979
0.046019
0.051714
0.05341
0.054758
0.058962
0.058868
0.059558
0.057132
0.055726
0.05473
0.055257
0.064057
0.062994
0.061174
0.056621
0.05432
0.049313
0.045869
0.042635
0.045522
0.049642
0.058734
0.060876
0.057405
0.053408
0.053252
0.056785
0.056194
0.054469
0.054207
0.052666
0.056909
0.056591
0.05789
0.053884
0.05827
0.056987
0.056489
0.057234
0.054121
0.045165
0.038875
0.045226
0.04766
0.052355
0.051789
0.053788
0.054216
0.059712
0.054687
0.054163
0.048174
0.052123
0.053571
0.054925
0.05796
0.060919
0.060259
0.060007
0.057697
0.064279
0.061524
0.064788
0.066105
0.067468
0.071217
0.078603
0.082307
0.083875
0.086922
0.088508
0.090519
0.092246
0.093854
0.088212
0.087843
0.090857
0.088686
0.088713
0.087768
0.086547
0.079775
0.079558
0.078976
0.07595
0.074232
0.080315
0.083435
0.084247
0.088794
0.084513
0.081442
0.084571
0.084583
0.084408
0.093012
0.093773
0.095886
0.099777
0.10186
0.1024
0.10127
0.10236
0.10189
0.10329
0.10581
0.10671
0.10746
0.10798
0.10568
0.098139
0.095225
0.092698
0.087869
0.090028
0.0912
0.094801
0.094073
0.075565
0.087465
0.08943
0.0913
0.092282
0.086646
0.087328
0.090227
0.090434
0.08736
0.090863
0.089633
0.091708
0.093913
0.09697
0.092114
0.090154
0.09662
0.095342
0.096375
0.090081
0.086462
0.088117
0.081209
0.075568
0.075465
0.074122
0.073481
0.073026
0.076824
0.082916
0.080979
0.079238
0.080503
0.077781
0.069478
0.066057
0.065032
0.068671
0.072414
0.071992
0.074673
0.079469
0.082634
0.076884
0.075154
0.072044
0.068536
0.061031
0.05594
0.057673
0.057021
0.05263
0.050306
0.059311
0.058822
0.061003
0.061403
0.059747
0.057599
0.0633
0.073157
0.080719
0.080565
0.077433
0.07031
0.067996
0.062333
0.069153
0.069038
0.071106
0.070857
0.068369
0.067363
0.066449
0.058429
0.062373
0.060137
0.060697
0.065001
0.064261
0.065916
0.064181
0.066835
0.06373
0.070329
0.076572
0.073389
0.069629
0.068783
0.077057
0.075708
0.06439
0.066735
0.065202
0.066377
0.067062
0.070693
0.067881
0.071011
0.073825
0.074717
0.070094
0.068458
0.068889
0.068982
0.068132
0.065077
0.064635
0.064479
0.06538
0.065969
0.065807
0.061698
0.062582
0.062711
0.061764
0.060917
0.057068
0.057357
0.059729
0.062714
0.063609
0.062744
0.060942
0.060007
0.062046
0.061435
0.058486
0.055387
0.058822
0.055098
0.059403
0.066689
0.067487
0.065156
0.064708
0.069664
0.071172
0.068663
0.066528
0.063316
0.062034
0.063214
0.065491
0.067182
0.066062
0.066303
0.064757
0.062955
0.063824
0.055082
0.054039
0.054056
0.053435
0.054265
0.052666
0.049769
0.049792
0.047292
0.046667
0.047925
0.045761
0.040479
0.034589
0.037106
0.037776
0.037164
0.031731
0.029362
0.032819
0.030609
0.027025
0.026991
0.032099
0.032775
0.037975
0.035804
0.035541
0.041975
0.04242
0.044108
0.048035
0.04511
0.043338
0.042791
0.040663
0.042711
0.042244
0.041877
0.039453
0.043262
0.043639
0.045024
0.051754
0.052926
0.052954
0.051845
0.052422
0.047737
0.042342
0.035822
0.03622
0.046078
0.051002
0.044331
0.038039
0.035113
0.034387
0.032385
0.037653
0.042962
0.045704
0.043726
0.042039
0.040611
0.032936
0.03992
0.037115
0.038618
0.042089
0.039082
0.039341
0.037571
0.037423
0.036698
0.043263
0.041036
0.041617
0.040813
0.04199
0.036888
0.039214
0.042625
0.044174
0.047635
0.04886
0.049543
0.048036
0.045062
0.0462
0.038801
0.031583
0.028631
0.026017
0.032165
0.032606
0.032465
0.027334
0.022516
0.023216
0.025676
0.030281
0.025692
0.024036
0.02201
0.029788
0.03067
0.034058
0.032541
0.036261
0.034396
0.032634
0.035609
0.04084
0.03939
0.039647
0.038452
0.034146
0.031047
0.035217
0.032493
0.025018
0.023681
0.025362
0.024802
0.033385
0.030789
0.029011
0.029532
0.027241
0.037831
0.035341
0.036345
0.039001
0.032821
0.026549
0.026548
0.021542
0.027236
0.032502
0.033711
0.028331
0.031108
0.028319
0.026774
0.028393
0.032034
0.032544
0.028994
0.027346
0.026635
0.02516
0.022006
0.024403
0.028606
0.033429
0.038709
0.040402
0.04527
0.050925
0.058328
0.061321
0.050835
0.053431
0.056977
0.055826
0.05538
0.056775
0.06105
0.065133
0.058851
0.062942
0.067252
0.067468
0.06626
0.070697
0.071081
0.071496
0.072549
0.071984
0.071957
0.071877
0.064549
0.062276
0.062003
0.052998
0.048126
0.049244
0.050613
0.050475
0.054286
0.055138
0.061393
0.062361
0.059885
0.061936
0.059602
0.057472
0.055235
0.053552
0.05098
0.054934
0.055242
0.055564
0.056031
0.056269
0.058379
0.056723
0.058895
0.063772
0.058935
0.054253
0.058761
0.05559
0.05321
0.052435
0.049119
0.051113
0.049106
0.049335
0.048167
0.047258
0.046391
0.044485
0.040348
0.048861
0.042315
0.042897
0.043332
0.045672
0.039739
0.038978
0.031155
0.032851
0.03696
0.034929
0.039783
0.038618
0.03621
0.030526
0.028006
0.022767
0.025702
0.021376
0.018542
0.018612
0.019703
0.019211
0.022769
0.028806
0.029122
0.019248
0.020535
0.021332
0.022423
0.025261
0.030535
0.021775
0.027364
0.029975
0.0307
0.026113
0.030102
0.040781
0.045032
0.044912
0.047693
0.042662
0.040185
0.040231
0.037527
0.039161
0.043698
0.044219
0.045704
0.044192
0.044538
0.04307
0.043618
0.043966
0.043025
0.04509
0.044239
0.046264
0.048955
0.051975
0.050056
0.04554
0.044463
0.047541
0.048185
0.043966
0.043184
0.039414
0.038587
0.037898
0.038133
0.038483
0.039751
0.035892
0.03499
0.033517
0.031703
0.029237
0.029776
0.029273
0.02946
0.029013
0.029966
0.028977
0.029364
0.026266
0.030652
0.036222
0.035586
0.035771
0.047549
0.051888
0.050599
0.051212
0.047316
0.046027
0.048403
0.049647
0.055138
0.043946
0.044716
0.04998
0.051229
0.056107
0.055481
0.051798
0.049439
0.042805
0.043167
0.03856
0.036839
0.041253
0.04221
0.040542
0.039199
0.037251
0.034787
0.038542
0.037805
0.042711
0.041717
0.041979
0.043253
0.042099
0.038454
0.040839
0.039322
0.036213
0.032591
0.033979
0.032124
0.031821
0.036192
0.037181
0.041715
0.031016
0.031991
0.03008
0.029152
0.031846
0.034733
0.037896
0.03563
0.036346
0.03932
0.041273
0.039734
0.035172
0.040299
0.044979
0.042966
0.044079
0.041694
0.035548
0.035053
0.030979
0.032103
0.031549
0.022333
0.018843
0.020802
0.024644
0.025705
0.028707
0.029725
0.032735
0.025472
0.029394
0.034327
0.037117
0.035847
0.036287
0.040111
0.042041
0.043887
0.045825
0.045299
0.043687
0.038036
0.032565
0.031655
0.031424
0.031849
0.033709
0.033184
0.031862
0.03189
0.027113
0.027806
0.033499
0.038051
0.039213
0.039678
0.042516
0.039055
0.035999
0.028479
0.027609
0.024584
0.022507
0.019221
0.017943
0.018582
0.018723
0.015903
0.014866
0.018214
0.021193
0.018864
0.014249
0.020124
0.017627
0.015919
0.019456
0.019591
0.019531
0.02196
0.014734
0.023817
0.027146
0.029088
0.020249
0.021008
0.029401
0.025272
0.021782
0.022223
0.020694
0.031389
0.031636
0.035182
0.035787
0.032285
0.031891
0.043644
0.052064
0.053142
0.054936
0.055729
0.053369
0.058974
0.057294
0.055365
0.055131
0.053268
0.058343
0.057753
0.061301
0.063533
0.063779
0.06908
0.068505
0.068332
0.062941
0.058089
0.058564
0.062373
0.063499
0.064605
0.063845
0.065228
0.068309
0.06909
0.069068
0.068487
0.069713
0.072975
0.073472
0.069251
0.061554
0.062914
0.06478
0.064078
0.062424
0.06327
0.062944
0.063043
0.061375
0.068108
0.068896
0.066966
0.061684
0.05976
0.050386
0.054324
0.061631
0.06717
0.064052
0.064671
0.060597
0.057972
0.05802
0.063328
0.066523
0.065748
0.066969
0.071915
0.076011
0.075687
0.078035
0.077217
0.075883
0.080732
0.08643
0.080605
0.07404
0.068908
0.076979
0.075294
0.072296
0.076801
0.08823
0.09541
0.097478
0.10277
0.094111
0.093579
0.093969
0.096916
0.10298
0.10702
0.10776
0.10899
0.10721
0.10656
0.1029
0.094756
0.088951
0.085323
0.086095
0.085314
0.08282
0.075547
0.073223
0.069934
0.068177
0.065791
0.059361
0.060088
0.063212
0.070028
0.066482
0.065518
0.062739
0.062067
0.059232
0.057669
0.062261
0.06579
0.067946
0.0625
0.05167
0.047593
0.046526
0.054933
0.057992
0.059549
0.059546
0.066376
0.068933
0.073243
0.073518
0.073081
0.069334
0.067543
0.067557
0.065884
0.056366
0.053956
0.051427
0.05366
0.055477
0.062019
0.06166
0.069163
0.070632
0.067028
0.067495
0.065787
0.069768
0.06862
0.070197
0.070037
0.066492
0.06981
0.067136
0.066242
0.064781
0.06209
0.059257
0.060944
0.063917
0.061822
0.056462
0.052979
0.05495
0.057711
0.057263
0.057112
0.063413
0.065477
0.067549
0.069145
0.070243
0.070671
0.069537
0.062636
0.061361
0.061803
0.057844
0.060918
0.061748
0.061091
0.06108
0.06009
0.058448
0.059373
0.058209
0.052733
0.036644
0.033749
0.035201
0.036662
0.029106
0.026909
0.028165
0.03455
0.027918
0.028439
0.029142
0.033055
0.035786
0.038821
0.046155
0.04843
0.047347
0.047308
0.044333
0.042769
0.0436
0.033427
0.032009
0.033628
0.037157
0.035324
0.035797
0.03544
0.035618
0.032692
0.034095
0.037662
0.038055
0.028667
0.024955
0.022101
0.019557
0.019294
0.023534
0.030394
0.031585
0.032128
0.034059
0.034999
0.035825
0.03619
0.036941
0.037626
0.039559
0.041366
0.033433
0.029318
0.027681
0.029316
0.034162
0.037341
0.036432
0.037803
0.038611
0.034126
0.032582
0.031007
0.030684
0.029266
0.028612
0.032267
0.044269
0.04531
0.046459
0.039124
0.035554
0.038742
0.039703
0.047229
0.048338
0.050387
0.048336
0.045454
0.043817
0.039594
0.039488
0.044435
0.045149
0.046049
0.046885
0.049045
0.050836
0.049264
0.050318
