1.9584
2.0925
2.1821
2.2071
2.1163
1.9791
2.0713
2.2233
2.1609
2.1596
2.164
2.2532
2.2247
2.2379
2.3161
2.3777
2.358
2.4016
2.3707
2.2891
2.3045
2.3486
2.3153
2.3133
2.2188
2.2891
2.3353
2.2628
2.2783
2.3392
2.3854
2.4579
2.2645
2.2515
2.237
2.1694
2.1672
2.1535
2.3153
2.4243
2.7244
2.7528
2.7671
2.7611
2.8187
2.7691
2.7542
2.7055
2.5822
2.5416
2.5399
2.7054
2.6534
2.6332
2.8049
2.8462
2.8449
2.7987
2.815
2.7533
2.7751
2.897
3.0007
3.0253
3.0291
2.8792
2.8012
2.8397
2.8299
2.8631
2.8395
2.8597
2.9284
2.9845
2.9689
2.9405
3.0048
3.0505
3.0211
3.0181
3.0773
3.0949
3.054
3.0439
3.1194
3.1623
3.1343
3.1031
3.0494
3.0911
3.0978
3.1532
3.1034
3.1002
3.0754
3.104
3.1465
3.1069
3.2406
3.2316
3.2219
3.1262
3.1339
3.0181
3.0293
2.9572
3.113
3.1175
3.0323
2.8956
2.7948
2.9109
2.9576
3.0145
3.1971
3.1427
3.2462
3.3449
3.1957
3.2363
3.243
3.3003
3.2931
3.3326
3.2743
3.2752
3.2745
3.2596
3.1953
3.152
2.999
2.9999
2.981
3.0426
3.123
3.1206
3.1491
3.1905
3.1625
3.0878
3.1846
3.1498
3.1893
3.2434
3.281
3.2914
3.2088
3.1969
3.1941
3.2841
3.2078
3.0815
3.2238
3.1685
3.1007
3.0208
2.8626
3.0356
3.0455
2.9876
3.0063
2.962
2.9627
2.947
2.9276
2.9286
2.8797
2.949
3.0113
2.9691
3.0126
3.0023
2.8543
2.8402
2.9244
3.0743
3.0826
3.0026
2.7909
2.7983
2.8335
2.9643
3.063
2.9255
2.9021
2.94
2.7506
2.7476
2.9087
2.9935
3.0659
3.0584
3.0006
2.9788
2.8898
2.8819
2.8799
2.8932
3.0788
3.0375
3.0538
3.0685
2.9908
2.9213
2.9581
3.1072
3.0316
2.8796
2.7975
2.8178
2.796
2.8101
2.801
2.7501
2.7607
2.6881
2.7499
2.7474
2.7847
2.7909
2.801
2.8391
2.8463
2.7809
2.6984
2.7275
2.6721
2.6161
2.457
2.4352
2.2547
2.1139
2.242
2.4973
2.4236
2.4056
2.5847
2.5384
2.5032
2.5168
2.4003
2.4616
2.3726
2.219
2.1576
2.3131
2.2553
2.121
1.8247
2.1876
2.1492
2.2616
2.3241
2.2895
2.4504
2.5377
2.4667
2.4041
2.4722
2.477
2.5652
2.6195
2.5628
2.5415
2.7116
2.7615
2.7116
2.6112
2.7308
2.8795
2.9215
2.7914
2.644
2.555
2.5231
2.379
2.2618
2.2824
2.3584
2.2291
2.3247
2.4707
2.3433
2.4072
2.3715
2.3683
2.4297
2.5483
2.7322
2.7154
2.6764
2.5484
2.3951
2.3933
2.643
2.7103
2.6668
2.6306
2.6343
2.9675
3.0929
3.0027
3.0606
3.0664
2.938
2.9141
2.9145
2.6653
2.5561
2.7575
2.757
2.6066
2.7218
2.7165
2.6716
2.8006
2.7945
2.7784
2.6469
2.4532
2.4002
2.6356
2.5107
2.4944
2.4698
2.2369
2.1893
2.1053
2.0481
2.0973
2.1205
2.1172
2.0804
2.127
2.1614
2.1225
2.2536
2.1702
2.0927
2.157
2.31
2.4013
2.2951
2.4083
2.4499
2.5161
2.5599
2.4169
2.5569
2.6247
2.7151
2.7356
2.8055
2.811
2.892
2.9991
3.0292
2.8791
2.9262
2.9708
2.9194
2.8716
2.8825
2.9325
2.9615
2.9287
2.7629
2.7275
2.9449
2.7985
2.9188
2.8616
2.7973
2.6294
2.5916
2.3497
2.3353
2.3097
2.2864
2.1142
2.2015
2.3617
2.421
2.2994
2.326
2.2611
2.3327
2.1731
2.3463
2.2966
2.3051
2.1316
1.9941
1.8439
1.6767
1.4861
1.6081
1.5028
1.3898
1.4425
1.382
1.4176
1.4883
1.5228
1.537
1.4291
1.7679
1.8206
1.7813
1.6283
1.4212
1.6902
1.4714
1.5461
1.6081
1.592
1.6925
