0.39815
0.32955
0.36911
0.34861
0.33361
0.40429
0.33537
0.37145
0.31408
0.28557
0.25375
0.17321
0.15434
0.10916
0.079551
0.048323
0.078179
0.13411
0.14015
0.15477
0.13826
0.10288
0.068814
0.084404
0.10381
0.13676
0.146
0.17027
0.12601
0.14856
0.16149
0.15286
0.19291
