13.201
13.534
14.036
14.954
13.95
14.286
12.709
12.903
11.908
11.41
11.197
11.362
10.087
8.9338
9.5424
9.0577
8.2692
7.1577
7.1508
7.3132
5.8258
6.7488
8.351
8.8968
10.077
10.364
9.8594
9.6592
9.9492
10.839
11.431
11.605
11.395
11.996
13.037
13.758
14.802
15.036
15.515
15.625
15.803
15.335
15.488
14.893
14.49
15.193
14.75
15.464
15.803
15.193
14.452
15.003
14.76
14.274
13.852
12.699
11.864
12.035
12.056
11.298
11.983
12.305
12.959
11.167
11.365
11.565
10.944
12.165
12.794
12.833
11.93
12.873
13.312
14.284
14.699
15.16
15.31
14.873
15.11
16.052
16.489
15.87
16.436
14.768
14.133
13.867
13.03
13.015
12.206
11.987
11.883
12.941
13.259
12.813
11.95
12.025
12.044
13.762
13.776
13.408
12.869
12.879
11.846
11.413
12.607
12.683
12.658
12.636
12.183
11.459
11.255
9.9868
10.412
10.491
11.48
10.302
10.309
9.6808
10.336
9.4773
9.7024
9.0191
9.596
8.666
9.0409
9.7351
10.265
8.6924
8.2468
7.9773
8.6089
9.9925
11.205
11.348
11.712
12.334
13.111
13.229
13.713
14.496
14.298
14.52
14.7
13.943
13.739
14.119
14.27
14.45
15.053
14.705
14.035
14.289
14.544
13.91
13.814
14.24
14.82
14.72
14.882
15.379
15.041
14.766
13.737
15.173
15.168
14.822
14.624
14.219
13.302
11.848
10.491
10.126
9.7432
11.837
9.8369
10.255
10.443
10.11
9.8623
9.5174
9.3874
8.7286
9.1803
9.4007
8.9638
8.535
8.6485
9.5071
8.7448
9.0635
9.3485
8.8311
7.983
8.1245
8.8785
9.2874
9.7123
9.6645
8.6625
9.6563
9.8411
8.8961
6.9597
9.2321
9.0542
8.9285
9.6787
8.4659
7.6179
8.9559
9.6991
8.6867
8.2761
8.9812
9.5591
9.4591
9.2324
9.375
9.3516
10.365
9.9244
9.62
9.4519
11.365
11.767
11.37
10.107
10.197
11.326
11.246
11.063
10.335
10.43
9.8469
9.1461
8.5984
8.6913
7.9787
6.6554
6.628
6.7337
5.4389
6.5365
7.4596
7.2782
7.2168
6.8255
7.4086
7.8273
6.2054
3.8501
4.8608
4.8586
5.233
5.246
4.3412
4.6143
4.8215
3.8244
4.2933
5.9954
6.1048
5.5583
3.6907
3.9666
3.2924
4.1068
4.049
4.1826
3.3854
1.4977
2.9703
2.4601
2.8125
2.7638
1.9595
1.3066
2.081
1.5102
1.3489
2.3394
2.0169
2.0919
2.1077
1.8733
2.2941
2.5923
3.42
2.4353
1.9384
2.1382
2.5642
3.1361
2.6934
2.6221
2.6659
3.1885
1.5135
1.4001
1.3975
0.89696
1.113
0.23483
0.73015
1.0242
1.3768
0.34183
0.84014
0.55731
1.0911
0.41687
1.1762
2.0092
1.7717
1.9837
1.0428
2.3144
2.003
1.5329
1.7797
1.8234
3.8673
2.6868
0.89898
1.2003
1.1424
2.9961
1.5128
2.5179
3.6331
3.2599
2.5932
3.0882
4.3506
3.9342
3.3527
3.4115
3.8438
4.6204
4.0117
3.6658
3.8489
5.2863
4.971
5.222
5.3727
2.5984
1.9925
1.6088
1.2669
2.083
1.7564
2.0881
0.92243
1.0585
1.2108
0.85551
0.67629
0.97166
0.9375
0.3324
1.5677
1.3222
1.0951
0.80929
0.5021
1.0288
0.96988
0.87053
0.96563
1.2167
0.89746
1.9255
1.9151
0.75541
0.76931
1.548
1.4887
2.9306
4.2622
3.7079
4.0738
4.4145
4.8475
2.95
3.2279
3.6042
3.6715
5.2638
6.0382
6.0025
5.4765
5.4883
5.0487
4.3657
4.032
3.5758
3.5302
3.8943
4.5685
4.8382
4.6604
4.9184
4.4886
4.2681
5.3583
6.1727
6.2377
6.281
6.3237
6.1664
6.8609
7.5269
6.9015
7.0211
6.0484
6.2862
6.0423
6.4743
6.1887
6.1879
6.2888
7.7388
6.703
5.416
4.9004
4.9985
5.5945
5.7429
5.241
5.1759
6.0844
6.0787
6.523
6.8594
7.0653
7.4018
7.3715
7.4107
8.1094
7.1583
6.9021
7.0037
5.9239
5.9251
5.4614
4.9644
5.4494
6.1504
6.6532
6.5717
6.8526
6.8714
7.0381
5.5739
5.7494
5.3001
6.2019
6.2852
5.8799
4.645
4.9925
4.5514
4.5095
4.2671
4.4697
3.4308
4.677
5.0045
5.6073
5.0758
4.9036
5.4609
5.5589
5.7323
6.011
6.3385
6.4854
5.9731
6.3684
6.0333
5.9335
5.9728
5.2422
3.9359
3.3865
3.2027
2.9266
3.3205
3.4356
2.6526
3.1696
4.5534
5.3456
6.2662
7.0384
6.3433
7.4145
8.5037
8.9901
10.273
10.209
10.811
11.383
11.54
12.293
12.479
12.521
12.665
11.732
11.008
11.402
12.318
10.794
10.936
10.286
10.419
11.048
11.512
11.225
11.76
12.242
11.317
11.914
11.818
12.669
12.631
12.105
12.611
12.65
12.912
12.903
12.43
11.661
11.985
12.661
12.827
13.038
12.569
12.009
11.681
11.472
11.021
10.646
10.861
9.7923
9.2794
8.6988
8.2604
7.7257
8.1024
8.1686
9.6688
9.5703
8.5984
7.8248
7.8493
7.3739
7.2749
7.439
6.9538
6.2659
7.0092
7.4601
5.3894
6.0157
6.3729
6.3239
7.6868
8.0718
7.6396
8.3871
8.5408
8.5521
8.6118
9.4952
9.8969
9.9131
9.8446
10.29
9.3073
9.7756
8.7663
9.0015
8.0196
7.7872
7.8386
8.4013
9.6777
9.6409
8.5604
8.6698
7.3957
5.263
6.1562
5.1661
5.417
5.1095
5.3809
6.5955
6.1023
6.2939
6.2031
6.6839
7.2316
7.0474
7.6495
7.5717
7.0228
5.7809
6.2555
7.2297
7.937
6.7087
7.194
8.338
8.712
9.1518
10.427
10.706
10.835
9.5786
9.0755
9.056
8.7135
9.5745
10.17
10.128
9.8627
8.8919
7.5985
7.1263
7.3271
6.5878
5.3025
4.6365
4.8897
6.2565
6.3425
7.4547
7.9616
7.5992
7.2115
7.2616
7.9877
8.3589
8.1926
7.9835
8.3531
8.6404
9.3993
8.79
8.7899
8.719
9.3553
9.8244
9.3336
9.0402
8.2498
7.9285
7.4551
8.9457
9.1645
8.2126
7.5723
7.6358
7.7136
8.0868
6.459
5.9947
5.154
4.9885
3.7985
4.6349
4.6519
5.1228
4.3851
4.7478
5.0685
4.4244
4.8044
5.0398
5.7801
5.3071
5.2948
5.7843
5.9411
6.0959
3.3123
2.4973
3.3693
4.5318
4.2123
5.6042
5.8954
5.5065
4.5286
4.437
5.0379
5.8432
7.3769
9.0155
7.9338
8.8325
9.2722
10.502
9.7156
8.9157
8.9433
9.3804
9.1124
8.4941
8.5201
9.4976
9.5303
8.1597
8.1364
9.3517
8.9925
8.7506
8.7329
8.4768
9.035
8.5817
8.4254
8.6172
8.808
8.0152
7.8666
7.4628
7.3465
8.0029
7.6613
5.4384
4.1244
4.3088
4.5128
4.727
4.0773
3.4687
3.9767
2.9285
3.1662
2.8154
2.4837
2.7169
2.4606
3.2147
3.1327
1.975
1.7493
3.0497
1.6774
1.8737
2.1691
1.8831
1.778
2.7768
2.9362
1.7475
2.1627
2.9421
2.9706
3.3423
2.7912
3.1538
3.8868
3.4577
2.979
2.373
3.2626
2.4766
1.3217
3.1472
2.3176
3.0485
2.4854
2.9181
2.4258
2.46
3.0978
2.1966
1.3974
2.157
1.2142
1.5534
1.1122
1.1297
1.4281
1.8332
1.6998
2.3396
2.0513
1.8225
0.75553
0.40772
1.1182
1.2729
2.3418
1.7257
1.9696
2.0523
3.234
4.4429
4.3544
3.9614
3.531
4.13
4.8515
4.8439
4.4649
5.1549
4.8217
5.5139
6.0346
6.5992
5.1174
4.6928
4.7452
4.876
5.5316
5.4321
5.7828
6.1914
5.733
4.2818
3.0357
2.7928
2.9176
3.9827
3.8227
3.5679
3.3127
3.9037
3.7948
4.3483
5.3338
5.5305
4.8949
4.4161
5.7778
6.5966
7.1375
6.7041
5.8279
5.9463
3.8937
6.0465
6.4744
6.533
5.4101
4.7649
4.9606
4.3325
2.7786
5.3077
6.1186
6.6041
7.1801
7.4296
7.0345
6.9217
7.0173
6.7996
6.2011
6.196
6.2384
5.5799
4.9045
3.7153
4.5416
3.9493
4.7993
4.8193
4.663
2.805
3.4413
3.7863
3.851
4.3906
5.0834
5.0239
5.9826
5.5749
6.983
7.3872
7.0405
5.8712
6.1796
6.5285
6.7459
6.7602
6.4237
7.0307
7.4315
8.0532
8.2342
9.2409
9.7573
9.97
10.397
10.422
10.785
11.201
11.007
10.55
10.039
9.8733
9.4749
9.9425
10.616
10.243
10.193
8.8697
9.0303
9.6156
7.855
8.126
7.5537
7.9925
8.9237
8.6324
9.6368
9.0454
9.7104
9.4038
9.4003
10.202
9.9748
9.8703
9.4263
9.4062
9.5844
10.142
11.401
12.298
11.377
12.023
11.099
10.964
10.175
9.4931
9.1172
10.942
12.448
11.928
11.542
11.547
10.313
10.258
9.666
10.298
10.13
9.8298
10.113
9.7378
8.4259
8.7605
9.2525
9.3376
8.1108
8.2459
8.8765
8.2286
7.7998
8.2782
6.9545
8.7925
8.0824
8.5617
9.4791
8.4099
8.3037
8.9848
8.951
8.5492
7.0733
7.3981
7.4344
7.7354
6.9637
7.7031
7.4619
7.2956
6.9116
6.9856
6.5398
6.102
6.373
6.1698
6.4469
5.4475
3.9519
4.5856
5.2131
5.4061
6.1288
6.4041
6.7191
6.2109
5.2947
5.944
6.3702
6.4141
6.7583
6.6603
6.07
4.7038
4.4001
4.8762
6.0892
6.1654
6.4707
7.0101
5.6598
5.5341
6.8915
7.3821
6.6294
7.2882
7.4991
7.5946
8.3819
8.1811
8.7448
7.5619
5.9408
5.3245
5.5911
5.5986
5.8198
5.536
5.2308
5.1353
4.6693
4.2128
5.1964
5.2422
4.3751
4.1588
3.2376
4.9103
4.8852
4.7152
4.9918
6.2495
7.8035
7.6605
7.0765
6.9865
7.4366
6.6452
7.4251
8.4337
8.9236
8.6735
9.279
9.2911
9.6777
10.841
10.518
10.761
11.298
11.77
11.943
12.077
12.349
11.788
13.12
11.603
10.992
11.172
10.108
10.761
12.066
10.747
11.392
10.94
11.187
10.944
10.58
10.568
10.371
9.9064
11.163
11.127
11.554
11.455
10.909
10.834
10.666
10.048
10.346
11.49
11.415
10.683
10.645
10.277
9.897
10.727
10.281
10.443
10.036
9.9951
10.283
9.5409
9.2932
8.8216
9.0324
9.1496
9.5814
9.5147
10.142
10.611
11.306
10.82
10.116
10.288
10.017
10.385
10.355
9.0744
10.38
10.287
11.183
9.3997
10.042
10.82
10.678
10.629
11.223
11.376
10.525
10.574
10.216
8.9818
9.8525
9.1105
8.2112
9.7009
9.1554
9.7719
9.29
9.8082
10.405
11.382
11.507
11.628
11.328
10.014
8.9458
9.0807
9.549
9.5979
9.3033
7.902
9.6051
9.0227
7.3283
7.9109
7.3233
6.7627
8.2424
7.0917
6.0359
4.6884
3.4417
4.8561
4.5149
4.427
4.3062
4.2489
4.0996
5.119
5.3008
5.9356
5.2034
5.8838
5.8431
6.5541
6.3159
6.7251
6.7846
7.889
8.1373
7.7462
8.3687
7.3037
7.5724
7.6664
7.3387
6.6705
6.0669
7.0949
6.2311
4.598
6.4399
7.7977
9.0596
8.9547
8.0126
7.5676
7.3265
7.0351
8.3245
7.9187
7.9301
6.9498
8.5594
9.849
8.3303
7.384
7.3621
6.8195
7.7436
8.4408
9.0942
8.6456
7.9632
8.2571
8.4128
7.6691
8.8049
8.1792
8.438
7.0914
7.6615
8.3434
9.2627
10.536
11.085
10.72
11.167
11.463
11.775
12.481
12.696
11.366
11.518
11.023
10.84
10.233
9.9868
10.059
8.9392
8.0959
7.5894
8.2683
7.2041
7.712
8.0916
7.6535
6.3649
5.7618
6.478
7.5506
7.6137
7.4653
6.6906
7.0399
6.7475
6.6258
6.2596
5.915
5.3298
5.179
5.7648
6.2166
5.8983
5.2901
5.3089
5.2657
4.628
4.6316
4.4915
5.231
5.276
4.8045
3.9744
3.9235
4.1784
4.102
4.6671
4.1518
3.7858
3.2928
4.014
4.4841
3.9888
3.4144
3.6865
4.072
4.1621
3.8336
4.3376
4.3929
3.7476
3.4536
3.5161
3.918
3.9179
4.0559
4.3669
3.7935
4.6325
4.6695
5.1062
5.29
6.1652
5.8126
6.0132
6.3623
6.7889
7.4886
7.0925
7.0004
6.708
5.5887
6.8966
7.5809
8.1736
7.9526
7.3463
8.4852
7.7345
7.7611
7.4366
6.7604
6.9312
6.636
6.0024
6.3671
6.4009
6.0099
5.1606
4.3553
4.3742
4.5361
4.3682
5.9002
4.3934
4.4737
4.9651
5.1545
6.0462
6.3975
6.1318
6.1673
6.9801
6.6902
6.1895
6.5015
6.5321
6.267
6.3061
6.4085
5.8937
5.9633
5.8051
6.2299
6.0343
6.067
6.9828
6.4604
6.5132
7.3007
6.652
6.8564
7.428
7.6515
7.8892
7.8015
7.7514
7.4224
7.1082
6.1632
6.8694
6.0827
5.2074
5.7234
6.473
8.3697
8.4325
8.7304
8.7819
8.276
7.8661
8.9189
9.6874
9.5976
10.82
11.416
10.446
10.476
10.409
9.8183
8.1518
7.4651
7.9109
7.7226
7.277
7.0115
8.4784
6.9816
6.7408
7.385
6.6206
6.0816
4.5561
5.3994
5.0896
4.787
5.9734
6.3747
6.0241
6.7745
6.943
7.0364
5.969
7.2399
7.4352
7.0462
6.9204
5.9943
4.4027
4.9807
5.7197
5.6987
