0.062463
0.056774
0.060433
0.060017
0.06634
0.073415
0.080725
0.076731
0.070696
0.06731
0.064642
0.061215
0.061477
0.061099
0.051154
0.046431
0.038928
0.038478
0.041369
0.049752
0.052932
0.059557
0.055981
0.052709
0.049131
0.047739
0.039859
0.043298
0.046522
0.04581
0.042586
0.041972
0.046062
0.043103
0.041392
0.038489
0.038099
0.037516
0.033866
0.043878
0.03812
0.033086
0.036059
0.031369
0.027901
0.026115
0.026105
0.029457
0.031687
0.033198
0.035473
0.034857
0.035197
0.043043
0.047037
0.046767
0.047156
0.048006
0.054994
0.055321
0.058371
0.060255
0.059368
0.056951
0.060403
0.057485
0.058783
0.063139
0.049494
0.041115
0.048617
0.050774
0.054744
0.045378
0.048799
0.049966
0.044452
0.034115
0.038581
0.037801
0.034475
0.037957
0.040155
0.029067
0.029235
0.031082
0.024772
0.030032
0.040389
0.042461
0.039601
0.039208
0.038491
0.030824
0.04536
0.040949
0.037577
0.035109
0.035657
0.034607
0.026898
0.033109
0.03315
0.032833
