13.38
13.078
12.641
12.409
12.27
11.975
11.025
11.228
10.729
10.514
10.287
10.52
11.525
12.043
11.513
11.482
11.346
11
10.408
10.161
10.885
11.603
12.08
11.908
12.046
11.69
10.154
9.8054
8.9911
9.4952
10.345
9.4487
