0.3605
0.38025
0.37625
0.35346
0.31983
0.35396
0.40015
0.3259
0.35223
0.31667
0.33942
0.39702
0.33919
0.34701
0.44382
0.44634
0.4488
0.42978
0.41485
0.34417
0.3196
0.29248
0.2661
0.27803
0.3355
0.32721
0.32783
0.37529
0.40811
0.40518
0.44421
0.39125
0.3965
0.39995
0.41783
0.44653
0.47344
0.48373
0.42242
0.46219
0.44547
0.33465
0.32245
0.22177
0.19844
0.18363
0.13087
0.11584
0.14862
0.16126
0.16288
0.16805
0.17966
0.21121
0.20035
0.16545
0.16985
0.18068
0.24346
0.2019
0.21483
0.2223
0.2081
0.197
0.20007
0.24278
0.34366
0.32163
0.32595
0.33679
0.33445
0.2973
0.29367
0.30439
0.34521
0.32199
0.3329
0.25923
0.23814
0.24755
0.26156
0.26145
0.27167
0.2554
0.28581
0.25974
0.27592
0.25041
0.014869
0.27294
0.40264
0.34636
0.38078
0.31337
0.24909
0.17093
0.15264
0.18494
0.18008
0.16767
0.16291
0.20119
0.25828
0.32478
0.28342
0.30233
0.28806
0.2893
0.26162
0.25111
0.25003
0.23862
0.22288
0.16361
0.096849
0.079328
0.031018
0.039235
0.042482
0.063188
0.10222
0.067887
0.12072
0.1707
0.20774
0.23193
0.27089
0.30346
0.33173
0.3324
0.37223
0.34709
0.36173
0.38405
0.39805
0.36799
0.39382
0.4
0.39024
0.32828
0.28052
0.2667
0.29209
0.31168
0.33894
0.34047
0.32475
0.31777
0.32179
0.3599
0.39745
0.42484
0.40343
0.39784
0.35957
0.31291
0.32123
0.30533
0.25798
0.24512
0.25821
0.28045
0.2709
0.26698
0.25966
0.23593
0.27714
0.23949
0.26535
0.26665
0.321
0.35685
0.34719
0.33884
0.35627
0.38655
0.36531
0.43327
0.42879
0.40834
0.40813
0.37506
0.34661
0.30663
0.28463
0.23404
0.20913
0.15037
0.1155
0.090867
0.077698
0.096938
0.09413
0.12276
0.15218
0.17938
0.17146
0.18535
0.23084
0.25186
0.28155
0.27755
0.22646
0.21254
0.20466
0.18615
0.19337
0.18634
0.16657
0.16189
0.14055
0.11589
0.13299
0.17464
0.18034
0.21553
0.2445
0.25616
0.23303
0.20788
0.19627
0.18526
0.18321
0.17114
0.18643
0.17118
0.16715
0.12674
0.11083
0.12937
0.13139
0.1172
0.1326
0.12301
0.10796
0.11644
0.11334
