2.5032
2.7152
2.3781
2.4835
2.6118
2.7334
2.7853
2.5918
2.5835
2.5922
2.5949
2.3922
2.4106
2.3961
2.2449
2.1416
2.2153
1.8576
1.8357
2.2484
2.2312
2.5166
2.7743
2.6607
2.5054
2.4651
2.5158
2.6076
2.695
2.6096
2.691
2.245
2.2713
2.3651
2.1326
2.056
2.2323
2.4711
2.0045
1.8496
1.7078
1.1741
1.2769
1.5892
1.4512
1.5491
1.4366
