0.068458
0.063176
0.058637
0.049913
0.049576
0.051289
0.053214
0.051548
0.051436
0.05053
0.051567
0.048893
0.046048
0.043537
0.044608
0.045981
0.04262
0.046319
0.046134
0.038817
0.041045
0.039538
0.037689
0.042177
0.042108
0.043056
0.046296
0.051984
0.065464
0.064456
0.06709
0.070329
0.071665
0.06762
0.073974
0.076123
0.074934
0.073784
0.068605
0.072146
0.07599
0.073552
0.070037
0.072042
0.072535
0.077074
0.077823
0.077782
0.078067
0.078574
0.079486
0.078999
0.078975
0.075355
0.071638
0.075061
0.077634
0.080185
0.080772
0.079692
0.075827
0.072166
0.07682
0.081712
0.081996
0.070436
