0.2473
0.27234
0.24049
0.21121
0.18981
0.16944
0.18103
0.17161
0.17281
0.13144
0.097752
0.076216
0.054915
0.08951
0.095925
0.11363
0.11703
0.19563
0.16662
0.17801
0.18122
0.22157
0.22062
0.26578
0.23964
0.18578
0.14266
0.11851
0.14771
0.16092
0.18104
0.22242
0.21068
