0.084188
0.089975
0.097313
0.10089
0.089178
0.086633
0.082303
0.081828
0.084275
0.087005
0.095801
0.095919
0.10626
0.10617
0.10546
0.10546
0.10857
0.10942
0.11218
0.099412
0.094273
0.08882
0.080913
0.075419
0.073759
0.075184
0.070761
0.077064
