3.827
2.0751
1.7664
3.3366
4.348
3.089
2.9222
4.3529
4.5793
5.7357
4.6462
4.3521
5.2009
7.2127
6.5496
6.9167
6.691
6.6061
5.7243
7.5017
5.8259
7.083
7.7795
8.395
11.613
10.85
9.4214
9.4788
7.1449
7.505
8.4049
7.4887
8.4223
7.2022
7.7353
7.1919
8.612
9.0938
7.5713
5.9003
4.3323
4.0463
5.3804
5.8192
4.3678
2.3465
3.4322
3.3345
3.5897
2.6022
2.1716
2.3411
2.9341
2.81
4.8053
4.1496
2.8466
2.9427
2.9364
2.9008
1.2924
0.79338
1.655
1.0268
0.95327
0.53211
2.0083
2.048
3.0529
2.4124
3.6653
2.7196
1.9401
3.7851
3.4705
3.4142
3.7645
4.761
3.8379
4.3308
6.6997
6.4911
7.3742
6.0102
4.8786
4.8242
4.1007
4.727
5.6449
4.4631
2.7475
2.0663
1.8755
2.9369
2.8784
1.7466
2.2676
2.4401
3.079
5.8803
8.0093
8.3618
8.1532
8.6513
9.1768
8.6129
7.9311
6.702
7.342
6.8156
7.3481
7.1376
8.0289
8.0169
7.4753
7.1995
5.8008
4.9513
5.471
5.6681
5.4709
5.2919
5.4702
3.4173
2.5514
3.365
4.2909
4.7113
4.2631
3.8168
3.8988
4.1962
3.3667
5.2048
6.0715
5.4294
4.2577
5.3288
4.254
4.0641
2.795
3.4615
4.378
6.5325
6.2838
5.0688
4.5668
3.7403
2.6874
3.5075
