0.033542
0.031765
0.034691
0.042682
0.04746
0.041972
0.037368
0.032908
0.035283
0.039586
0.044436
0.039078
0.043617
0.050418
0.045808
0.051762
0.051842
0.049952
0.039568
0.049099
0.04055
0.054405
0.058424
0.05805
0.067957
0.061448
0.051453
0.049978
0.037141
0.04247
0.050153
0.047806
0.048342
0.046744
0.054347
0.052471
0.05291
0.056664
0.045366
0.033691
0.023765
0.021387
0.025116
0.032686
0.023099
0.014109
0.022548
0.024982
0.023952
0.021442
0.023332
0.017901
0.018924
0.024177
0.029796
0.025853
0.025622
0.020961
0.022903
0.029585
0.027977
0.023891
0.026075
0.023152
0.02379
0.016285
0.0177
0.012458
0.019142
0.02017
0.020692
0.019145
0.024097
0.035967
0.037571
0.028867
0.028573
0.025793
0.022548
0.026197
0.04098
0.044039
0.044954
0.038482
0.032302
0.0318
0.032475
0.024691
0.038487
0.029081
0.018395
0.014997
0.011438
0.016711
0.018302
0.018453
0.020443
0.023252
0.026657
0.034589
0.041135
0.045872
0.042454
0.046341
0.050683
0.04549
0.036526
0.029967
0.034971
0.033446
0.038688
0.039887
0.042586
0.038283
0.036052
0.036756
0.027573
0.022955
0.02621
0.031191
0.031416
0.026483
0.026655
0.02245
0.010684
0.014095
0.017817
0.022901
0.018561
0.015596
0.019689
0.024238
0.025033
0.03786
0.043686
0.036201
0.02768
0.03332
0.02732
0.025441
0.018117
0.025052
0.02882
0.039345
0.037231
0.032202
0.027099
0.027013
0.020566
0.029761
