0.73774
0.78678
0.79568
0.9464
0.91495
0.83188
0.79993
0.7232
0.63212
0.63555
0.61686
0.6406
0.56221
0.62425
0.73495
0.80944
0.79994
0.79827
0.7778
0.79794
0.80666
0.68296
0.67445
0.66305
0.69265
0.6356
0.55408
0.56627
0.62092
0.66666
0.648
0.6665
0.66695
0.66752
0.75912
0.77763
0.81496
0.8379
0.80955
0.85091
0.81221
0.84689
0.84447
0.80386
0.78139
0.75734
0.71059
0.73527
0.74779
0.70704
0.71294
0.62551
0.72187
0.61788
0.6645
0.72542
0.76288
0.77316
0.78763
0.75698
0.83676
0.75633
0.80786
0.91162
1.0519
1.0176
1.0019
1.0171
1.0736
1.0508
1.0381
1.0686
1.1002
1.0578
0.9557
0.9474
0.98413
0.96107
0.92201
0.87871
0.77625
0.79694
0.88406
0.87916
0.93473
0.92253
0.92872
0.92625
0.98167
0.89081
0.76423
0.78162
0.7877
0.93574
0.98658
0.89501
0.82207
0.87714
0.82168
0.84851
0.86542
0.96229
0.90817
0.94452
0.92701
0.97445
0.91799
0.87536
0.81882
0.91463
0.96712
0.8877
0.97395
0.96725
1.0201
0.94885
0.90374
0.92268
0.90777
0.93202
0.96703
0.93736
0.82082
0.839
0.77861
