0.62123
0.54924
0.58915
0.51336
0.47558
0.45625
0.43632
0.48301
0.37228
0.32291
0.34725
0.31062
0.28878
0.23098
0.15674
0.14435
0.16358
0.14316
0.19647
0.16723
0.15129
0.18521
0.13054
0.16761
0.18378
0.15701
0.17654
0.17599
0.18835
0.25349
0.30604
0.29992
0.27422
0.30558
0.35651
0.40421
0.40338
0.44189
0.46958
0.52131
0.44473
0.44256
0.49218
0.47547
0.53532
0.46094
0.47533
0.44588
0.37237
0.37003
0.41773
0.47387
0.55181
0.55269
0.55268
0.56531
0.58094
0.57919
0.59206
0.61736
0.65806
0.67538
0.68104
0.63295
0.63879
0.64598
0.57111
0.58688
0.52588
0.47745
0.5014
0.48336
0.46006
0.51884
0.48033
0.47258
0.39299
0.40638
0.42098
0.39764
0.40371
0.39792
0.36019
0.32983
0.27782
0.27961
0.32642
0.2756
0.28361
0.26138
0.28378
0.27327
0.33905
0.35571
0.35794
0.30733
0.23835
0.27179
0.25988
0.24019
0.18806
0.2449
0.19648
0.20945
0.22233
0.17916
0.18108
0.25509
0.19128
0.17398
0.099876
0.16095
0.19049
0.18788
0.22591
0.19958
0.23334
0.3151
0.31429
0.22534
0.28415
0.31848
0.29145
0.27331
0.30829
0.33772
0.34466
0.42089
0.45847
0.44953
0.4797
0.51624
0.48703
0.42024
0.4263
0.43789
0.44641
0.41811
0.49056
0.52362
0.53619
0.52843
0.49505
0.50259
0.51309
0.55123
0.5784
0.61485
0.56011
0.51368
0.48104
0.50416
0.51677
0.45647
0.49375
0.48354
0.40176
0.33224
0.33496
0.37618
0.36296
0.37916
0.3771
0.42179
0.42182
0.31779
0.23689
0.25615
0.26941
0.1921
0.17394
0.12637
0.20243
0.21218
0.2452
0.20483
0.20242
0.23332
0.18961
0.21761
0.23706
0.22747
0.20756
0.29154
0.30537
0.28044
0.2838
0.22766
0.22858
0.18622
0.20559
0.15348
0.12294
0.12009
0.061092
0.11287
0.12255
0.14665
0.10768
0.12124
0.12612
0.1545
0.19584
0.18999
0.15493
0.24608
0.27568
0.26315
0.27359
0.28426
0.2372
0.25229
0.19418
0.15072
0.13284
0.10286
0.12623
0.14618
0.16271
0.20667
0.21731
0.23474
0.25865
0.21434
0.23048
0.21309
0.25818
0.26399
0.32905
0.3223
0.32543
0.30643
0.32208
0.32872
0.33719
0.33797
0.29712
0.26719
0.29671
0.29138
0.31053
0.2943
0.27224
0.28578
0.29145
0.2951
0.30723
0.28417
0.33746
0.32648
0.33578
0.35098
0.3742
0.31721
0.28855
0.30609
0.31742
0.32889
0.36806
0.3674
0.38241
0.39586
0.38308
0.38977
0.40386
0.40707
0.41548
0.41261
0.46038
0.46431
0.45418
0.43575
0.42961
0.4388
0.38853
0.40329
0.37904
0.35342
0.35856
0.36251
0.35563
0.33672
0.30001
0.26929
0.24306
0.23238
0.26942
0.24373
0.26859
0.27976
0.30663
0.29998
0.30271
0.30142
0.29793
0.30273
0.26584
0.23776
0.24727
0.27264
0.24796
0.27441
0.26147
0.25913
0.24256
0.25373
0.29959
0.31575
0.34965
