0.14329
0.13263
0.16102
0.16009
0.14706
0.13476
0.13763
0.12297
0.088246
0.08957
0.097295
0.08759
0.092731
0.070888
0.048072
0.04882
0.070121
0.073945
0.10176
0.10373
0.084633
0.075929
0.081859
0.078053
0.06856
0.0489
0.056219
0.064323
0.069669
0.072778
0.08387
0.081886
0.084769
0.090724
0.099307
0.10274
0.1079
0.10215
0.10367
0.10845
0.096144
0.092138
0.11046
0.099557
0.11419
0.10557
0.10152
0.098053
0.095922
0.089905
0.089165
0.10743
0.11444
0.10684
0.11066
0.11408
0.12309
0.11384
0.12146
0.12409
0.13207
0.13422
0.13526
0.13118
0.12621
0.12908
0.11722
0.11938
0.11333
0.10569
0.10378
0.10404
0.097567
0.1096
0.10498
0.10241
0.090829
0.091647
0.096296
0.090935
0.093672
0.099118
0.09488
0.093533
0.077133
0.085276
0.082818
0.07484
0.079492
0.081636
0.079843
0.079978
0.07912
0.077623
0.07664
0.073743
0.063968
0.074187
0.065361
0.065317
0.067047
0.073354
0.074837
0.052505
0.048585
0.051469
0.061264
0.062605
0.058775
0.046651
0.042291
0.058881
0.065868
0.050702
0.055897
0.058376
0.059314
0.06955
0.068062
0.059076
0.068903
0.075026
0.06705
0.074118
0.077508
0.082819
0.076826
0.087669
0.097787
0.097507
0.098724
0.10305
0.094017
0.085509
0.091551
0.092612
0.090197
0.085191
0.096611
0.10133
0.10405
0.10175
0.094201
0.095743
0.097528
0.10657
0.11069
0.11937
0.11218
0.10375
0.095855
0.10405
0.1026
0.087644
0.097167
0.095643
0.091839
0.092603
0.089946
0.09492
0.098465
0.10514
0.097095
0.091775
0.089227
0.073601
0.067216
0.078307
0.073455
0.052927
0.059695
0.056274
0.062691
0.064549
0.065861
0.059723
0.062998
0.070622
0.066918
0.066898
0.068069
0.067109
0.062984
0.07966
0.083475
0.078178
0.077212
0.065598
0.058817
0.059595
0.058991
0.060951
0.068485
0.072795
0.076576
0.0679
0.070193
0.077874
0.074551
0.075471
0.080636
0.07729
0.069321
0.073995
0.070952
0.06986
0.070954
0.075335
0.076245
0.077411
0.068938
0.071315
0.065504
0.069128
0.081196
0.075788
0.072518
0.066123
0.063529
0.060538
0.06735
0.060912
0.073577
0.071482
0.07534
0.069377
0.079223
0.075367
0.075232
0.080359
0.084061
0.08893
0.089434
0.088382
0.092126
0.092755
0.081062
0.078715
0.071487
0.075414
0.083679
0.079541
0.071448
0.068612
0.072039
0.071062
0.071686
0.065361
0.071747
0.073468
0.070638
0.074526
0.07931
0.069801
0.066954
0.067301
0.070047
0.07123
0.077789
0.081821
0.082783
0.084702
0.084288
0.084704
0.084332
0.084699
0.083175
0.082448
0.092079
0.092266
0.091501
0.089389
0.086058
0.088054
0.080905
0.082132
0.078094
0.074349
0.074817
0.074699
0.073581
0.07008
0.066303
0.055064
0.056799
0.057495
0.06249
0.059926
0.065401
0.067524
0.072403
0.07133
0.074034
0.075033
0.06938
0.068106
0.065109
0.064328
0.075975
0.078652
0.076778
0.070949
0.068431
0.064444
0.061102
0.057925
0.062673
0.067866
0.073494
