0.075803
0.071102
0.08086
0.077351
0.055843
0.057958
0.049603
0.05897
0.061962
0.07316
0.079467
0.089849
0.092173
0.10896
0.10761
0.099021
0.10677
0.098145
0.10265
0.10633
0.091305
0.091118
0.098469
0.090736
0.082905
0.085859
0.07735
0.083998
0.082929
0.076776
0.065978
0.059543
0.06587
0.071396
0.069307
0.060189
0.069994
0.060128
0.051783
0.038714
0.0392
0.043903
0.047876
0.039887
0.043978
0.041292
0.02569
0.030263
0.03754
0.047712
0.052987
0.041266
0.044983
0.055714
0.062839
0.08062
0.098949
0.088526
0.099907
0.085368
0.085852
0.085936
0.078941
0.064768
0.063582
0.072789
0.075513
0.075128
0.094511
0.095732
0.087708
0.09688
0.092598
0.089867
0.08451
0.065105
0.058942
0.053196
0.060311
0.058367
0.062558
0.066458
0.059879
0.038653
0.0456
0.048503
0.037107
0.038735
0.035819
0.039901
0.038855
0.031251
0.030407
0.029383
0.0314
0.035591
0.039778
0.054852
0.062965
0.058346
0.043149
0.044567
0.051603
0.04882
0.05745
0.057317
0.041324
0.047785
0.043671
0.044954
0.055277
0.071458
0.061161
0.069058
0.076438
0.081808
0.058746
0.053695
0.045315
0.04928
0.043172
0.047205
0.037695
0.040293
0.040368
0.050204
0.062516
0.058671
0.044066
0.037228
0.040246
0.04349
0.045202
0.03919
0.040617
0.041228
0.048235
0.047267
0.05712
0.055976
0.053565
0.047231
0.043531
0.046987
0.047499
0.047213
0.042022
0.043267
0.034708
0.034955
0.030942
0.028586
0.026617
0.033751
0.022734
0.023864
0.030534
0.031123
0.028763
0.033189
0.039081
0.055649
0.037508
0.035305
0.033521
0.034923
0.047631
0.052561
0.063799
0.056013
0.059481
0.058291
0.05584
0.058971
0.065004
0.065146
0.066305
0.072574
0.058724
0.055796
0.051029
0.048286
0.040929
0.038733
0.038002
0.044005
0.055899
0.058932
0.063356
0.055882
0.057306
0.062701
0.058134
0.061048
0.052676
0.060419
0.065256
0.067529
0.065854
0.064402
0.060391
0.057102
0.05488
0.052634
0.049549
0.042281
0.036937
0.026094
0.048216
0.048713
0.053842
0.045647
0.048038
0.042093
0.047298
0.053802
0.051315
0.041087
0.048854
0.047423
0.044404
0.051022
0.050811
0.048778
0.049137
0.056402
0.059216
0.057154
0.059398
0.06136
0.061514
0.062244
0.074018
0.062671
0.063138
0.072344
0.067929
0.063753
0.071377
0.066319
0.059162
0.057884
0.062693
0.051422
0.060319
0.061563
0.061818
0.061465
0.060608
0.06044
0.058438
0.047902
0.047509
0.046984
0.050218
0.045861
0.0391
0.033187
0.041184
0.055458
0.056045
0.051491
0.049419
0.055601
0.060566
0.065134
0.058887
0.051717
0.046545
0.052776
0.056911
0.055829
0.047064
0.041317
0.054094
0.057861
0.060992
0.059834
0.041855
0.035133
0.037959
0.035313
0.03751
0.041818
0.032366
0.030879
0.032607
0.037915
0.046456
0.037762
0.032279
0.026205
0.025799
0.024738
0.035467
0.020224
0.020272
0.021519
0.019595
0.02189
0.016777
0.021126
0.021763
0.030458
0.036749
0.031018
0.028013
0.031175
0.029021
0.027508
0.034669
0.033106
0.031121
0.041223
0.042049
0.04642
0.050408
0.047021
0.034065
0.037833
0.039277
0.042557
0.041562
0.045435
0.038965
0.032646
0.029459
0.028937
0.03346
0.043936
0.036658
0.03748
0.050883
0.054632
0.055559
0.053676
0.0513
0.052725
0.044714
0.036685
0.046569
0.046893
0.046554
0.043013
0.043295
0.044821
0.054104
0.049194
0.045778
0.042302
0.039744
0.036898
0.03489
0.035846
0.036687
0.035187
0.041692
0.040416
0.041999
0.042313
0.044756
0.04529
0.044891
0.041208
0.049187
0.044461
0.052225
0.051702
0.050086
0.049103
0.048019
0.047618
0.053594
0.06077
0.060932
0.056239
0.045344
0.035492
0.034994
0.02797
0.022437
0.018964
0.029056
0.037011
0.034657
0.038074
0.034408
0.023733
0.027282
0.029258
0.033963
0.030241
0.037207
0.038396
0.042265
0.04309
0.045282
0.034209
0.030558
0.031883
0.028108
0.026464
0.033945
0.038357
0.03932
0.045476
0.046006
0.043019
0.037032
0.035419
0.030165
0.02841
0.028115
0.028224
0.025896
0.023383
0.01984
0.021637
0.019495
0.025717
0.028073
0.026745
0.027025
0.039498
0.032659
0.028846
0.023198
0.019917
0.020398
0.01813
0.024635
0.027757
0.026499
0.026642
0.017336
0.018235
0.021437
0.017467
0.012545
0.01503
0.016126
0.02256
0.020804
0.026178
0.031315
0.037468
0.03547
0.03337
0.023962
0.026077
0.027222
0.029975
0.032092
0.031821
0.038784
0.036639
0.041463
0.033519
0.032855
0.034539
0.038723
0.047228
0.049118
0.049856
0.045127
0.039214
0.040709
0.040482
0.035235
0.040963
0.052735
0.04654
0.037408
0.037284
0.039583
0.04233
0.049257
0.048521
0.050098
0.056374
0.060733
0.066299
0.062646
0.059202
0.061416
0.063656
0.056446
0.057304
0.053559
0.046334
0.04373
0.047444
0.046326
0.054827
0.055035
0.045936
0.050978
0.04793
0.046056
0.041645
0.046696
0.047992
0.054084
0.0542
0.055733
0.054254
0.041447
0.045042
0.039415
0.03768
0.041848
0.045655
0.046107
0.046236
0.04244
0.039434
0.043821
0.038826
0.031624
0.025777
0.023482
0.03107
0.032296
0.027532
0.029295
0.039199
0.039548
0.037257
0.03877
0.039724
0.046259
0.047569
0.048123
0.054041
0.051378
0.040719
0.043496
0.047085
0.046607
0.054127
0.053034
0.056546
0.057994
0.055126
0.052122
0.049671
0.053487
0.059815
0.062896
0.065831
0.055315
0.053376
0.053597
0.05472
0.04255
0.050376
0.060441
0.060881
0.062445
0.064887
0.062655
0.064371
0.069503
0.062117
0.061308
0.063656
0.064222
0.066859
0.068958
0.066679
0.05978
0.061157
0.055488
0.05156
0.050112
0.043001
0.036648
0.046052
0.043766
0.043277
0.032953
0.030895
0.025812
0.030628
0.036245
0.032684
0.032117
0.043022
0.037188
0.030223
0.026614
0.033863
0.028901
0.031147
0.040471
0.049707
0.050416
0.04905
0.041715
0.035347
0.043224
0.041877
0.045759
0.042896
0.034878
0.031995
0.039974
0.037172
0.037008
0.040869
0.036382
0.032653
0.030851
0.034162
0.03844
0.033684
0.024909
0.02358
0.026089
0.024883
0.029434
0.027862
0.028455
0.027325
0.028894
0.026232
0.022067
0.033132
0.036482
0.03337
0.024521
0.024744
0.024854
0.026818
0.032572
0.036765
0.034765
0.029135
0.019036
0.023603
0.013211
0.0083553
0.011183
0.017796
0.017543
0.028647
0.026254
0.020474
0.017316
0.019709
0.014553
0.015761
0.014465
0.010986
0.013447
0.017701
0.014822
0.013583
0.013189
0.012053
0.016563
0.020396
0.016804
0.02224
0.023784
0.021525
0.027598
0.023828
0.02215
0.022985
0.01913
0.026302
0.030345
0.031957
0.041648
0.042345
0.046456
0.047684
0.043615
0.046431
0.050808
0.04695
0.046885
0.042982
0.045134
0.051379
0.060861
0.059095
0.055513
0.0574
0.049704
0.045795
0.045627
0.041311
0.037365
0.042376
0.049931
0.050845
0.057406
0.06058
0.060549
0.058186
0.056819
0.047885
0.045629
0.039468
0.04518
0.04209
0.043091
0.040807
0.043784
0.040956
0.037939
0.036137
0.037911
0.043798
0.041022
0.038832
0.035533
0.037889
0.044611
0.048881
0.047193
0.042435
0.040787
0.038773
0.039796
0.04223
0.043668
0.041687
0.044022
0.03896
0.03431
0.034662
0.036934
0.038729
0.032511
0.033903
0.038293
0.038986
0.045608
0.045369
0.047128
0.044659
0.042721
0.046808
0.047693
0.045118
0.041582
0.035353
0.033848
0.03132
0.027926
0.022754
0.015654
0.018437
0.020429
0.030043
0.028564
0.021794
0.028615
0.029432
0.03257
0.038704
0.037966
0.041799
0.039815
0.04431
0.048453
0.0493
0.039596
0.040329
0.043515
0.039533
0.039329
0.042394
0.046583
0.049221
0.051619
0.053524
0.054512
0.051711
0.049154
0.048446
0.047585
0.044855
