16.64
16.634
19.01
18.124
19.615
19.412
18.458
18.022
19.716
23.816
23.122
24.699
23.012
24.271
26.49
26.554
27.942
26.849
24.801
25.033
26.043
24.819
23.702
21.835
21.549
23.403
23.77
24.795
23.135
26.115
26.233
26.016
27.178
25.53
26.497
28.44
31.415
30.401
30.803
30.81
29.19
31.065
31.083
32.224
33.872
32.497
31.288
31.559
31.871
35.253
34.699
32.939
34.037
33.345
