scene00001.jpg
scene00011.jpg
scene00021.jpg
scene00031.jpg
scene00041.jpg
scene00051.jpg
scene00061.jpg
scene00071.jpg
scene00081.jpg
scene00091.jpg
scene00101.jpg
scene00111.jpg
scene00121.jpg
scene00131.jpg
scene00141.jpg
scene00151.jpg
scene00161.jpg
scene00171.jpg
scene00181.jpg
scene00191.jpg
scene00201.jpg
scene00211.jpg
scene00221.jpg
scene00231.jpg
scene00241.jpg
scene00251.jpg
scene00261.jpg
scene00271.jpg
scene00281.jpg
scene00291.jpg
scene00301.jpg
scene00311.jpg
scene00321.jpg
scene00331.jpg
scene00341.jpg
scene00351.jpg
scene00361.jpg
scene00371.jpg
scene00381.jpg
scene00391.jpg
scene00401.jpg
scene00411.jpg
scene00421.jpg
scene00431.jpg
scene00441.jpg
scene00451.jpg
scene00461.jpg
scene00471.jpg
scene00481.jpg
scene00491.jpg
scene00501.jpg
scene00511.jpg
scene00521.jpg
scene00531.jpg
scene00541.jpg
scene00551.jpg
scene00561.jpg
scene00571.jpg
scene00581.jpg
scene00591.jpg
scene00601.jpg
scene00611.jpg
scene00621.jpg
scene00631.jpg
scene00641.jpg
scene00651.jpg
scene00661.jpg
scene00671.jpg
scene00681.jpg
scene00691.jpg
scene00701.jpg
scene00711.jpg
scene00721.jpg
scene00731.jpg
scene00741.jpg
scene00751.jpg
scene00761.jpg
scene00771.jpg
scene00781.jpg
scene00791.jpg
scene00801.jpg
scene00811.jpg
scene00821.jpg
scene00831.jpg
scene00841.jpg
scene00851.jpg
scene00861.jpg
scene00871.jpg
scene00881.jpg
scene00891.jpg
scene00901.jpg
scene00911.jpg
scene00921.jpg
scene00931.jpg
scene00941.jpg
scene00951.jpg
scene00961.jpg
scene00971.jpg
scene00981.jpg
scene00991.jpg
scene01001.jpg
scene01011.jpg
scene01021.jpg
scene01031.jpg
scene01041.jpg
scene01051.jpg
scene01061.jpg
scene01071.jpg
scene01081.jpg
scene01091.jpg
scene01101.jpg
scene01111.jpg
scene01121.jpg
scene01131.jpg
scene01141.jpg
scene01151.jpg
scene01161.jpg
scene01171.jpg
scene01181.jpg
scene01191.jpg
scene01201.jpg
scene01211.jpg
scene01221.jpg
scene01231.jpg
scene01241.jpg
scene01251.jpg
scene01261.jpg
scene01271.jpg
scene01281.jpg
scene01291.jpg
scene01301.jpg
scene01311.jpg
scene01321.jpg
scene01331.jpg
scene01341.jpg
scene01351.jpg
scene01361.jpg
scene01371.jpg
scene01381.jpg
scene01391.jpg
scene01401.jpg
scene01411.jpg
scene01421.jpg
scene01431.jpg
scene01441.jpg
scene01451.jpg
scene01461.jpg
scene01471.jpg
scene01481.jpg
scene01491.jpg
scene01501.jpg
scene01511.jpg
scene01521.jpg
scene01531.jpg
scene01541.jpg
scene01551.jpg
scene01561.jpg
scene01571.jpg
scene01581.jpg
scene01591.jpg
scene01601.jpg
scene01611.jpg
scene01621.jpg
scene01631.jpg
scene01641.jpg
scene01651.jpg
scene01661.jpg
scene01671.jpg
scene01681.jpg
scene01691.jpg
scene01701.jpg
scene01711.jpg
scene01721.jpg
scene01731.jpg
scene01741.jpg
scene01751.jpg
scene01761.jpg
scene01771.jpg
scene01781.jpg
scene01791.jpg
scene01801.jpg
scene01811.jpg
scene01821.jpg
scene01831.jpg
scene01841.jpg
scene01851.jpg
scene01861.jpg
scene01871.jpg
scene01881.jpg
scene01891.jpg
scene01901.jpg
scene01911.jpg
scene01921.jpg
scene01931.jpg
scene01941.jpg
scene01951.jpg
scene01961.jpg
scene01971.jpg
scene01981.jpg
scene01991.jpg
scene02001.jpg
scene02011.jpg
scene02021.jpg
scene02031.jpg
scene02041.jpg
scene02051.jpg
scene02061.jpg
scene02071.jpg
scene02081.jpg
scene02091.jpg
scene02101.jpg
scene02111.jpg
scene02121.jpg
scene02131.jpg
scene02141.jpg
scene02151.jpg
scene02161.jpg
scene02171.jpg
scene02181.jpg
scene02191.jpg
scene02201.jpg
scene02211.jpg
scene02221.jpg
scene02231.jpg
scene02241.jpg
scene02251.jpg
scene02261.jpg
scene02271.jpg
scene02281.jpg
scene02291.jpg
scene02301.jpg
scene02311.jpg
scene02321.jpg
scene02331.jpg
scene02341.jpg
scene02351.jpg
scene02361.jpg
scene02371.jpg
scene02381.jpg
scene02391.jpg
scene02401.jpg
scene02411.jpg
scene02421.jpg
scene02431.jpg
scene02441.jpg
scene02451.jpg
scene02461.jpg
scene02471.jpg
scene02481.jpg
scene02491.jpg
scene02501.jpg
scene02511.jpg
scene02521.jpg
scene02531.jpg
scene02541.jpg
scene02551.jpg
scene02561.jpg
scene02571.jpg
scene02581.jpg
scene02591.jpg
scene02601.jpg
scene02611.jpg
scene02621.jpg
scene02631.jpg
scene02641.jpg
scene02651.jpg
scene02661.jpg
scene02671.jpg
scene02681.jpg
scene02691.jpg
scene02701.jpg
scene02711.jpg
scene02721.jpg
scene02731.jpg
scene02741.jpg
scene02751.jpg
scene02761.jpg
scene02771.jpg
scene02781.jpg
scene02791.jpg
scene02801.jpg
scene02811.jpg
scene02821.jpg
scene02831.jpg
scene02841.jpg
scene02851.jpg
scene02861.jpg
scene02871.jpg
scene02881.jpg
scene02891.jpg
scene02901.jpg
scene02911.jpg
scene02921.jpg
scene02931.jpg
scene02941.jpg
scene02951.jpg
scene02961.jpg
scene02971.jpg
scene02981.jpg
scene02991.jpg
scene03001.jpg
scene03011.jpg
scene03021.jpg
scene03031.jpg
scene03041.jpg
scene03051.jpg
scene03061.jpg
scene03071.jpg
scene03081.jpg
scene03091.jpg
scene03101.jpg
scene03111.jpg
scene03121.jpg
scene03131.jpg
scene03141.jpg
scene03151.jpg
scene03161.jpg
scene03171.jpg
scene03181.jpg
scene03191.jpg
scene03201.jpg
scene03211.jpg
scene03221.jpg
scene03231.jpg
scene03241.jpg
scene03251.jpg
scene03261.jpg
scene03271.jpg
scene03281.jpg
scene03291.jpg
scene03301.jpg
scene03311.jpg
scene03321.jpg
scene03331.jpg
scene03341.jpg
scene03351.jpg
scene03361.jpg
scene03371.jpg
scene03381.jpg
scene03391.jpg
scene03401.jpg
scene03411.jpg
scene03421.jpg
scene03431.jpg
scene03441.jpg
scene03451.jpg
scene03461.jpg
scene03471.jpg
scene03481.jpg
scene03491.jpg
scene03501.jpg
scene03511.jpg
scene03521.jpg
scene03531.jpg
scene03541.jpg
scene03551.jpg
scene03561.jpg
scene03571.jpg
scene03581.jpg
scene03591.jpg
scene03601.jpg
scene03611.jpg
scene03621.jpg
scene03631.jpg
scene03641.jpg
scene03651.jpg
scene03661.jpg
scene03671.jpg
scene03681.jpg
scene03691.jpg
scene03701.jpg
scene03711.jpg
scene03721.jpg
scene03731.jpg
scene03741.jpg
scene03751.jpg
scene03761.jpg
scene03771.jpg
scene03781.jpg
scene03791.jpg
scene03801.jpg
scene03811.jpg
scene03821.jpg
scene03831.jpg
scene03841.jpg
scene03851.jpg
scene03861.jpg
scene03871.jpg
scene03881.jpg
scene03891.jpg
scene03901.jpg
scene03911.jpg
scene03921.jpg
scene03931.jpg
scene03941.jpg
scene03951.jpg
scene03961.jpg
scene03971.jpg
scene03981.jpg
scene03991.jpg
scene04001.jpg
scene04011.jpg
scene04021.jpg
scene04031.jpg
scene04041.jpg
scene04051.jpg
scene04061.jpg
scene04071.jpg
scene04081.jpg
scene04091.jpg
scene04101.jpg
scene04111.jpg
scene04121.jpg
scene04131.jpg
scene04141.jpg
scene04151.jpg
scene04161.jpg
scene04171.jpg
scene04181.jpg
scene04191.jpg
scene04201.jpg
scene04211.jpg
scene04221.jpg
scene04231.jpg
scene04241.jpg
scene04251.jpg
scene04261.jpg
scene04271.jpg
scene04281.jpg
scene04291.jpg
scene04301.jpg
scene04311.jpg
scene04321.jpg
scene04331.jpg
scene04341.jpg
scene04351.jpg
scene04361.jpg
scene04371.jpg
scene04381.jpg
scene04391.jpg
scene04401.jpg
scene04411.jpg
scene04421.jpg
scene04431.jpg
scene04441.jpg
scene04451.jpg
scene04461.jpg
scene04471.jpg
scene04481.jpg
scene04491.jpg
scene04501.jpg
scene04511.jpg
scene04521.jpg
scene04531.jpg
scene04541.jpg
scene04551.jpg
scene04561.jpg
scene04571.jpg
scene04581.jpg
scene04591.jpg
scene04601.jpg
scene04611.jpg
scene04621.jpg
scene04631.jpg
scene04641.jpg
scene04651.jpg
scene04661.jpg
scene04671.jpg
scene04681.jpg
scene04691.jpg
scene04701.jpg
scene04711.jpg
scene04721.jpg
scene04731.jpg
scene04741.jpg
scene04751.jpg
scene04761.jpg
scene04771.jpg
scene04781.jpg
scene04791.jpg
scene04801.jpg
scene04811.jpg
scene04821.jpg
scene04831.jpg
scene04841.jpg
scene04851.jpg
scene04861.jpg
scene04871.jpg
scene04881.jpg
scene04891.jpg
scene04901.jpg
scene04911.jpg
scene04921.jpg
scene04931.jpg
scene04941.jpg
scene04951.jpg
scene04961.jpg
scene04971.jpg
scene04981.jpg
scene04991.jpg
scene05001.jpg
scene05011.jpg
scene05021.jpg
scene05031.jpg
scene05041.jpg
scene05051.jpg
scene05061.jpg
scene05071.jpg
scene05081.jpg
scene05091.jpg
scene05101.jpg
scene05111.jpg
scene05121.jpg
scene05131.jpg
scene05141.jpg
scene05151.jpg
scene05161.jpg
scene05171.jpg
scene05181.jpg
scene05191.jpg
scene05201.jpg
scene05211.jpg
scene05221.jpg
scene05231.jpg
scene05241.jpg
scene05251.jpg
scene05261.jpg
scene05271.jpg
scene05281.jpg
scene05291.jpg
scene05301.jpg
scene05311.jpg
scene05321.jpg
scene05331.jpg
scene05341.jpg
scene05351.jpg
scene05361.jpg
scene05371.jpg
scene05381.jpg
scene05391.jpg
scene05401.jpg
scene05411.jpg
scene05421.jpg
scene05431.jpg
scene05441.jpg
scene05451.jpg
scene05461.jpg
scene05471.jpg
scene05481.jpg
scene05491.jpg
scene05501.jpg
scene05511.jpg
scene05521.jpg
scene05531.jpg
scene05541.jpg
scene05551.jpg
scene05561.jpg
scene05571.jpg
scene05581.jpg
scene05591.jpg
scene05601.jpg
scene05611.jpg
scene05621.jpg
scene05631.jpg
scene05641.jpg
scene05651.jpg
scene05661.jpg
scene05671.jpg
scene05681.jpg
scene05691.jpg
scene05701.jpg
scene05711.jpg
scene05721.jpg
scene05731.jpg
scene05741.jpg
scene05751.jpg
scene05761.jpg
scene05771.jpg
scene05781.jpg
scene05791.jpg
scene05801.jpg
scene05811.jpg
scene05821.jpg
scene05831.jpg
scene05841.jpg
scene05851.jpg
scene05861.jpg
scene05871.jpg
scene05881.jpg
scene05891.jpg
scene05901.jpg
scene05911.jpg
scene05921.jpg
scene05931.jpg
scene05941.jpg
scene05951.jpg
scene05961.jpg
scene05971.jpg
scene05981.jpg
scene05991.jpg
scene06001.jpg
scene06011.jpg
scene06021.jpg
scene06031.jpg
scene06041.jpg
scene06051.jpg
scene06061.jpg
scene06071.jpg
scene06081.jpg
scene06091.jpg
scene06101.jpg
scene06111.jpg
scene06121.jpg
scene06131.jpg
scene06141.jpg
scene06151.jpg
scene06161.jpg
scene06171.jpg
scene06181.jpg
scene06191.jpg
scene06201.jpg
scene06211.jpg
scene06221.jpg
scene06231.jpg
scene06241.jpg
scene06251.jpg
scene06261.jpg
scene06271.jpg
scene06281.jpg
scene06291.jpg
scene06301.jpg
scene06311.jpg
scene06321.jpg
scene06331.jpg
scene06341.jpg
scene06351.jpg
scene06361.jpg
scene06371.jpg
scene06381.jpg
scene06391.jpg
scene06401.jpg
scene06411.jpg
scene06421.jpg
scene06431.jpg
scene06441.jpg
scene06451.jpg
scene06461.jpg
scene06471.jpg
scene06481.jpg
scene06491.jpg
scene06501.jpg
scene06511.jpg
scene06521.jpg
scene06531.jpg
scene06541.jpg
scene06551.jpg
scene06561.jpg
scene06571.jpg
scene06581.jpg
scene06591.jpg
scene06601.jpg
scene06611.jpg
scene06621.jpg
scene06631.jpg
scene06641.jpg
scene06651.jpg
scene06661.jpg
scene06671.jpg
scene06681.jpg
scene06691.jpg
scene06701.jpg
scene06711.jpg
scene06721.jpg
scene06731.jpg
scene06741.jpg
scene06751.jpg
scene06761.jpg
scene06771.jpg
scene06781.jpg
scene06791.jpg
scene06801.jpg
scene06811.jpg
scene06821.jpg
scene06831.jpg
scene06841.jpg
scene06851.jpg
scene06861.jpg
scene06871.jpg
scene06881.jpg
scene06891.jpg
scene06901.jpg
scene06911.jpg
scene06921.jpg
scene06931.jpg
scene06941.jpg
scene06951.jpg
scene06961.jpg
scene06971.jpg
scene06981.jpg
scene06991.jpg
scene07001.jpg
scene07011.jpg
scene07021.jpg
scene07031.jpg
scene07041.jpg
scene07051.jpg
scene07061.jpg
scene07071.jpg
scene07081.jpg
scene07091.jpg
scene07101.jpg
scene07111.jpg
scene07121.jpg
scene07131.jpg
scene07141.jpg
scene07151.jpg
scene07161.jpg
scene07171.jpg
scene07181.jpg
scene07191.jpg
scene07201.jpg
scene07211.jpg
scene07221.jpg
scene07231.jpg
scene07241.jpg
scene07251.jpg
scene07261.jpg
scene07271.jpg
scene07281.jpg
scene07291.jpg
scene07301.jpg
scene07311.jpg
scene07321.jpg
scene07331.jpg
scene07341.jpg
scene07351.jpg
scene07361.jpg
scene07371.jpg
scene07381.jpg
scene07391.jpg
scene07401.jpg
scene07411.jpg
scene07421.jpg
scene07431.jpg
scene07441.jpg
scene07451.jpg
scene07461.jpg
scene07471.jpg
scene07481.jpg
scene07491.jpg
scene07501.jpg
scene07511.jpg
scene07521.jpg
scene07531.jpg
scene07541.jpg
scene07551.jpg
scene07561.jpg
scene07571.jpg
scene07581.jpg
scene07591.jpg
scene07601.jpg
scene07611.jpg
scene07621.jpg
scene07631.jpg
scene07641.jpg
scene07651.jpg
scene07661.jpg
scene07671.jpg
scene07681.jpg
scene07691.jpg
scene07701.jpg
scene07711.jpg
scene07721.jpg
scene07731.jpg
scene07741.jpg
scene07751.jpg
scene07761.jpg
scene07771.jpg
scene07781.jpg
scene07791.jpg
scene07801.jpg
scene07811.jpg
scene07821.jpg
scene07831.jpg
scene07841.jpg
scene07851.jpg
scene07861.jpg
scene07871.jpg
scene07881.jpg
scene07891.jpg
scene07901.jpg
scene07911.jpg
scene07921.jpg
scene07931.jpg
scene07941.jpg
scene07951.jpg
scene07961.jpg
scene07971.jpg
scene07981.jpg
scene07991.jpg
scene08001.jpg
scene08011.jpg
scene08021.jpg
scene08031.jpg
scene08041.jpg
scene08051.jpg
scene08061.jpg
scene08071.jpg
scene08081.jpg
scene08091.jpg
scene08101.jpg
scene08111.jpg
scene08121.jpg
scene08131.jpg
scene08141.jpg
scene08151.jpg
scene08161.jpg
scene08171.jpg
scene08181.jpg
scene08191.jpg
scene08201.jpg
scene08211.jpg
scene08221.jpg
scene08231.jpg
scene08241.jpg
scene08251.jpg
scene08261.jpg
scene08271.jpg
scene08281.jpg
scene08291.jpg
scene08301.jpg
scene08311.jpg
scene08321.jpg
scene08331.jpg
scene08341.jpg
scene08351.jpg
scene08361.jpg
scene08371.jpg
scene08381.jpg
scene08391.jpg
scene08401.jpg
scene08411.jpg
scene08421.jpg
scene08431.jpg
scene08441.jpg
scene08451.jpg
scene08461.jpg
scene08471.jpg
scene08481.jpg
scene08491.jpg
scene08501.jpg
scene08511.jpg
scene08521.jpg
scene08531.jpg
scene08541.jpg
scene08551.jpg
scene08561.jpg
scene08571.jpg
scene08581.jpg
scene08591.jpg
scene08601.jpg
scene08611.jpg
scene08621.jpg
scene08631.jpg
scene08641.jpg
scene08651.jpg
scene08661.jpg
scene08671.jpg
scene08681.jpg
scene08691.jpg
scene08701.jpg
scene08711.jpg
scene08721.jpg
scene08731.jpg
scene08741.jpg
scene08751.jpg
scene08761.jpg
scene08771.jpg
scene08781.jpg
scene08791.jpg
scene08801.jpg
scene08811.jpg
scene08821.jpg
scene08831.jpg
scene08841.jpg
scene08851.jpg
scene08861.jpg
scene08871.jpg
scene08881.jpg
scene08891.jpg
scene08901.jpg
scene08911.jpg
scene08921.jpg
scene08931.jpg
scene08941.jpg
scene08951.jpg
scene08961.jpg
scene08971.jpg
scene08981.jpg
scene08991.jpg
scene09001.jpg
scene09011.jpg
scene09021.jpg
scene09031.jpg
scene09041.jpg
scene09051.jpg
scene09061.jpg
scene09071.jpg
scene09081.jpg
scene09091.jpg
scene09101.jpg
scene09111.jpg
scene09121.jpg
scene09131.jpg
scene09141.jpg
scene09151.jpg
scene09161.jpg
scene09171.jpg
scene09181.jpg
scene09191.jpg
scene09201.jpg
scene09211.jpg
scene09221.jpg
scene09231.jpg
scene09241.jpg
scene09251.jpg
scene09261.jpg
scene09271.jpg
scene09281.jpg
scene09291.jpg
scene09301.jpg
scene09311.jpg
scene09321.jpg
scene09331.jpg
scene09341.jpg
scene09351.jpg
scene09361.jpg
scene09371.jpg
scene09381.jpg
scene09391.jpg
scene09401.jpg
scene09411.jpg
scene09421.jpg
scene09431.jpg
scene09441.jpg
scene09451.jpg
scene09461.jpg
scene09471.jpg
scene09481.jpg
scene09491.jpg
scene09501.jpg
scene09511.jpg
scene09521.jpg
scene09531.jpg
scene09541.jpg
scene09551.jpg
scene09561.jpg
scene09571.jpg
scene09581.jpg
scene09591.jpg
scene09601.jpg
scene09611.jpg
scene09621.jpg
scene09631.jpg
scene09641.jpg
scene09651.jpg
scene09661.jpg
scene09671.jpg
scene09681.jpg
scene09691.jpg
scene09701.jpg
scene09711.jpg
scene09721.jpg
scene09731.jpg
scene09741.jpg
scene09751.jpg
scene09761.jpg
scene09771.jpg
scene09781.jpg
scene09791.jpg
scene09801.jpg
scene09811.jpg
scene09821.jpg
scene09831.jpg
scene09841.jpg
scene09851.jpg
scene09861.jpg
scene09871.jpg
scene09881.jpg
scene09891.jpg
scene09901.jpg
scene09911.jpg
scene09921.jpg
scene09931.jpg
scene09941.jpg
scene09951.jpg
scene09961.jpg
scene09971.jpg
scene09981.jpg
scene09991.jpg
scene10001.jpg
scene10011.jpg
scene10021.jpg
scene10031.jpg
scene10041.jpg
scene10051.jpg
scene10061.jpg
scene10071.jpg
scene10081.jpg
scene10091.jpg
scene10101.jpg
scene10111.jpg
scene10121.jpg
scene10131.jpg
scene10141.jpg
scene10151.jpg
scene10161.jpg
scene10171.jpg
scene10181.jpg
scene10191.jpg
scene10201.jpg
scene10211.jpg
scene10221.jpg
scene10231.jpg
scene10241.jpg
scene10251.jpg
scene10261.jpg
scene10271.jpg
scene10281.jpg
scene10291.jpg
scene10301.jpg
scene10311.jpg
scene10321.jpg
scene10331.jpg
scene10341.jpg
scene10351.jpg
scene10361.jpg
scene10371.jpg
scene10381.jpg
scene10391.jpg
scene10401.jpg
scene10411.jpg
scene10421.jpg
scene10431.jpg
scene10441.jpg
scene10451.jpg
scene10461.jpg
scene10471.jpg
scene10481.jpg
scene10491.jpg
scene10501.jpg
scene10511.jpg
scene10521.jpg
scene10531.jpg
scene10541.jpg
scene10551.jpg
scene10561.jpg
scene10571.jpg
scene10581.jpg
scene10591.jpg
scene10601.jpg
scene10611.jpg
scene10621.jpg
scene10631.jpg
scene10641.jpg
scene10651.jpg
scene10661.jpg
scene10671.jpg
scene10681.jpg
scene10691.jpg
scene10701.jpg
scene10711.jpg
scene10721.jpg
scene10731.jpg
scene10741.jpg
scene10751.jpg
scene10761.jpg
scene10771.jpg
scene10781.jpg
scene10791.jpg
scene10801.jpg
scene10811.jpg
scene10821.jpg
scene10831.jpg
scene10841.jpg
scene10851.jpg
scene10861.jpg
scene10871.jpg
scene10881.jpg
scene10891.jpg
scene10901.jpg
scene10911.jpg
scene10921.jpg
scene10931.jpg
scene10941.jpg
scene10951.jpg
scene10961.jpg
scene10971.jpg
scene10981.jpg
scene10991.jpg
scene11001.jpg
scene11011.jpg
scene11021.jpg
scene11031.jpg
scene11041.jpg
scene11051.jpg
scene11061.jpg
scene11071.jpg
scene11081.jpg
scene11091.jpg
scene11101.jpg
scene11111.jpg
scene11121.jpg
scene11131.jpg
scene11141.jpg
scene11151.jpg
scene11161.jpg
scene11171.jpg
scene11181.jpg
scene11191.jpg
scene11201.jpg
scene11211.jpg
scene11221.jpg
scene11231.jpg
scene11241.jpg
scene11251.jpg
scene11261.jpg
scene11271.jpg
scene11281.jpg
scene11291.jpg
scene11301.jpg
scene11311.jpg
scene11321.jpg
scene11331.jpg
scene11341.jpg
scene11351.jpg
scene11361.jpg
scene11371.jpg
scene11381.jpg
scene11391.jpg
scene11401.jpg
scene11411.jpg
scene11421.jpg
scene11431.jpg
scene11441.jpg
scene11451.jpg
scene11461.jpg
scene11471.jpg
scene11481.jpg
scene11491.jpg
scene11501.jpg
scene11511.jpg
scene11521.jpg
scene11531.jpg
scene11541.jpg
scene11551.jpg
scene11561.jpg
scene11571.jpg
scene11581.jpg
scene11591.jpg
scene11601.jpg
scene11611.jpg
scene11621.jpg
scene11631.jpg
scene11641.jpg
scene11651.jpg
scene11661.jpg
scene11671.jpg
scene11681.jpg
scene11691.jpg
scene11701.jpg
scene11711.jpg
scene11721.jpg
scene11731.jpg
scene11741.jpg
scene11751.jpg
scene11761.jpg
scene11771.jpg
scene11781.jpg
scene11791.jpg
scene11801.jpg
scene11811.jpg
scene11821.jpg
scene11831.jpg
scene11841.jpg
scene11851.jpg
scene11861.jpg
scene11871.jpg
scene11881.jpg
scene11891.jpg
scene11901.jpg
scene11911.jpg
scene11921.jpg
scene11931.jpg
scene11941.jpg
scene11951.jpg
scene11961.jpg
scene11971.jpg
scene11981.jpg
scene11991.jpg
scene12001.jpg
scene12011.jpg
scene12021.jpg
scene12031.jpg
scene12041.jpg
scene12051.jpg
scene12061.jpg
scene12071.jpg
scene12081.jpg
scene12091.jpg
scene12101.jpg
scene12111.jpg
scene12121.jpg
scene12131.jpg
scene12141.jpg
scene12151.jpg
scene12161.jpg
scene12171.jpg
scene12181.jpg
scene12191.jpg
scene12201.jpg
scene12211.jpg
scene12221.jpg
scene12231.jpg
scene12241.jpg
scene12251.jpg
scene12261.jpg
scene12271.jpg
scene12281.jpg
scene12291.jpg
scene12301.jpg
scene12311.jpg
scene12321.jpg
scene12331.jpg
scene12341.jpg
scene12351.jpg
scene12361.jpg
scene12371.jpg
scene12381.jpg
scene12391.jpg
scene12401.jpg
scene12411.jpg
scene12421.jpg
scene12431.jpg
scene12441.jpg
scene12451.jpg
scene12461.jpg
scene12471.jpg
