12.872
11.843
11.698
11.2
12.154
13.03
12.715
12.713
11.665
10.752
10.06
10.181
10.421
9.8373
9.6801
8.8912
9.2006
8.3483
6.3263
4.2144
4.5619
3.9617
4.3288
4.7187
4.146
4.3034
4.7058
5.382
3.8858
5.3117
6.249
7.7833
6.9314
6.8423
7.4169
5.8769
6.3526
6.0619
3.3722
2.4221
2.7475
2.9512
3.5049
3.8667
2.8588
2.3409
1.1388
2.0101
2.0366
1.9148
1.8165
2.8112
2.0914
0.98659
1.9556
2.1193
3.2008
2.5863
1.6976
0.58693
0.6035
0.47008
1.7126
3.5839
3.4625
3.8592
5.7917
6.4784
6.6005
7.9571
8.2436
7.4824
7.8875
8.7802
8.8208
10.198
9.637
9.1309
9.0899
9.4615
9.9723
9.5742
9.8465
9.7556
10.061
9.8178
10.085
10.394
10.418
10.4
10.678
10.435
10.351
9.85
9.5126
8.2704
8.5315
9.1063
8.3345
9.6995
9.4062
9.4183
10.159
10.777
11.479
12.312
13.229
13.58
14.127
14.476
14.623
14.849
14.715
14.337
14.286
14.659
14.308
14.725
14.791
14.497
14.254
13.529
13.711
13.367
13.733
14.257
14.422
14.762
14.634
14.434
14.433
14.68
13.647
13.592
13.335
12.231
12.144
12.619
13.235
13.392
13.515
13.425
12.864
13.533
12.594
12.039
12.962
12.797
11.967
11.1
11.483
11.353
12.39
12.113
10.982
10.17
8.9235
7.9279
6.5181
6.2353
6.0942
6.8393
5.5874
7.5527
6.0052
6.662
4.9489
4.793
4.9408
5.2856
5.7323
5.7082
5.4942
5.4214
6.0016
5.9271
6.1001
5.3708
3.8475
4.493
5.684
5.8087
5.8872
5.4073
5.8611
5.6344
6.4768
6.6789
7.5007
7.5851
6.6206
6.0433
7.1358
8.0527
8.8118
9.8003
9.8557
10.968
11.199
10.976
10.581
8.7696
9.7327
10.937
10.907
10.906
11.266
11.339
11.086
10.174
10.301
9.8288
9.1055
7.9374
7.6314
7.248
6.9355
6.3399
5.3549
5.7869
8.3735
10.034
10.43
10.078
8.7302
8.7598
8.6694
9.2116
9.1537
9.3557
9.9885
9.8493
9.5028
9.7134
9.5162
9.5366
7.635
6.7017
4.9826
4.454
5.9946
6
6.6261
7.738
6.6271
6.8258
8.8737
9.7146
9.1352
8.9839
7.7976
7.8608
7.8535
6.7966
4.8697
5.1375
6.1502
3.8871
3.7746
3.7665
2.1275
0.52935
1.8775
2.5472
3.5953
3.777
4.4118
3.4126
3.0366
2.3025
1.4989
1.1978
1.7699
2.1308
3.9067
4.9319
4.8016
