0.72266
0.66729
0.64756
0.67065
0.69103
0.71055
0.73734
0.729
0.72828
0.64626
0.6377
0.55474
0.55474
0.56862
0.63294
0.60448
0.64651
0.63267
0.66454
0.63197
0.62561
0.65708
0.66209
0.64578
0.71344
0.70951
0.64555
0.69351
0.70213
0.70278
0.68272
0.68182
0.65627
0.67657
0.67547
0.66423
0.64311
0.6118
0.61492
0.58258
0.5492
0.51505
0.5476
0.58171
0.63209
0.58963
0.58496
0.58531
0.59107
0.60143
0.65379
0.66483
0.67328
0.70199
0.69743
0.68414
0.70687
0.73802
0.70544
0.73946
