0.25847
0.26528
0.24721
0.23299
0.21934
0.28841
0.28156
0.30035
0.2985
0.30543
0.34901
0.33407
0.31871
0.35883
0.35734
0.3376
0.33078
0.31493
0.3107
0.33878
0.33915
0.35523
0.35231
0.36399
0.34248
0.28539
0.29724
0.29604
0.29741
0.29062
