0.062445
0.065233
0.061511
0.059022
0.059936
0.071745
0.071507
0.074069
0.075053
0.075743
0.076634
0.077524
0.074303
0.077312
0.076991
0.074088
0.071672
0.069242
0.066874
0.071243
0.074684
0.077046
0.074885
0.075175
0.072054
0.062712
0.062168
0.063129
0.063168
0.06068
