0.11194
0.076193
0.081762
0.076499
0.075094
0.091159
0.077589
0.075811
0.089297
0.092592
0.1043
0.092303
0.074378
0.06745
0.064619
0.072881
0.082964
0.096216
0.085632
0.072728
0.067288
0.073736
0.07103
0.088157
0.10114
0.089392
0.090425
0.091096
0.090093
0.08446
0.078652
0.075169
0.088737
0.084369
0.071187
0.072205
0.084294
0.066554
0.066094
0.070691
0.06326
0.059956
0.073399
0.081522
0.095885
0.084959
0.082132
0.071677
0.078005
0.081784
0.084896
0.087923
0.090056
0.087828
0.093346
0.097887
0.095216
0.10482
0.09722
0.083066
0.069911
0.089125
0.10567
0.08182
0.06555
0.078363
0.090047
0.08548
0.089143
0.073571
0.086808
0.097422
0.09787
0.11013
0.10367
0.08925
0.0807
0.094156
0.11488
0.10708
0.095829
0.094502
0.094084
0.094265
0.088207
0.079513
0.083914
0.084955
0.08781
0.087266
0.090307
0.094064
0.093687
0.094562
0.083708
0.077654
0.078366
0.077802
0.079819
0.087364
0.075249
0.084627
0.087248
0.08401
0.082152
0.067543
0.073608
0.076797
0.084691
0.084823
0.079759
0.083049
0.084291
0.082829
0.06877
0.082971
0.089337
0.088366
0.092257
0.085392
0.089205
0.081953
0.076679
0.061998
0.061528
0.052491
0.053414
0.051957
0.049027
0.038891
0.03706
0.041514
0.051032
0.045884
0.04773
0.048747
0.054043
0.051627
0.047101
0.039476
0.040449
0.049419
0.046941
0.062133
0.056305
0.053666
0.053925
0.05203
0.054213
0.061115
0.066649
0.068357
0.073999
0.081272
0.082465
0.082944
0.083228
0.087922
0.087748
0.087633
0.082719
0.089331
0.080398
0.083227
0.071861
0.071016
0.0744
0.066331
0.067331
0.06391
0.068161
0.068683
0.067089
0.068116
0.072852
0.065855
0.069443
0.073101
0.073401
0.06913
0.070831
0.074821
0.067215
0.073807
0.077763
0.077125
0.077971
0.07966
0.071612
0.079268
0.076862
0.077267
0.077541
0.075338
0.076211
0.077384
0.07547
0.075644
0.071206
0.073557
0.067669
0.06668
0.077964
0.083017
0.084594
0.086358
0.084784
0.091497
0.082464
0.091338
0.089465
0.087753
0.080996
0.076833
0.067016
0.073685
0.066862
0.070699
0.069706
0.080077
0.076908
0.088601
0.076926
0.073715
0.073535
0.079093
0.071652
0.071034
0.082015
0.086029
0.08844
0.087265
0.089792
0.086424
0.084221
0.082495
0.083832
0.088915
0.08653
0.085601
0.078919
0.086333
0.091523
0.082452
0.078997
0.071722
0.071198
0.076657
0.085908
0.083089
0.075664
0.072026
0.066786
0.064252
0.065998
0.066465
0.068426
0.063085
0.060339
0.059107
0.074307
0.087213
0.081394
0.078019
0.07453
0.072253
0.075034
0.067749
0.068132
0.080779
0.080845
0.081927
0.081003
0.087254
0.083004
0.094417
0.096548
0.091725
0.089228
0.088367
0.097602
0.094392
0.10056
0.10694
0.11088
0.11681
0.11566
0.10903
0.10885
0.10715
0.10781
0.11148
0.10981
0.10909
0.11009
0.10194
0.10602
0.098375
0.092583
0.094648
0.10202
0.086652
0.088615
0.093702
0.08945
0.088804
0.08793
0.092049
0.08872
0.083186
0.07784
0.07166
0.068746
0.059519
0.062211
0.068219
0.067525
0.069008
0.067959
0.065793
0.061081
0.056636
0.051081
0.051091
0.061522
0.057979
0.052657
0.056885
0.056666
0.05433
0.058606
0.059429
0.062754
0.064403
0.049303
0.047876
0.05222
0.049527
0.058739
0.063961
0.06196
0.059802
0.055656
0.058332
0.066143
0.068042
0.066823
0.065554
0.060416
0.06284
0.060081
0.072057
0.07064
0.070907
0.07029
0.071389
0.079
0.075711
0.080157
0.078937
0.066755
0.068524
0.064957
0.077059
0.084584
0.088166
0.081368
0.082952
0.085043
0.084444
0.08115
0.08045
0.081945
0.089003
0.079338
0.08536
0.087284
0.087828
0.086271
0.082525
0.080687
0.080599
0.073014
0.069123
0.064924
0.061101
0.060524
0.065446
0.064421
0.062913
0.060144
0.069176
0.071651
0.060634
0.053982
0.065785
0.069638
0.071929
0.073282
0.072705
0.0742
0.070316
0.072742
0.079
0.073403
0.066605
0.066841
0.068362
0.076506
0.075041
0.079892
0.082793
0.083861
0.080267
0.077642
0.084184
0.083252
0.077456
0.079296
0.076248
0.067851
0.070346
0.07249
0.074491
0.07282
0.075603
0.078748
0.073538
0.08495
0.083168
0.071432
0.077025
0.079721
0.07845
0.077542
0.067829
0.061655
0.062788
0.069199
0.073504
0.070076
0.07681
0.081366
0.080269
0.075029
0.079515
0.079502
0.080448
0.078535
0.080866
0.080113
0.072484
0.072751
0.075076
0.07711
0.082593
0.080324
0.088044
0.084644
0.096301
0.095276
0.090547
0.090599
0.089159
0.090293
0.085911
0.078177
0.063886
0.057654
0.053575
0.063978
0.071274
0.057373
0.065682
0.065805
0.063537
0.060546
0.064764
0.0671
0.068513
0.071886
0.070507
0.075965
0.075668
0.070824
0.066738
0.066663
0.070958
0.079445
0.076124
0.073411
0.074299
0.076943
0.076203
0.077891
0.07991
0.074888
0.069348
0.071856
0.065073
0.060031
0.065895
0.067067
0.062021
0.063104
0.064689
0.064552
0.072948
0.071883
0.076157
0.076053
0.074958
0.077356
0.078029
0.081808
0.083201
0.088147
0.088448
0.089576
0.087447
0.082804
0.079958
0.07866
0.079588
0.089471
0.083281
0.096295
0.098633
0.10666
0.10753
0.090419
0.085906
0.083581
0.082322
0.083492
0.094282
0.087893
0.078562
0.076349
0.084697
0.074503
0.084558
0.084
0.081917
0.08342
0.080197
0.079793
0.085841
0.083949
0.092244
0.093992
0.092957
0.10371
0.10449
0.10387
0.10671
0.10803
0.10616
0.10464
0.10805
0.10786
0.10461
0.11131
0.10289
0.097662
0.093463
0.085329
0.08837
0.081408
0.083006
0.088926
0.092125
0.092371
0.089986
0.086104
0.078659
0.081655
0.079235
0.083197
0.083443
0.079442
0.073525
0.073613
0.091226
0.093051
0.088863
0.088349
0.099015
0.09844
0.092336
0.087579
0.083608
0.083371
0.084189
0.085011
0.088931
0.089004
0.091945
0.090938
0.086569
0.083576
0.080408
0.086901
0.080988
0.080381
0.078075
0.071904
0.069511
0.075304
0.086993
0.085305
0.079024
0.097938
0.10279
0.099816
0.096966
0.10131
0.090059
0.094775
0.099358
0.095378
0.092087
0.094962
0.087038
0.087814
0.08911
0.087411
0.083055
0.080121
0.074738
0.069804
0.069086
0.065585
0.062982
0.058348
0.061707
0.05879
0.070546
0.066461
0.071008
0.075178
0.0853
0.092937
0.08884
0.095948
0.093371
0.095097
0.080729
0.080228
0.0779
0.085218
0.071863
0.064093
0.055038
0.055387
0.058834
0.065488
0.065856
0.059131
0.065306
0.063094
0.05826
0.052171
0.049391
0.052124
0.052363
0.052635
0.054125
0.056422
0.05907
0.066674
0.059211
0.061069
0.058607
0.056092
0.059506
0.063559
0.063065
0.062201
0.066322
0.062205
0.072753
0.072895
0.074296
0.073365
0.077074
0.073434
0.076086
0.075664
0.07697
0.071986
0.078357
0.079378
0.077676
0.073858
0.072665
0.072365
0.065015
0.067567
0.068106
0.067642
0.069458
0.065433
0.065569
0.063581
0.06557
0.068574
0.069616
0.063673
0.05665
0.058268
0.058273
0.061676
0.058904
0.054154
0.053065
0.040366
0.044802
0.042415
0.036117
0.045225
0.044695
0.051085
0.053964
0.054994
0.055128
0.046716
0.049514
0.048711
0.047587
0.050134
0.055039
0.05508
0.052407
0.048894
0.057336
0.060401
0.057396
0.052729
0.044955
0.039939
0.04299
0.044866
0.056019
0.061488
0.063766
0.064849
0.069414
0.072575
0.069644
0.073423
0.065187
0.065159
0.068607
0.068033
0.06588
0.064643
0.064679
0.062954
0.057436
0.053522
0.055711
0.051476
0.046416
0.045674
0.048599
0.054654
0.062851
0.062469
0.065514
0.068143
0.067932
0.073854
0.071548
0.072552
0.072559
0.063685
0.068553
0.05981
0.052169
0.051382
0.047079
0.043305
0.042523
0.047189
0.044814
0.056171
0.058299
0.056091
0.060194
0.048536
0.046153
0.051829
0.058113
0.059895
0.060233
0.058166
0.058316
0.055695
0.05537
0.060388
0.059893
0.06178
0.062978
0.05558
0.045904
0.052707
0.050256
0.049079
0.054057
0.061595
0.062507
0.064647
0.065584
0.067034
0.064165
0.063067
0.066954
0.067805
0.073607
0.07692
0.0873
0.085317
0.080739
0.086645
0.093724
0.089616
0.094315
0.087882
0.091234
0.096327
0.096591
0.090703
0.09247
0.080466
0.075379
0.080909
0.077923
0.08458
0.088359
0.082915
0.077421
0.076783
0.077798
0.07233
0.073998
0.077707
0.07682
0.073981
0.073992
0.080025
0.082593
0.076498
0.078061
0.075904
0.070178
0.065035
0.060355
0.071239
0.072048
0.064172
0.065263
0.069623
0.069378
0.067909
0.059212
0.065353
0.063535
0.066059
0.066863
0.069927
0.073596
0.071237
0.070617
0.072003
0.06296
0.058261
0.049567
0.046075
0.047043
0.061098
0.064107
0.065628
0.060563
0.059597
0.06091
0.072334
0.074325
0.074851
0.071935
0.069505
0.07752
0.071193
0.068239
0.065508
0.072422
0.067333
0.071354
0.070816
0.070539
0.071711
0.06975
0.058519
0.053587
0.053682
0.057823
0.060226
0.053987
0.045839
0.045343
0.046368
0.043121
0.040404
0.037964
0.0399
0.042831
0.046216
0.048868
0.045449
0.047971
0.054782
0.054832
0.053774
0.050651
0.050223
0.045831
0.0441
0.044614
0.044407
0.045075
0.046815
0.045422
0.050346
0.049827
0.046417
0.041712
0.038379
0.044021
0.046313
0.046866
0.049993
0.048781
0.05122
0.045698
0.037593
0.032282
0.031229
0.029141
0.034398
0.032294
0.027455
0.032103
0.036081
0.036164
0.029041
0.03161
0.036642
0.034961
0.030312
0.03402
0.038353
0.042856
0.04073
0.044771
0.045341
0.046192
0.045966
0.040153
0.039182
0.049315
0.058624
0.044694
0.044469
0.048281
0.051256
0.053456
0.046134
0.041027
0.050116
0.053203
0.051385
0.050062
0.05038
0.047878
0.044666
0.046313
0.046816
0.052016
0.055748
0.061154
0.055344
0.057601
0.051416
0.056355
0.057281
0.059147
0.063254
0.066604
0.067105
0.068428
0.072399
0.071394
0.073377
0.070647
0.064434
0.061878
0.057961
0.053162
0.053037
0.056564
0.063194
0.062223
0.062467
0.058442
0.055819
0.054086
0.043879
0.03615
0.039963
0.043207
0.044713
0.037065
0.043953
0.044386
0.044664
0.050753
0.053594
0.058039
0.061585
0.061992
0.057382
0.058905
0.059314
0.053184
0.056153
0.058113
0.058645
0.056496
0.054231
0.048871
0.048309
0.054044
0.068729
0.074168
0.07503
0.07756
0.080103
0.084396
0.088036
0.089051
0.085886
0.083815
0.076061
0.07229
0.0628
0.066932
0.066748
0.065836
0.065492
0.071157
0.068814
0.065522
0.066279
0.073087
0.07618
0.075066
0.080327
0.084635
0.081677
0.08216
0.08185
0.080153
0.081599
0.079708
0.075716
0.076711
0.081009
0.07801
0.076304
0.07515
0.072114
0.077343
0.068149
0.068093
0.06476
0.061613
0.069252
0.063786
0.067486
0.073093
0.06966
0.063707
0.059229
0.056965
0.057347
0.060483
0.064491
0.064478
0.063353
0.070227
0.07529
0.07398
0.074069
0.067065
0.068177
0.073015
0.076488
0.076369
0.072141
0.069121
0.065445
0.064836
0.066116
0.066952
0.0676
0.069457
0.068713
0.055307
0.050827
0.055503
0.064856
0.067721
0.069686
0.073512
0.073036
0.068323
0.064915
0.071759
0.072349
0.073275
0.075191
0.075125
0.080429
0.076445
0.076723
0.076025
0.080338
0.081905
0.089887
0.095526
0.09452
0.089635
0.081914
0.072154
0.071307
0.065682
0.066272
0.077361
0.081175
0.079489
0.078939
0.076204
0.074209
0.066832
0.068593
0.068599
0.071917
0.070593
0.064933
0.06758
0.078426
0.081593
0.079871
0.082176
0.079708
0.078539
0.079489
0.076923
0.077779
0.070002
0.067874
0.062974
0.072
0.070899
0.071149
0.0784
0.077935
0.082223
0.086907
0.085864
0.084938
0.086938
0.093102
0.088385
0.085383
0.083558
0.085935
0.081696
0.084631
0.082875
0.07919
0.075657
0.067224
0.062205
0.071361
0.065772
0.072442
0.074227
0.079157
0.07883
0.076045
0.072476
0.071011
0.070809
0.066985
0.070288
0.074784
0.070433
0.069326
0.072415
0.073714
0.064781
0.064603
0.064263
0.067451
0.066493
0.062347
0.063015
0.069033
0.070034
0.070325
0.065705
0.067677
0.066139
0.072661
0.068816
0.066165
0.057083
0.052256
0.058337
0.059117
0.062252
0.06515
0.060555
0.059371
0.056192
0.052132
0.054495
0.053141
0.05315
0.054808
0.056577
0.061415
0.064061
0.062498
0.064403
0.064738
0.059667
0.062289
0.056827
0.059377
0.066955
0.071583
0.07376
0.072707
0.068243
0.070543
0.064934
0.062924
0.064678
0.060527
0.06158
0.061692
0.064267
0.059775
0.057033
0.055912
0.05909
0.06146
0.061453
0.060606
0.057681
0.053814
0.05572
0.058692
0.054713
0.060739
0.054604
0.056206
0.062517
0.070788
0.069507
0.060789
0.061331
0.06128
0.061967
0.060681
0.059437
0.063541
0.063709
0.063389
0.060317
0.062711
0.056123
0.055006
0.051488
0.05465
0.06106
0.065056
0.062472
0.062377
0.051483
0.05055
0.053521
0.05122
0.055295
0.047218
0.046612
0.046401
0.053916
0.057955
0.05761
0.051648
0.053429
0.062363
0.063635
0.060816
0.057545
0.058832
0.061308
0.062508
0.063044
0.063673
0.061135
0.05909
0.056254
0.059557
0.059853
0.061374
0.056303
0.053523
0.056182
0.063379
0.065948
0.064069
0.061539
0.061101
0.065938
0.067518
0.068802
0.060024
0.062348
0.059451
0.056842
0.059866
0.063596
0.065744
0.063419
0.063122
0.052413
0.056691
0.063719
0.06757
0.063499
0.064473
0.060724
0.065646
0.07186
0.078452
0.074773
0.072846
0.071134
0.068731
0.064524
0.062522
0.062913
0.060795
0.063456
0.067264
0.064519
0.066746
0.06587
0.061754
0.063387
0.064091
0.061034
0.062257
0.067473
0.07136
0.072773
0.076223
0.073211
0.074372
0.072102
0.069522
0.06802
0.068188
0.068535
0.06998
0.069397
0.065377
0.06533
0.059895
0.059767
0.063789
0.062291
0.059572
0.060085
0.058839
0.059032
0.06298
0.067648
0.061873
0.055644
0.057967
0.060271
0.063349
0.064013
0.059214
0.068526
0.065032
0.065016
0.063072
0.064433
0.068535
0.068394
0.069226
0.066613
0.066994
0.072409
0.06674
0.068827
0.067096
0.06664
0.066727
0.070315
0.071622
0.076133
0.077356
0.0798
0.083277
0.08456
0.080584
0.077228
0.07368
0.072696
0.070403
0.068693
0.065234
0.061022
0.065026
0.061871
0.063707
0.065727
0.060727
0.058371
0.053323
0.049008
0.044505
0.048119
0.055346
0.064362
0.064416
0.059795
0.058212
0.054208
0.053992
0.051533
0.056393
0.067347
0.063672
0.065216
0.068959
0.066681
0.070198
0.072146
0.068009
0.069994
0.070108
0.07073
0.08043
0.077138
0.075359
0.074163
0.074439
0.081025
0.078666
0.077735
0.079721
0.078073
0.084625
0.086061
0.091112
0.077938
0.071861
0.06963
0.069422
0.069234
0.075007
0.072303
0.077539
0.083048
0.076065
0.07459
0.06946
0.073292
0.074908
0.069941
0.071389
0.069081
0.068978
0.066247
0.073262
0.072673
0.073481
0.074628
0.077645
0.07902
0.070137
0.066987
0.067321
0.066685
0.071054
0.075317
0.075076
0.07584
0.073415
0.066585
0.065324
0.06869
0.068116
0.069297
0.077033
0.0834
0.077508
0.074938
0.06776
0.068382
0.079184
0.079339
0.07598
0.073421
0.063376
0.060208
0.065069
0.060573
0.061487
0.061774
0.059386
0.057562
0.059299
0.058154
0.054408
0.055203
0.05377
0.048951
0.047118
0.044277
0.047862
0.043684
0.051063
0.058964
0.051111
0.04746
0.053027
0.059339
0.058686
0.065286
0.075335
0.075367
0.071143
0.06251
0.053789
0.058499
0.057402
0.054103
0.049683
0.044705
0.050962
0.043488
0.040352
0.04031
0.044271
0.0466
0.047527
0.043791
0.043755
0.049806
0.047434
0.042736
0.044883
0.04491
0.044493
0.048402
0.047079
0.045538
0.04786
0.046968
0.0524
0.04484
0.043325
0.042876
0.049652
0.050433
0.047409
0.052612
0.052706
0.052784
0.04846
0.052893
0.056811
0.057182
0.060396
0.064642
0.061545
0.059734
0.050925
0.057554
0.055239
0.051197
0.060795
0.059041
0.064173
0.064018
0.063196
0.064235
0.073041
0.060341
0.063886
0.066489
0.072713
0.070732
0.068231
0.065642
0.068509
0.075492
0.076486
0.074452
0.071829
0.0671
0.057253
0.058406
0.057872
0.048266
0.050317
0.059899
0.060109
0.055514
0.05816
0.055567
0.058784
0.062986
0.062119
0.072342
0.070545
0.063707
0.066233
0.058682
0.060346
0.06419
0.060045
0.056795
0.054062
0.055741
0.052285
0.053666
0.056606
0.056027
0.054332
0.054623
0.053939
0.054203
0.06554
0.061456
0.057543
0.056769
0.063683
0.066695
0.067472
0.071151
0.067532
0.064281
0.062854
0.061707
0.059094
0.060903
0.068217
0.070878
0.07632
0.07739
0.080349
0.087844
0.09137
0.093171
0.08975
0.082088
0.085496
0.094991
0.092256
0.090205
0.093424
0.087669
0.083947
0.076996
0.076909
0.073936
0.073792
0.069579
0.071768
0.073764
0.077481
0.078429
0.070746
0.0763
0.086982
0.087273
0.083108
0.08392
0.081662
0.081465
0.081781
0.082127
0.061716
0.063265
0.064438
0.062785
0.066913
0.06572
0.05798
0.05931
0.053172
0.065091
0.067296
0.070119
0.074398
0.080021
0.084929
0.085203
0.082453
0.084928
0.092713
0.090734
0.089411
0.086523
0.076386
0.074644
0.070935
0.077958
0.084481
0.091038
0.092388
0.10334
0.10115
0.092618
0.09756
0.099142
0.10781
0.11156
0.12017
0.11868
0.11626
0.10695
0.099579
0.096591
0.095217
0.097018
0.092742
0.094406
0.083387
0.081345
0.082373
0.088336
0.089298
0.096439
0.088864
0.090834
0.093153
0.095899
0.090452
0.086491
0.082337
0.086218
0.074926
0.078022
0.084559
0.087871
0.089166
0.087509
0.09109
0.093091
0.10054
0.10181
0.10083
0.1007
0.10516
0.098667
0.08928
0.085174
0.088759
0.089819
0.083099
0.084833
0.08448
0.08934
0.088885
0.089183
0.090577
0.083892
0.080145
0.085506
0.094841
0.096438
0.10664
0.10898
0.10797
0.10392
0.10301
0.096815
0.095075
0.080529
0.09108
0.089552
0.08419
0.080365
0.08357
0.080909
0.081741
0.07706
0.070769
0.073163
0.071871
0.074278
0.07516
0.07565
0.078031
0.07631
0.072162
0.073641
0.086198
0.090164
0.085944
0.088131
0.084526
0.085339
0.079998
0.076175
0.079732
0.07509
0.074566
0.076534
0.073306
0.075716
0.07156
0.072799
0.064661
0.065306
0.07705
0.076102
0.064549
0.056966
0.056618
0.061091
0.065378
0.064355
0.06292
0.059949
0.061551
0.061969
0.064796
0.078801
0.090123
0.092291
0.097886
0.099649
0.098414
0.10026
0.10166
0.088302
0.09146
0.08833
0.085136
0.084272
0.088214
0.091727
0.086213
0.089109
0.08759
0.087266
0.089963
0.097411
0.097742
0.097
0.098313
0.10196
0.10515
0.10739
0.11401
0.11409
0.11384
0.11687
0.11329
0.11657
0.11532
0.11835
0.11684
0.12069
0.11825
0.11462
0.11908
0.11995
0.1068
0.1069
0.10163
0.10522
0.10999
0.10871
0.11861
0.13214
0.11926
0.11807
0.11195
0.10103
0.094986
0.095987
0.10028
0.10533
0.10131
0.10581
0.095187
0.093396
0.090043
0.080361
0.074759
0.076505
0.075312
0.072311
0.077157
0.086799
0.091911
0.088117
0.086705
0.085265
0.089243
0.084297
0.098502
0.095729
0.097059
0.08802
0.083659
0.082241
0.084124
0.08549
0.084651
0.080043
0.083503
0.076304
0.076589
0.085953
0.087401
0.090769
0.087708
0.092144
0.09271
0.092005
0.090347
0.091838
0.091745
0.085232
0.083028
0.084236
0.079585
0.076979
0.078505
0.073273
0.070668
0.074428
0.072184
0.074345
0.077057
0.07531
0.084361
0.079324
0.074348
0.079636
0.076109
0.066446
0.066464
0.067463
0.073287
0.068874
0.069991
0.069967
0.067905
0.06594
0.070432
0.067564
0.067914
0.069737
0.071412
0.077369
0.082757
0.083682
0.079593
0.072328
0.077967
0.075242
0.080114
0.069873
0.07419
0.073997
0.070575
0.06913
0.06883
0.073251
0.070931
0.067613
0.064935
0.065188
0.064044
0.057825
0.054942
0.056871
0.058497
0.069368
0.062274
0.057282
0.060478
0.064141
0.066561
0.071347
0.073209
0.072801
0.073216
0.078765
0.079568
0.080654
0.078047
0.078901
0.072029
0.070843
0.075286
0.075875
0.072439
0.073089
0.076264
0.082197
0.080274
0.076488
0.075783
0.080951
0.076705
0.081373
0.079638
0.074191
0.072646
0.067227
0.068608
0.070595
0.070051
0.07523
0.079446
0.075426
0.078741
0.075075
0.073368
0.076597
0.080647
0.083216
0.08713
0.089788
0.085012
0.082163
0.08541
0.082233
0.079082
0.079185
0.074719
0.077164
0.077077
0.076418
0.072068
0.074287
0.072939
0.076827
0.08251
0.082799
0.08629
0.088575
0.083554
0.077328
0.075693
0.076503
0.076545
0.080008
0.084984
0.087052
0.088097
0.087039
0.085963
0.080223
0.079643
0.074406
0.074188
0.070024
0.0597
0.06171
0.066791
0.068267
0.0681
0.068276
0.069778
0.071624
0.071818
0.070947
0.057861
0.053019
0.052262
0.049729
0.051281
0.042985
0.044455
0.044277
0.036515
0.037589
0.042799
0.044317
0.039607
0.040979
0.037797
0.042595
0.045632
0.048008
0.048912
0.048914
0.042781
0.037279
0.036378
0.031066
0.021701
0.020259
0.020901
0.024531
0.02492
0.031103
0.036988
0.04718
0.055446
0.052066
0.04934
0.053292
0.05352
0.053365
0.060388
0.065748
0.058485
0.063851
0.06929
0.062223
0.054789
0.053077
0.063217
0.068509
0.066709
0.061161
0.059666
0.054683
0.046668
0.047891
0.04165
0.044404
0.04547
0.041315
0.040886
0.036853
0.035348
0.034733
0.035743
0.035653
0.037054
0.034
0.034501
0.039618
0.044692
0.046233
0.041562
0.041182
0.041482
0.047749
0.050689
0.043492
0.041661
0.042592
0.043639
0.042876
0.039677
0.035557
0.035435
0.041268
0.04343
0.037799
0.040771
0.046837
0.052466
0.060359
0.060011
0.058096
0.071024
0.067755
0.068045
0.06636
0.052693
0.054929
0.055418
0.06094
0.060602
0.062387
0.064281
0.056812
0.055178
0.057538
0.060404
0.055129
0.047175
0.050459
0.054098
0.048437
0.048585
0.05182
0.056206
0.054332
0.068564
0.069763
0.06771
0.067089
0.070702
0.070798
0.072933
0.07036
0.07242
0.078084
0.076798
0.079077
0.07689
0.081617
0.083731
0.08683
0.090742
0.092718
0.095262
0.093459
0.092474
0.090749
0.088438
0.090073
0.088773
0.083527
0.080723
0.079646
0.078088
0.077515
0.080329
0.08411
0.087154
0.083685
0.084834
0.089862
0.090699
0.091012
0.093087
0.094945
0.094978
0.092598
0.09672
0.097671
0.095507
0.094651
0.094466
0.095891
0.10123
0.10501
0.11259
0.11235
0.11625
0.11247
0.11114
0.10717
0.10321
0.10039
0.10334
0.10459
0.09977
0.095327
0.098395
0.10287
0.10307
0.10764
0.10448
0.10075
0.098502
0.096548
0.098065
0.096683
0.094884
0.093719
0.086696
0.085836
0.083785
0.085705
0.08109
0.080132
0.068491
0.067793
0.069639
0.077807
0.071826
0.081708
0.080849
0.082495
0.077505
0.072168
0.07229
0.073147
0.073461
0.071764
0.06424
0.067805
0.068823
0.074486
0.071638
0.069169
0.074374
0.069664
0.066704
0.067124
0.064144
0.067213
0.068651
0.069331
0.069945
0.071395
0.06716
0.073046
0.07062
0.070883
0.070877
0.066293
0.065177
0.067458
0.065635
0.062713
0.061911
0.069177
0.066279
0.062771
0.063125
0.061528
0.064769
0.066802
0.064213
0.064967
0.061082
0.060879
0.052936
0.048866
0.051767
0.050234
0.05232
0.053258
0.051331
0.049817
0.051235
0.053233
0.058219
0.05811
0.05412
0.055262
0.051553
0.053681
0.051496
0.054055
0.052796
0.0579
0.057665
0.059708
0.05979
0.057925
0.049747
0.05312
0.056107
0.059093
0.062489
0.053297
0.050601
0.05679
0.048878
0.043756
0.041774
0.044647
0.047245
0.049886
0.05804
0.053078
0.056578
0.059942
0.058154
0.050953
0.049883
0.048061
0.047048
0.04523
0.046922
0.048654
0.047982
0.052313
0.057637
0.059069
0.06086
0.063979
0.062825
0.05865
0.060448
0.062947
0.062852
0.059341
0.05395
0.053062
0.050609
0.048706
0.053448
0.057132
0.060718
0.067893
0.067091
0.065104
0.065855
0.06928
0.072992
0.075631
0.067448
0.074185
0.065308
0.06782
0.060754
0.064719
0.064053
0.068887
0.075005
0.078594
0.079599
0.080201
0.081977
0.086565
0.080531
0.083611
0.084646
0.085733
0.084272
0.08157
0.077351
0.073645
0.075579
0.076524
0.078626
0.081755
0.085429
0.081773
0.078805
0.073346
0.073663
0.074133
0.073189
0.067848
0.068273
0.063451
0.071647
0.076158
0.073495
0.067859
0.068601
0.071632
0.070724
0.068681
0.072013
0.071894
0.068466
0.067396
0.06249
0.059225
0.057737
0.059214
0.062329
0.060301
0.059646
0.060926
0.062041
0.060581
0.054135
0.056516
0.063959
0.06224
0.058784
0.054989
0.058144
0.053417
0.046618
0.042067
0.043311
0.043837
0.045189
0.046753
0.052333
0.054862
0.056409
0.057417
0.05633
0.057959
0.056915
0.056321
0.056599
0.051967
0.054635
0.063949
0.05965
0.06128
0.053383
0.049045
0.050765
0.0519
0.056009
0.054795
0.047812
0.057657
0.054945
0.053092
0.058482
0.065152
0.066532
0.067232
0.071089
0.067385
0.066911
0.068312
0.067758
0.065883
0.062569
0.059388
0.062343
0.067286
0.07007
0.072012
0.070915
0.072916
0.074146
0.07556
0.074213
0.065405
0.06384
0.067136
0.060895
0.061947
0.060688
0.060456
0.058927
0.05841
0.050376
0.055176
0.063613
0.06755
0.06645
0.068164
0.067905
0.058223
0.063063
0.06647
0.068046
0.066073
0.068476
0.067035
0.072903
0.07312
0.073638
0.072
0.069802
0.062115
0.050692
0.046782
0.046078
0.046768
0.041206
0.042694
0.043381
0.055455
0.056066
0.061363
0.052215
0.056165
0.060977
0.061716
0.061916
0.058543
0.058845
0.05967
0.05569
0.059663
0.062889
0.063219
0.064207
0.063222
0.065606
0.067245
0.073331
0.064338
0.05789
0.063875
0.071615
0.073059
0.07213
0.072209
0.070358
0.068637
0.062822
0.061464
0.062084
0.064392
0.058145
0.054532
0.051695
0.052934
0.052643
0.047321
0.044477
0.04245
0.04564
0.052844
0.049964
0.053513
0.058853
0.064754
0.070237
0.074047
0.072103
0.069668
0.068973
0.06796
0.066611
0.066805
0.065345
0.071228
0.074665
0.083555
0.081755
0.084354
0.076904
0.074064
0.070181
0.069698
0.075962
0.083289
0.083825
0.085087
0.083908
0.085118
0.080314
0.071973
0.070275
0.063438
0.065849
0.062204
0.068717
0.062035
0.05779
0.055216
0.058534
0.057198
0.054392
0.058262
0.049632
0.048347
0.050444
0.049008
0.051123
0.050112
0.053893
0.045068
0.054703
0.059919
0.054867
0.054124
0.060423
0.057799
0.059763
0.061188
0.06453
0.065981
0.060313
0.065833
0.060067
0.058911
0.060735
0.058203
0.064323
0.061612
0.062692
0.060546
0.061415
0.059382
0.064696
0.067174
0.067825
0.069481
0.061262
0.062566
0.054964
0.069767
0.07256
0.07296
0.074274
0.071898
0.072249
0.069924
0.056633
0.051556
0.048768
0.04767
0.049684
0.060002
0.064295
0.078472
0.07952
0.079023
0.085393
0.080838
0.084297
0.073789
0.075716
0.074409
0.0768
0.081692
0.083186
0.081154
0.085778
0.07883
0.065535
0.061403
0.071573
0.079592
0.083268
0.087027
0.084392
0.087367
0.087717
0.088431
0.078273
0.078701
0.076626
0.077835
0.077667
0.085903
0.090961
0.090457
0.089776
0.085826
0.082667
0.075698
0.071626
0.076939
0.0787
0.077204
0.069968
0.065372
0.069796
0.076685
0.08588
0.087205
0.095615
0.093074
0.09418
0.088797
0.089507
0.092344
0.0895
0.088923
0.08699
0.095767
0.094063
0.095542
0.094195
0.091577
0.09397
0.096225
0.10035
0.098372
0.10187
0.10212
0.099529
0.09967
0.09264
0.08556
0.084008
0.082663
0.084549
0.082339
0.079599
0.07589
0.074984
0.074192
0.074593
0.075369
0.087904
0.089868
0.086045
0.08449
0.079857
0.080018
0.078828
0.085421
0.086547
0.089813
0.081171
0.081945
0.084065
0.078758
0.085813
0.086903
0.081855
0.082522
0.080489
0.072003
0.07248
0.071729
0.069283
0.067577
0.064132
0.066232
0.058283
0.059936
0.066707
0.064688
0.058307
0.058459
0.053142
0.059473
0.056395
0.064552
0.068363
0.073664
0.076496
0.072554
0.064164
0.071428
0.065437
0.053905
0.059601
0.058981
0.065193
0.061639
0.060814
0.059478
0.060401
0.056078
0.059398
0.059512
0.066724
0.07257
0.067169
0.067265
0.068247
0.077133
0.076229
0.075451
0.077303
0.077781
0.075879
0.0674
0.058649
0.053767
0.049375
0.052852
0.057721
0.064922
0.066825
0.06034
0.058369
0.058228
0.0565
0.067815
0.0675
0.075968
0.080656
0.085867
0.089863
0.085111
0.07867
0.071623
