scene00001.jpg
scene00011.jpg
scene00021.jpg
scene00031.jpg
scene00041.jpg
scene00051.jpg
scene00061.jpg
scene00071.jpg
scene00081.jpg
scene00091.jpg
scene00101.jpg
scene00111.jpg
scene00121.jpg
scene00131.jpg
scene00141.jpg
scene00151.jpg
scene00161.jpg
scene00171.jpg
scene00181.jpg
scene00191.jpg
scene00201.jpg
scene00211.jpg
scene00221.jpg
scene00231.jpg
scene00241.jpg
scene00251.jpg
scene00261.jpg
scene00271.jpg
scene00281.jpg
scene00291.jpg
scene00301.jpg
scene00311.jpg
scene00321.jpg
scene00331.jpg
scene00341.jpg
scene00351.jpg
scene00361.jpg
scene00371.jpg
scene00381.jpg
scene00391.jpg
scene00401.jpg
scene00411.jpg
scene00421.jpg
scene00431.jpg
scene00441.jpg
scene00451.jpg
scene00461.jpg
scene00471.jpg
scene00481.jpg
scene00491.jpg
scene00501.jpg
scene00511.jpg
scene00521.jpg
scene00531.jpg
scene00541.jpg
scene00551.jpg
scene00561.jpg
scene00571.jpg
scene00581.jpg
scene00591.jpg
scene00601.jpg
scene00611.jpg
scene00621.jpg
scene00631.jpg
scene00641.jpg
scene00651.jpg
scene00661.jpg
scene00671.jpg
scene00681.jpg
scene00691.jpg
scene00701.jpg
scene00711.jpg
scene00721.jpg
scene00731.jpg
scene00741.jpg
scene00751.jpg
scene00761.jpg
scene00771.jpg
scene00781.jpg
scene00791.jpg
scene00801.jpg
scene00811.jpg
scene00821.jpg
scene00831.jpg
scene00841.jpg
scene00851.jpg
scene00861.jpg
scene00871.jpg
scene00881.jpg
scene00891.jpg
scene00901.jpg
scene00911.jpg
scene00921.jpg
scene00931.jpg
scene00941.jpg
scene00951.jpg
scene00961.jpg
scene00971.jpg
scene00981.jpg
scene00991.jpg
scene01001.jpg
scene01011.jpg
scene01021.jpg
scene01031.jpg
scene01041.jpg
scene01051.jpg
scene01061.jpg
scene01071.jpg
scene01081.jpg
scene01091.jpg
scene01101.jpg
scene01111.jpg
scene01121.jpg
scene01131.jpg
scene01141.jpg
scene01151.jpg
scene01161.jpg
scene01171.jpg
scene01181.jpg
scene01191.jpg
scene01201.jpg
scene01211.jpg
scene01221.jpg
scene01231.jpg
scene01241.jpg
scene01251.jpg
scene01261.jpg
scene01271.jpg
scene01281.jpg
scene01291.jpg
scene01301.jpg
scene01311.jpg
scene01321.jpg
scene01331.jpg
scene01341.jpg
scene01351.jpg
scene01361.jpg
scene01371.jpg
scene01381.jpg
scene01391.jpg
scene01401.jpg
scene01411.jpg
scene01421.jpg
scene01431.jpg
scene01441.jpg
scene01451.jpg
scene01461.jpg
scene01471.jpg
scene01481.jpg
scene01491.jpg
scene01501.jpg
scene01511.jpg
scene01521.jpg
scene01531.jpg
scene01541.jpg
scene01551.jpg
scene01561.jpg
scene01571.jpg
scene01581.jpg
scene01591.jpg
scene01601.jpg
scene01611.jpg
scene01621.jpg
scene01631.jpg
scene01641.jpg
scene01651.jpg
scene01661.jpg
scene01671.jpg
scene01681.jpg
scene01691.jpg
scene01701.jpg
scene01711.jpg
scene01721.jpg
scene01731.jpg
scene01741.jpg
scene01751.jpg
scene01761.jpg
scene01771.jpg
scene01781.jpg
scene01791.jpg
scene01801.jpg
scene01811.jpg
scene01821.jpg
