1.313
1.4608
1.4216
1.6842
1.75
1.9106
1.697
1.9442
1.7423
1.5209
1.422
1.6837
1.6112
1.6132
1.234
1.4211
1.7797
2.0912
2.1449
1.6131
1.4836
1.2004
1.3041
1.2282
1.2604
1.2352
1.2053
1.3904
1.8808
2.16
2.3678
2.2515
1.8752
1.8815
1.7532
1.5778
1.6236
2.1382
2.1453
2.2761
2.9244
3.2647
2.7851
3.0972
2.4968
2.7362
2.5977
2.6225
2.8769
2.9311
3.081
2.7643
2.6749
2.9027
3.3873
3.242
3.1755
3.1845
2.4397
2.4205
2.6597
2.5861
2.57
2.6174
2.6205
2.1162
2.1005
2.4131
2.5529
2.4398
2.7106
2.7692
2.6007
2.8358
3.0428
2.5149
2.4407
2.3083
2.4458
2.4941
2.8883
2.9242
2.6417
2.6765
2.6744
2.8728
2.9847
3.2121
3.2674
3.0438
2.6747
3.0169
2.7826
3.0433
2.9309
2.9099
2.9466
3.4191
3.4603
3.4371
3.6705
3.4957
3.8012
3.8793
4.0391
3.7231
3.7055
3.836
3.8739
3.8758
3.7432
3.9557
3.7729
3.8289
3.7257
3.4477
3.1812
3.1775
3.2213
3.0564
3.3512
3.6165
3.4399
3.2913
3.4648
3.476
3.3222
3.5663
3.4037
3.3439
3.1425
3.3667
3.5113
3.5485
3.288
2.9868
2.9624
3.1608
3.0964
2.9634
2.9591
3.2523
3.7073
3.8894
3.8824
3.8148
3.8065
3.6131
3.9318
4.0253
4.0359
3.8761
3.9488
3.9333
3.8734
3.7729
3.8768
3.5174
3.5262
3.6419
3.6975
3.7884
3.4293
3.5218
3.4215
3.6804
3.9466
3.8091
3.5709
3.5863
3.4688
3.5972
3.4861
3.5742
3.8565
3.8023
3.8363
4.0271
3.9599
4.0625
4.0643
4.1654
4.0698
4.1647
3.9855
3.8148
3.9767
3.7619
3.715
3.9156
3.8092
3.8229
4.0108
3.8066
3.6115
3.7882
4.0245
3.8548
3.7903
3.5824
3.3987
3.5778
3.406
3.9145
3.9713
4.0633
4.2068
4.2495
4.1263
4.0038
4.004
3.794
3.8096
3.8477
3.6721
3.8973
3.7848
3.8109
3.7451
3.6442
3.5779
3.876
3.9701
4.1783
4.3027
4.2511
3.9678
3.8258
3.895
3.4671
3.5234
3.7086
3.6386
3.9153
3.8177
3.6129
3.7203
3.9534
4.0353
4.0274
4.149
4.2029
4.2053
4.1851
3.9596
4.0487
4.032
3.9479
3.9082
3.8434
3.8795
4.0694
3.9808
3.989
3.9875
4.1235
4.022
4.2887
4.143
4.1176
4.2819
4.3192
4.347
4.2268
4.2272
4.3464
4.3289
4.3388
4.3557
4.4651
4.4611
4.4619
4.4453
4.2957
4.3973
4.3985
4.427
4.206
4.094
3.932
3.9393
4.0541
4.3424
4.4952
4.4018
4.4737
4.5417
4.5235
4.5564
4.4325
4.4649
4.4478
4.38
4.3731
4.3799
4.3237
4.3093
4.2372
4.2395
4.1209
4.2336
4.2078
4.1936
4.2913
4.246
4.3944
4.3201
4.1476
4.1058
4.0346
3.9938
3.7706
3.739
3.6062
3.7532
3.5999
3.6068
3.6151
3.6897
3.8109
3.8636
3.8816
4.0236
4.0077
4.0672
4.1401
4.0073
3.8842
3.9959
4.1161
4.1325
4.0424
3.9356
3.7615
3.4817
3.3891
3.7296
3.9176
3.9968
3.961
4.0203
3.9159
3.7643
3.5757
3.6442
3.8431
4.055
3.9776
3.7749
3.8343
4.1227
4.012
3.9456
3.643
3.7772
3.7942
4.0143
3.9991
3.7929
3.723
3.8903
3.9534
3.8558
3.9443
4.2384
4.163
4.2181
4.1632
4.1149
4.2895
4.3961
4.3261
4.2569
4.1893
4.1557
4.0988
4.2445
4.3405
4.4059
4.3683
4.4347
4.4713
4.3753
4.3747
4.323
4.1576
4.1039
4.1682
4.1574
4.0567
4.2775
4.2546
4.3092
4.2909
4.2482
4.2141
4.3515
4.1425
4.2001
4.2336
4.2961
4.0801
4.2471
4.321
4.1917
4.1103
4.2731
4.2191
3.9882
4.1296
4.3211
4.4174
4.2822
4.1122
4.3619
4.3912
4.3665
4.4953
4.5066
4.4649
4.2616
4.2626
4.4248
4.3092
3.8879
3.9965
4.0142
3.9144
4.0448
4.0189
3.9889
4.1364
4.0992
4.0342
3.8921
3.9329
4.0398
4.0445
3.8402
3.8034
3.9842
3.9726
3.844
3.7701
3.8964
3.99
3.7402
4.0222
4.1512
4.211
4.2968
4.1868
4.0858
4.3076
4.0438
4.3443
4.196
4.2089
4.3302
4.232
4.2973
4.5276
4.4465
4.3991
4.2886
4.2012
4.1967
4.2679
4.2022
4.2895
4.4064
4.3986
4.2681
4.045
4.0263
4.024
4.1562
4.0644
3.9322
3.9366
3.9625
4.0903
3.9867
3.9601
3.8521
3.8303
3.8211
3.7803
3.8892
3.8241
3.9085
3.835
4.0151
4.1969
4.1788
3.9551
3.7199
3.5218
3.3219
3.3856
3.8378
3.7687
3.6757
3.6318
3.5087
3.6061
3.5121
3.4937
3.365
3.3439
3.3065
3.4166
3.3916
3.4905
3.7457
3.6407
3.6853
3.6724
3.7336
3.7751
3.5939
3.5054
3.7236
3.838
4.0513
4.0347
3.8276
4.0191
3.8783
3.5615
3.7293
3.9657
3.9007
3.9782
3.8789
3.7595
3.8778
3.8056
3.8913
3.9016
3.8883
3.9934
