0.15093
0.14531
0.15739
0.16928
0.17073
0.19295
0.19025
0.19088
0.18421
0.18764
0.17335
0.17468
0.16633
0.17213
0.16422
0.15529
0.15679
0.13645
0.12832
0.1248
0.11372
0.12005
0.1175
0.11847
0.11916
0.11681
0.11835
0.11756
