3.3232
3.3191
3.547
3.8944
3.9372
3.8066
3.7585
3.6155
3.7302
3.7089
3.6675
3.7729
3.7866
3.8072
3.5353
3.4439
3.5308
3.4804
3.7991
3.7333
4.0588
4.165
3.9865
3.9126
3.7959
4.1332
4.1466
4.2417
4.2961
4.305
4.233
4.3089
4.2074
4.0042
4.0577
4.2144
4.2271
4.0456
4.0747
4.1127
3.9173
3.9262
3.7647
3.6631
3.8753
3.7559
3.6316
3.8405
4.1254
4.1601
4.2377
4.3347
4.2675
4.4336
4.4623
4.8325
4.5712
4.3961
4.5032
4.4884
4.425
4.3252
4.1163
4.1712
4.2628
4.1741
4.2821
4.2724
4.4494
4.3952
4.4193
4.3561
4.3071
4.3544
4.3776
4.2956
4.1834
4.3789
4.2656
4.0849
4.0044
3.7093
3.6684
3.2258
3.4698
3.4934
3.3438
3.527
3.6013
3.6374
3.8328
4.0565
4.1383
4.3568
4.5199
4.669
4.7061
4.4848
4.2139
4.3935
4.2926
4.2366
4.318
4.3456
4.3386
4.3027
4.4904
4.3617
4.1278
4.137
4.1235
4.2245
4.3692
4.1783
4.2524
4.208
4.1836
4.33
4.2281
4.2511
4.3173
4.3518
3.9651
4.149
3.833
3.7471
3.9194
3.5248
3.3078
3.3385
3.3102
3.0331
2.8135
3.1216
3.433
3.4715
3.3529
3.3722
3.3763
3.2558
3.3754
3.1924
3.1205
3.0737
3.4705
3.5276
3.4007
3.482
3.4593
3.3527
3.5436
3.4873
3.5941
3.7671
3.713
3.8048
3.9049
3.8512
3.8894
3.999
3.9616
4.1172
4.1663
