26.454
27.393
27.901
28.899
29.444
27.884
27.83
28.901
30.383
30.014
28.768
29.36
29.327
30.431
29.562
27.321
26.361
27.597
26.892
26.766
28.376
28.345
29.147
27.462
28.132
27.657
29.134
29.134
28.437
29.844
29.604
31.539
31.302
32.029
33.295
33.798
34.783
34.461
35.267
37.004
37.554
35.492
35.144
36.484
37.23
36.358
35.694
38.154
40.2
38.602
37.674
38.773
39.786
39.604
39.941
38.17
37.151
35.431
34.895
32.904
31.872
31.941
31.584
31.112
30.641
31.328
30.367
31.598
32.475
32.051
32.585
32.976
35.447
35.696
35.126
35.289
37.283
39.324
40.946
39.039
39.974
38.543
38.389
37.699
38.792
38.038
40.109
38.664
36.8
36.351
36.53
36.525
36.489
35.373
36.794
36.325
35.6
36.3
40.257
39.849
39.345
39.661
40.798
40.559
37.603
35.402
35.524
35.302
35.01
35.86
35.563
36.512
35.376
34.144
33.793
33.601
33.873
35.904
38.113
38.978
37.84
39.107
38.81
43.553
40.605
43.31
44.881
46.332
48.65
48.247
48.181
47.05
49.177
50.697
48.601
48.841
49.62
50.078
51.576
50.346
51.306
51.89
49.685
49.016
49.06
48.267
46.838
46.133
45.793
46.168
46.679
45.324
45.585
45.455
45.216
44.954
45.995
43.284
41.471
42.686
42.002
42.293
42.982
