0.12321
0.13086
0.099105
0.15396
0.15073
0.16682
0.16856
0.16619
0.16274
0.15351
0.13492
0.12243
0.11823
0.12138
0.13452
0.13253
0.12297
0.10583
0.10792
0.096041
0.085866
0.087207
0.08468
0.096888
0.085129
0.07567
0.062832
0.050137
0.050145
0.053187
0.06305
0.063074
0.056584
0.043729
0.039783
0.043473
0.058515
0.057173
0.058467
0.066378
0.061735
0.072216
0.087372
0.088518
0.096243
0.081783
0.070388
0.082524
0.081154
0.065196
0.057105
0.062701
0.069296
0.065992
0.061761
0.060147
0.067447
0.060304
0.053177
0.061231
0.056051
0.0672
0.081911
0.085357
0.09026
0.090026
