2.2003
2.4392
2.8411
2.7345
2.6719
2.8867
2.789
2.9218
3.2785
3.2184
3.6884
3.5403
3.5883
3.2416
3.5813
3.624
3.8177
3.5189
3.287
3.4678
3.325
3.841
3.6234
3.3337
3.1352
3.5081
3.1574
3.2869
3.4002
3.4974
3.5657
3.973
3.7162
3.6993
3.3079
3.5347
3.564
3.4852
3.7019
3.707
3.704
3.6799
3.7438
3.8455
4.1531
3.9489
3.8714
3.9674
4.0562
3.8664
3.8004
3.925
4.0531
4.1693
4.1241
4.2189
3.9836
4.1268
4.0838
4.1662
4.2675
4.1796
