19.965
19.769
20.264
20.899
22.042
22.749
22.161
22.02
21.393
21.401
21.688
21.016
20.66
20.355
20.848
20.348
19.702
19.477
19.788
20.072
20.268
20.879
20.854
19.812
21.229
21.065
21.469
19.797
19.874
21.444
22.237
21.925
22.007
22.602
22.398
21.69
21.237
24.225
23.403
22.04
21.031
21.086
22.096
22.152
21.769
22.465
21.802
22.082
20.093
20.694
21.767
22.887
22.917
23.013
22.577
21.999
21.228
22.937
23.96
20.825
20.662
20.309
20.347
20.972
19.049
20.297
21.336
21.343
20.708
21.492
22.314
24.168
24.838
24.014
23.676
22.802
22.749
22.925
23.472
23.537
23.987
23.546
23.533
23.424
23.303
23.423
23.333
22.712
22.355
22.115
20.505
22.101
22.608
23.14
22.275
21.625
21.629
22.062
23.158
23.119
22.6
21.691
19.429
18.123
20.913
22.036
21.278
20.315
19.673
20.522
20.248
23.143
22.122
20.846
20.59
