0.57932
0.55263
0.55205
0.60592
0.63587
0.61492
0.60174
0.62846
0.61295
0.57386
0.56574
0.55725
0.51191
0.5128
0.57825
0.54417
0.4891
0.4875
0.50841
0.52527
0.53849
0.55223
0.53761
0.52159
0.55991
0.55315
0.53783
0.49931
0.49495
0.53356
0.56983
0.55851
0.5802
0.59486
0.59282
0.55821
0.52908
0.60558
0.59723
0.57162
0.52893
0.54615
0.56018
0.57756
0.55832
0.55777
0.56722
0.56772
0.55377
0.56865
0.59911
0.61678
0.62005
0.62211
0.59641
0.58166
0.56316
0.62253
0.6679
0.54277
0.54373
0.51865
0.51391
0.50492
0.46915
0.53261
0.55337
0.55185
0.51756
0.53004
0.53047
0.56493
0.56097
0.59186
0.5952
0.54698
0.56593
0.60308
0.61291
0.64836
0.67504
0.70054
0.72442
0.7167
0.67904
0.65973
0.64389
0.65367
0.66516
0.65027
0.60114
0.6179
0.63473
0.64384
0.60805
0.59593
0.57321
0.56218
0.55604
0.56687
0.57611
0.53518
0.50481
0.45328
0.56177
0.63547
0.56484
0.54712
0.57011
0.53993
0.50468
0.54658
0.53506
0.52792
0.48291
