34.463
35.773
36.707
34.491
34.664
36.996
36.828
35.039
34.901
37.292
38.335
37.714
40.358
39.694
36.054
37.393
40.282
39.953
38.922
38.212
37.638
37.808
38.79
37.984
37.914
38.082
39.917
39.649
40.154
40.19
39.023
39.257
37.931
37.995
37.781
38.857
40.14
40.002
39.186
38.557
39.761
38.609
39.445
38.353
38.99
40.276
38.437
38.896
36.284
36.392
36.333
37.107
36.96
36.992
37.855
37.821
37.695
36.845
35.874
38.369
38
39.158
39.592
41.535
40.604
38.108
38.557
38.676
40.011
40.547
42.065
42.781
44.276
40.574
39.779
41.686
40.198
38.014
38.295
36.303
35.534
33.611
32.486
32.683
34.318
35.504
36.238
34.744
33.608
34.008
34.11
35.768
35.618
35.94
36.634
36.288
37.732
39.244
41.648
40.783
39.229
40.53
38.488
39.982
37.226
34.676
37.672
37.131
34.508
38.009
40.121
42.342
41.345
39.488
42.639
