3.9507
3.8964
3.9591
3.975
4.0327
4.0122
4.0324
4.0115
3.9808
3.9776
3.9419
3.9589
3.8899
4.0042
3.9943
4.0574
3.9665
4.0329
3.9197
3.8773
3.8055
3.93
3.9427
3.9595
3.9835
3.9393
3.9643
4.1325
4.1175
4.0332
3.9673
3.9916
4.039
