18.118
18.12
19.605
19.434
19.873
19.787
19.63
19.286
18.424
18.415
18.555
18.701
18.236
18.676
18.552
19.093
18.43
19.07
18.321
18.128
17.85
17.963
17.81
17.543
17.453
17.089
17.074
17.831
18.406
18.27
18.013
17.741
18.161
