0.16683
0.18625
0.15969
0.17938
0.1612
0.20079
0.24289
0.23095
0.24325
0.23494
0.23734
0.28844
0.24658
0.24895
0.28838
0.24721
0.249
0.25563
0.21942
0.21928
0.18693
0.2289
0.17998
0.1845
0.18838
0.22545
0.24774
0.24614
0.22287
0.22712
0.23611
0.24279
0.22535
0.21229
0.18002
0.17296
0.171
0.14526
0.073805
0.029578
0.023306
0.028582
0.046246
0.054039
0.019853
0.014987
0.018357
0.011777
0.0097067
0.024093
0.065021
0.040606
0.036427
0.040381
0.034487
0.05536
0.068196
0.047554
0.054721
0.038434
0.025409
0.060579
0.082371
0.07403
0.07516
0.075
0.070919
0.09663
0.090812
0.085027
0.11004
0.11817
0.088363
0.069408
0.055856
0.049509
0.077654
0.05897
0.05126
0.036377
0.040562
0.041437
0.046471
0.068881
0.069815
0.070159
0.065415
0.062725
0.062186
0.057349
0.045815
0.056812
0.050814
0.034423
0.017338
0.021166
0.027374
0.029141
0.028284
0.024109
0.026053
0.04085
0.038116
0.036798
0.026789
0.028678
0.040223
0.032335
0.024873
0.018872
0.027488
0.027637
0.034816
0.032283
0.037186
0.038305
0.048632
0.055846
0.046122
0.043242
0.038587
0.028024
0.017829
0.035223
0.034056
0.026205
0.022761
0.02424
0.026664
0.029885
0.024083
0.052514
0.052934
0.022176
0.043662
0.072263
0.072063
0.076718
0.077453
0.078434
0.076743
0.06345
0.062272
0.064452
0.078334
0.07429
0.091484
0.10425
0.099559
0.095562
0.084238
0.086589
0.074096
0.068422
0.076819
0.075137
0.073431
0.073176
0.067721
0.066131
0.072125
0.080838
0.08449
0.086472
0.082165
0.090059
0.095101
0.077529
0.088523
0.066067
0.054097
0.048387
0.054616
0.064925
0.0813
0.082861
0.081906
0.078274
0.09364
0.091197
0.075581
0.07121
0.061608
0.055368
0.039929
0.049345
0.048505
0.046595
0.02751
0.038211
0.038423
0.033283
0.033936
0.033145
0.03663
0.023098
0.016886
0.020794
0.01678
0.025765
0.021399
0.025111
0.023471
0.041361
0.063132
0.068768
0.065303
0.05493
0.071576
0.07415
0.059889
0.059997
0.066317
0.02627
0.043524
0.056613
0.046856
0.051688
0.066635
0.071735
0.047242
0.031633
0.031644
0.031749
0.05577
0.064302
0.067833
0.06643
0.052158
0.062818
0.067084
0.078487
0.050558
0.067521
0.048459
0.063132
0.062769
0.047163
0.048996
0.060679
0.048284
0.055467
0.054919
0.047938
0.031874
0.026176
0.037965
0.023865
0.017395
0.04331
0.046386
0.049379
0.052002
0.051571
0.053062
0.040358
0.030582
0.058717
0.053583
0.062337
0.064339
0.070895
0.075915
0.073889
0.072446
0.083387
0.10438
0.057759
0.10823
0.11659
0.10884
0.10936
0.11553
0.12807
0.12293
0.088426
0.064935
0.064063
0.082856
0.055352
0.052369
0.053603
0.043902
0.022119
0.028593
0.04036
0.014989
0.027713
0.027731
0.014686
0.022822
0.033518
0.03605
0.034962
0.071021
0.059253
0.052684
0.080556
0.086648
0.11592
0.10024
0.045579
0.062187
0.059959
0.089632
0.086332
0.051797
0.061991
0.077949
0.065078
0.098626
0.11922
0.10474
0.11382
0.13832
0.16691
0.15361
0.15337
0.15095
0.1572
0.20547
0.24064
0.22758
0.22613
0.21439
0.21696
0.21043
0.2149
0.21871
0.20745
0.23851
0.24256
0.24042
0.24527
0.26336
0.25568
0.22151
0.2258
0.22882
0.24211
0.20732
0.16781
0.18015
0.16383
0.12158
0.10325
0.11992
0.16154
0.14868
0.12999
0.12692
0.13416
0.13867
0.15011
0.17463
0.16522
0.17643
0.16953
0.17768
0.16278
0.17065
0.13837
0.11647
0.10457
0.10228
0.081305
0.11395
0.088867
0.075787
0.068587
0.052959
0.052118
0.057527
0.076005
0.086853
0.060406
0.061485
0.075702
0.067866
0.043943
0.063188
0.061556
0.072092
0.045885
0.084736
0.090893
0.10062
0.12419
0.12908
0.13531
0.13101
0.10241
0.088158
0.081728
0.077636
0.08319
0.050693
0.033471
0.058924
0.066548
0.074866
0.12194
0.1231
0.11493
0.14743
0.16399
0.14537
0.1306
0.12255
0.11051
0.12644
0.14467
0.15093
0.12376
0.13283
0.15422
0.16337
0.19471
0.18176
0.18215
0.14146
0.14587
0.13544
0.12927
0.11286
0.13404
0.15396
0.16681
0.14838
0.14892
0.1364
0.12399
0.1288
0.14301
0.1234
0.10303
0.063767
0.07101
0.08611
0.090096
0.079639
0.074262
0.090644
0.12502
0.1454
0.12784
0.097508
0.086603
0.081139
0.086239
0.054892
0.033248
0.027797
0.035691
0.033574
0.05278
0.084874
0.10099
0.0576
0.062398
0.06908
0.048254
0.059509
0.050379
0.06148
0.056167
0.057912
0.055885
0.055162
0.057732
0.065484
0.075042
0.098083
0.13256
0.10242
0.10101
0.10439
0.11107
0.108
0.065286
0.052984
0.054534
0.047441
0.065081
0.064099
0.039137
0.048669
0.053317
0.052888
0.029152
0.039713
0.052344
0.074254
0.080951
0.092219
0.07793
0.10867
0.094839
0.073317
0.090714
0.060484
0.057687
0.077496
0.088884
0.10117
0.063369
0.038056
0.056008
0.084082
0.068832
0.058581
0.08718
0.079234
0.052066
0.042448
0.059141
0.092533
0.093467
0.09331
0.087171
0.106
0.08488
0.10057
0.1243
0.069968
0.066751
0.080291
0.11314
0.1434
0.12321
0.16174
0.22206
0.21469
0.21719
0.21451
0.24039
0.22465
0.26301
0.27774
0.26996
0.24925
0.27735
0.30115
0.31648
0.33151
0.3266
0.33018
0.31187
0.29901
0.27887
0.23343
0.2145
0.19824
0.16738
0.15567
0.15838
0.11822
0.11026
0.11323
0.108
0.092011
0.080046
0.071317
0.086214
0.1413
0.11105
0.13542
0.18577
0.18234
0.197
0.20141
0.18116
0.18667
0.21009
0.23858
0.2484
0.23883
0.25733
0.27978
0.24148
0.2587
0.27269
0.26356
0.22989
0.24737
0.2425
0.2317
0.22062
0.21459
0.23606
0.24292
0.28126
0.26001
0.27443
0.26095
0.26704
0.2727
0.29887
0.31821
0.2991
0.27895
0.256
0.31097
0.31046
0.30921
0.29179
0.25356
0.24708
0.2639
0.22448
0.21685
0.21102
0.21278
0.23196
0.26903
0.26423
0.24766
0.28764
0.29971
0.30203
0.3153
0.31481
0.31547
0.32601
0.36192
0.37637
0.3752
0.34664
0.32933
0.33631
0.30759
0.2998
0.29262
0.28775
0.31193
0.35046
0.3321
0.32968
0.30098
0.29434
0.28305
0.29279
0.24129
0.25825
0.28911
0.25711
0.21364
0.21448
0.22046
0.21695
0.25507
0.2339
0.21608
0.2277
0.2285
0.21573
0.16841
0.20701
0.24531
0.24781
0.26791
0.25793
0.24451
0.29859
0.28034
0.28473
0.29409
0.32062
0.31912
0.31109
0.29502
0.28639
0.29173
0.29148
0.32454
0.30609
0.31305
0.32365
0.29058
0.27133
0.25722
0.24077
0.2415
0.22689
0.19549
0.1601
0.14377
0.14768
0.14079
0.14286
0.14463
0.11889
0.10909
0.10551
0.087135
0.075906
0.040977
0.05202
0.070816
0.081644
0.058674
0.04412
0.091085
0.087899
0.083844
0.077073
0.12491
0.14388
0.18239
0.20125
0.18264
0.17748
0.17151
0.15999
0.18289
0.21465
0.22
0.20056
0.18468
0.18523
0.17088
0.16564
0.18192
0.18095
0.15919
0.15917
0.16415
0.16747
0.1582
0.15358
0.15269
0.14683
0.13471
0.12316
0.13195
0.15092
0.14164
0.1562
0.14597
0.13102
0.1271
0.094916
0.10335
0.096062
0.070021
0.076064
0.097713
0.091369
0.042042
0.028422
0.029864
0.058179
0.083724
0.063522
0.069632
0.087965
0.066334
0.042423
0.060941
0.062046
0.1084
0.10853
0.12605
0.12233
0.12852
0.16233
0.19773
0.20481
0.20558
0.20759
0.22157
0.2462
0.29083
0.28477
0.2948
0.31732
0.28807
0.24829
0.27679
0.28253
0.2737
0.25791
0.25658
0.27002
0.26264
0.22738
0.2129
0.24638
0.27463
0.29412
0.33806
0.35379
0.35188
0.3286
0.29525
0.27824
0.25401
0.25899
0.26942
0.22285
0.2031
0.217
0.21532
0.17312
0.17374
0.22502
0.24436
0.2482
0.24213
0.26496
0.24806
0.26033
0.29521
0.29559
0.28449
0.24862
0.23193
0.2309
0.23657
0.25395
0.24677
