0.083827
0.080271
0.079797
0.077158
0.076455
0.074938
0.072992
0.071054
0.07196
0.072489
0.07176
0.073451
0.078113
0.079767
0.083371
0.08713
0.088876
0.094726
0.098879
0.09842
0.09872
0.099405
0.093188
0.088901
0.091947
0.095084
0.095491
0.094958
0.091799
0.090567
0.093639
0.093719
0.09318
0.099026
0.09844
0.099245
0.09323
0.10164
0.098674
0.095048
0.099052
0.099499
0.10064
0.1033
0.1039
0.10602
0.10764
0.10473
0.10769
0.10803
0.10389
0.10378
0.10694
0.10151
0.1019
0.10891
0.11448
0.11673
0.11669
0.11579
0.11499
0.11552
0.11057
0.11278
0.11079
0.10229
0.10027
0.10226
0.097856
0.099132
0.10605
0.10465
0.10629
0.10939
0.1059
0.10748
0.10833
0.11752
0.11749
0.13044
0.13762
0.1358
0.13854
0.14605
0.14724
0.14925
0.14803
0.15165
0.1508
0.13856
0.13775
0.13812
0.1388
0.14143
0.14234
0.13991
0.13506
0.12469
0.12702
0.12897
0.12135
0.11312
0.10982
0.11672
0.11903
0.11384
