18.055
17.393
17.039
15.975
16.958
16.278
16.538
17.418
16.218
15.445
16.026
17.197
18.288
17.882
18.154
18.939
18.861
20.146
19.931
19.583
19.748
20.24
19.178
18.685
18.062
17.659
18.885
20.553
21.704
20.096
20.851
20.346
19.971
20.842
20.496
20.79
20.873
20.771
19.635
18.51
18.817
18.613
18.297
18.82
18.873
19.854
20.109
19.53
20.85
20.787
20.458
20.215
21.853
22.055
21.587
22.936
23.672
23.824
24
23.48
22.469
22.661
21.806
22.074
21.597
20.489
21.029
20.609
19.999
19.518
19.327
19.152
18.642
19.346
18.029
16.453
15.411
17.952
19.358
21.335
22.275
22.21
22.275
22.91
22.792
23.022
23.2
23.188
23.118
23.355
23.253
23.298
23.593
23.024
23.399
23.42
24.436
23.54
24.866
24.669
24.759
22.177
22.212
22.71
22.27
21.512
