0.75117
0.83371
0.85907
1.0206
1.0127
0.94905
1.0109
1.0433
1.0172
1.0852
1.1111
1.1006
1.2127
1.356
1.3953
1.4121
1.3591
1.3295
1.2871
1.3858
1.3503
1.3951
1.3859
1.3761
1.3667
1.4459
1.3987
1.4744
1.365
1.2887
1.371
1.3595
1.3621
1.4876
1.3546
1.3423
1.2894
1.2104
1.3073
1.3875
1.3772
1.4977
1.4578
1.4592
1.5975
1.5266
1.6517
1.7215
1.7231
1.5689
1.505
1.6213
1.689
1.5252
1.4027
1.448
1.4896
1.43
1.53
1.4985
1.4244
1.4462
1.4191
1.4933
1.5983
1.6072
1.7633
1.7647
1.6358
1.6777
1.6535
1.6353
1.5832
1.49
1.7166
1.5037
1.7535
1.9056
1.9087
1.7396
1.7157
1.891
1.7929
1.6393
1.6665
1.7177
1.7004
1.6396
1.6648
1.6229
1.8261
1.9499
1.9923
1.9408
1.9657
1.9696
2.3866
2.2785
2.2281
2.0756
2.2536
2.6054
2.2958
2.1144
2.0656
2.4441
2.4931
2.4332
2.461
2.269
2.4121
2.282
2.2314
2.3102
2.2508
2.3773
2.413
2.4402
2.4562
2.349
2.458
2.4252
2.4441
2.2878
2.3688
2.3776
2.4034
2.384
2.4181
2.524
2.4029
2.3205
2.4006
2.4927
2.6432
2.6282
2.6928
2.9723
2.9438
2.9526
2.7875
2.8134
2.8219
2.8204
2.6052
2.7678
2.8507
2.787
2.8818
2.8676
2.9968
2.9521
2.6796
2.7163
2.6549
2.7212
2.8391
2.7119
2.8015
2.8823
2.9489
2.962
2.8772
2.7782
2.758
2.7952
2.7413
2.6021
2.6724
2.4904
2.5769
2.6459
2.8353
2.5838
2.5994
2.674
2.8126
3.0192
2.8921
2.8931
2.8941
2.858
2.9825
3.0639
3.0646
3.0238
2.8634
2.732
2.8851
3.0368
2.9839
3.0537
3.0088
2.9483
3.0422
2.9191
3.0389
3.0703
3.2378
3.2719
3.1771
2.969
2.9108
2.8303
2.9208
2.6578
2.6507
2.5701
2.7297
2.8008
2.915
2.9501
2.8213
2.7711
2.9381
2.8341
2.7782
2.7384
2.7954
2.7344
2.6725
2.6102
2.6819
2.8059
2.8637
2.9395
2.9833
2.9638
2.8872
2.7156
2.7867
2.7346
2.8333
2.8943
2.7488
2.8233
2.8747
2.8952
2.7563
2.874
2.8652
2.8345
2.7382
2.8625
2.7919
2.7668
2.6777
2.6777
2.7422
2.8235
2.9368
2.971
2.7937
2.8165
3.0255
3.2075
3.0502
2.8342
2.7392
2.9276
2.8627
2.8906
3.0505
3.3061
3.312
3.2897
3.3268
3.4363
3.3706
3.3139
3.2974
3.3247
3.2696
3.1609
3.2409
3.2338
3.2094
3.2399
3.4358
3.4912
3.3743
3.3529
3.3013
3.0878
3.1063
2.9653
2.9469
3.0992
3.1302
3.2712
3.0347
3.0831
2.7689
2.872
2.7984
2.8678
2.8969
2.9552
2.8074
2.8416
2.9946
2.8954
2.9386
3.0061
2.9587
2.9111
2.9392
2.8795
2.9379
3.1146
3.201
3.0652
3.1542
3.2961
3.3997
3.4116
3.311
3.2805
3.3843
3.5516
3.6864
3.3591
3.5585
3.7334
3.6464
3.5711
3.5215
3.4841
3.5377
3.6764
3.7712
3.8573
3.9602
3.7603
3.6768
3.6837
3.6733
3.6785
3.6924
3.7481
3.7012
3.6775
3.8562
3.9031
3.9735
4.0049
3.7671
3.7059
3.7098
3.6367
3.5054
3.6054
3.7711
3.6354
3.6887
3.4791
3.414
3.4926
3.5623
3.5331
3.4476
3.3381
3.2929
3.2987
3.261
3.3974
3.1587
3.1595
3.1125
3.1547
3.2162
3.3546
3.2415
3.1195
3.0244
3.2159
3.1657
3.1807
3.1771
3.1874
3.3713
3.3318
3.4564
3.431
3.3881
3.1235
3.092
3.05
3.1461
3.1818
3.2835
3.094
3.3009
3.2597
3.2891
3.3957
3.3871
3.4354
3.3542
3.3396
3.4322
3.3989
3.51
3.4475
3.581
3.4683
3.2684
3.1889
3.233
3.2217
3.2281
3.3698
3.4554
3.5629
3.3774
3.3567
3.4907
3.4567
3.3123
3.3085
3.4427
3.3824
3.1448
3.1552
3.2131
3.2249
3.1195
3.0557
3.0748
3.1298
3.3752
3.2798
3.2882
3.4372
3.496
3.3721
3.2589
3.3572
3.2838
3.214
3.3189
3.3417
3.3085
3.3493
3.2957
3.3614
3.5813
3.5505
3.6603
3.492
3.4761
3.4941
3.3942
3.3253
3.4966
3.2992
3.2953
3.2439
3.1049
