0.10392
0.10204
0.10162
0.098878
0.10498
0.10427
0.10614
0.12072
0.12815
0.12109
0.12596
0.12529
0.12071
0.1146
0.11084
0.11812
0.11175
0.12137
0.11977
0.12415
0.12538
0.1222
0.12205
0.11834
0.11733
0.11402
0.10964
0.11373
0.1054
0.096465
0.091982
0.091281
0.088328
0.09832
0.10798
0.12394
0.1177
0.12377
0.12704
0.12216
0.12096
0.11246
0.094552
0.098713
0.09839
0.09067
0.093616
0.096363
0.10278
0.098662
0.10648
0.094765
0.10917
0.10929
0.12308
0.12487
0.11639
0.11329
0.11255
0.12115
0.13126
0.1312
0.13378
