35.186
34.114
34.788
36.534
35.776
36.561
36.258
33.141
31.696
33.678
31.323
30.924
31.156
32.033
33.947
33.134
32.954
31.599
31.678
31.212
31.509
33.091
33.134
32.77
32.494
33.138
33.047
32.883
33.913
35.885
33.882
34.596
35.976
33.878
33.183
31.195
31.421
30.874
29.657
30.439
30.366
32.056
35.655
35.33
35.409
37.01
36.225
35.815
34.856
34.69
33.339
36.544
33.038
34.305
32.529
30.852
32.116
33.538
33.003
31.861
30.79
30.397
28.94
