0.038156,0.031433,0.065741,0.1449,0.078965,0.077527,0.044994,2.0697e-10
0.053167,0.02976,0.085293,0.08557,0.081864,0.022953,0.041407,0.0023018
0.042669,0.0022691,0.099232,0.2209,0.1037,0.042691,0.016534,0.037894
0.048005,2.1157e-10,0.057197,0.12086,0.086017,0.045469,2.1258e-10,0.038196
0.026995,0.0087273,0.027396,0.15448,0.092362,0.058836,0.021928,0.033866
0.029576,2.1157e-10,0.0039074,0.16882,0.13558,0.056873,0.04113,0.042282
0.041054,2.1157e-10,0.031405,0.14054,0.14638,0.061702,0.040839,0.07655
0.047702,2.1157e-10,0.039089,0.15441,0.18344,0.078705,0.027571,0.080952
0.052115,2.1157e-10,8.748e-05,0.18452,0.17009,0.12554,0.0076983,0.068767
0.048899,1.4546e-05,8.748e-05,0.14329,0.20806,0.094851,0.032324,0.061171
0.04277,2.1157e-10,5.832e-05,0.11804,0.2114,0.092247,0.072944,0.052971
0.044212,2.9091e-05,0.0001458,0.12031,0.21404,0.10292,0.054267,0.059286
0.052922,2.1157e-10,2.1258e-10,0.11198,0.19115,0.10641,0.024363,0.069328
0.088252,2.1157e-10,0.032047,0.10283,0.20147,0.097091,0.030166,0.030643
0.032272,0.00074182,0.030778,0.054798,0.30422,0.089367,0.031551,0.036959
0.0087819,0.063447,0.0083835,0.0183,0.26365,0.12505,0.019275,0.017105
0.056556,0.035549,0.03228,0.0016113,0.21221,0.18029,0.038345,2.0697e-10
0.034955,2.1157e-10,0.11663,0.0057977,0.16986,0.15159,0.075976,2.0697e-10
0.032575,2.1157e-10,0.080482,0.071702,0.13742,0.12202,0.078105,0.018069
2.0794e-10,0.0031418,0.063846,0.095094,0.16145,0.078851,0.098838,0.039361
0.011248,2.1157e-10,0.039366,0.08055,0.1624,0.060975,0.09286,0.027305
0.049404,2.1157e-10,0.033899,0.14395,0.14299,0.044175,0.055273,0.04526
0.021414,0.050356,0.030574,0.15526,0.14347,0.064931,0.080103,0.032787
2.0794e-10,0.086647,0.016155,0.15345,0.16443,0.031913,0.097307,0.026888
2.0794e-10,0.098356,0.010031,0.1608,0.18001,2.1157e-10,0.11149,0.011452
2.0794e-10,0.040218,0.0658,0.16752,0.14915,0.00040727,0.11985,0.024385
2.0794e-10,0.030982,0.11028,0.15352,0.12361,2.1157e-10,0.073454,0.037103
0.047918,0.045178,0.15561,0.084664,0.17355,0.02224,0.081896,0.038944
0.031984,0.0034327,0.13782,0.055431,0.10303,0.082211,0.087393,0.03985
0.059094,0.02624,0.0566,0.11242,0.093097,0.077484,0.061265,0.087728
0.017924,0.0039855,0.051803,0.12,0.048567,0.063636,0.055462,0.12912
0.032258,0.029935,0.059064,0.083743,0.046246,0.039956,0.070319,0.12004
0.01902,0.042487,0.077799,0.06917,0.035748,0.032335,0.060872,0.13951
0.059599,0.00544,0.099509,0.066839,2.8841e-05,0.044567,0.11212,0.10439
0.1368,0.035476,0.05157,0.058438,1.442e-05,0.042909,0.070844,0.10665
0.10755,0.043345,0.034613,0.091224,0.026129,0.046735,0.087801,0.12433
0.10469,0.0018764,0.02518,0.018371,0.049476,0.074967,0.062592,0.20173
0.16135,0.00010182,0.056833,8.6319e-05,0.0429,0.08848,0.045417,0.16553
0.13595,0.0031273,0.0347,0.00010071,0.04551,0.11997,0.046321,0.092246
0.1214,0.029309,0.0031639,8.6319e-05,0.048827,0.12307,0.04842,0.098101
0.10384,0.022313,0.001283,0.00025896,0.068424,0.13599,0.047108,0.11331
0.10856,0.052116,0.0013268,0.0002158,0.048337,0.076233,0.031653,0.14335
0.066247,0.070022,0.0015017,0.0025896,0.061791,0.036131,0.063977,0.13092
0.089117,0.096815,0.021141,0.0009495,0.10149,0.00048,0.12031,0.084851
0.032806,0.04016,0.089055,0.0003165,0.10485,0.0022691,0.091286,0.11964
0.0095606,0.0092655,0.095557,0.01922,0.099586,2.9091e-05,0.10619,0.15238
0.0028119,1.4546e-05,0.054398,0.063343,0.098029,2.1157e-10,0.1047,0.12702
2.8841e-05,5.8182e-05,0.0017642,0.019954,0.13855,0.036989,0.066252,0.12528
2.0794e-10,0.00011636,0.0013268,0.020299,0.058561,0.016189,0.058174,0.14676
2.0794e-10,8.7273e-05,0.0015746,0.060596,0.091568,0.0039709,0.065727,0.12375
2.0794e-10,0.03968,0.0019537,0.084017,0.066564,0.027113,0.11349,0.12135
2.8841e-05,0.055622,0.0092437,0.065645,0.06006,0.015447,0.087218,0.14156
4.3261e-05,0.045222,0.0016038,0.092562,0.057609,0.019185,0.069343,0.13909
5.7681e-05,0.042022,0.0019683,0.09039,0.050788,1.4546e-05,0.053567,0.14726
0.0020765,0.083345,0.0019537,0.12664,0.097365,5.8182e-05,0.045621,0.17107
0.0053355,0.087491,0.002012,0.1616,0.10067,0.00018909,0.020616,0.20203
0.014608,0.090051,0.0019537,0.14094,0.056037,0.014662,0.0054529,0.23083
0.022438,0.069993,0.0021287,0.14878,0.084531,0.0065018,2.1258e-10,0.22538
0.061502,0.071636,0.0024057,0.12994,0.039367,5.8182e-05,1.458e-05,0.1574
0.10546,0.054618,0.0024203,0.11129,0.055013,5.8182e-05,2.1258e-10,0.16386
0.1606,0.062255,0.0028431,0.1442,0.03471,2.9091e-05,2.1258e-10,0.16609
0.17919,0.0010036,0.014259,0.13246,0.030311,2.9091e-05,1.458e-05,0.19095
0.13228,0.027011,0.069168,0.066192,0.073038,4.3637e-05,2.1258e-10,0.21055
0.085036,0.0088582,0.050286,0.060164,0.17163,0.00011636,2.1258e-10,0.24558
0.10221,0.052975,0.006561,0.085038,0.23168,0.0068945,2.1258e-10,0.27911
0.15792,0.00192,0.0032805,0.14309,0.10662,0.041556,1.458e-05,0.29551
0.039266,0.0016291,0.0033242,0.13236,0.074019,0.047985,0.02639,0.31034
0.067559,0.0019345,0.0040824,0.12598,0.024572,0.1216,0.063452,0.24303
0.034738,0.00208,0.004374,0.15927,0.02698,0.13092,0.064604,0.286
0.0035618,0.0020073,0.0046948,0.068666,0.080465,0.084727,0.18194,0.27589
0.002437,0.0025745,0.0049426,0.065962,0.10504,0.069149,0.16267,0.28482
0.032388,0.0026036,0.0043157,0.061847,0.097957,0.082618,0.14666,0.33879
0.067184,0.0033164,0.0052342,0.071026,0.096587,0.088698,0.11751,0.24299
0.088511,0.0036073,0.0043886,0.063919,0.068655,0.15069,0.059457,0.25509
0.13627,0.029484,0.0046073,0.061991,0.086478,0.1208,0.097395,0.18039
0.14387,0.0039564,0.0067651,0.12146,0.10745,0.086487,0.10624,0.19725
0.13151,0.0045527,0.0087043,0.17238,0.12997,0.083927,0.11985,0.16146
0.11954,0.037775,0.015761,0.20052,0.13662,0.068116,0.12559,0.14117
0.16194,0.040204,0.0053071,0.17736,0.11998,0.086284,0.13997,0.13118
0.17286,0.066356,0.0059778,0.17315,0.18482,0.075709,0.14567,0.090778
0.15895,0.045775,0.022803,0.12539,0.1573,0.096131,0.15539,0.039764
0.1135,0.032364,0.026579,0.069573,0.14955,0.129,0.18785,0.018717
0.062497,0.095971,0.044936,0.08734,0.19671,0.16167,0.23414,0.0022443
0.048351,0.16298,0.056148,0.084995,0.16916,0.20618,0.19501,0.0065027
0.0042395,0.18566,0.22506,0.0062581,0.16161,0.1998,0.15302,0.0042296
0.0022928,0.24762,0.18512,0.0028197,0.19731,0.2113,0.15974,0.0088908
0.031825,0.24916,0.17837,0.0032226,0.25182,0.2209,0.14599,0.0028341
0.068842,0.16211,0.19813,0.0036254,0.24343,0.11673,0.19997,0.0081283
0.066506,0.11676,0.22068,0.048612,0.201,0.13795,0.17146,0.075356
0.057753,0.080611,0.13398,0.12568,0.18471,0.11364,0.2236,0.082736
0.048236,0.089396,0.13871,0.11463,0.22162,0.082822,0.21911,0.09905
0.031422,0.076684,0.070917,0.081139,0.23169,0.050298,0.24509,0.11968
0.075576,0.022647,0.095033,0.090375,0.19774,0.055985,0.2436,0.089958
0.071481,0.022385,0.0073921,0.16884,0.16919,0.083942,0.26766,0.1021
0.079167,0.028175,0.010264,0.22043,0.24898,0.10135,0.27652,0.14033
0.054191,0.041993,0.0086897,0.14263,0.28343,0.10086,0.2582,0.18131
0.031479,0.052989,0.013939,0.21528,0.32956,0.052378,0.30277,0.14421
0.054609,0.037585,0.037806,0.27054,0.31911,0.047724,0.32019,0.079917
0.051985,0.010647,0.056439,0.29301,0.31674,0.043084,0.31846,0.085829
0.002884,0.0046545,0.070392,0.33227,0.30569,0.036262,0.32499,0.063732
0.019352,0.042385,0.065493,0.25868,0.2721,0.034182,0.30937,0.080406
0.0036339,0.039418,0.065843,0.34466,0.25654,0.030647,0.28032,0.07514
0.0027398,0.054182,0.10678,0.30283,0.18361,0.027433,0.29727,0.061229
0.0025956,0.0042327,0.22264,0.1872,0.18668,0.02592,0.31971,0.066998
0.0024659,0.01504,0.17114,0.18501,0.21505,0.023869,0.4139,0.055647
0.0024803,0.068204,0.071952,0.22823,0.26264,0.026342,0.40083,0.0633
0.0026389,0.059913,0.085497,0.32427,0.23799,0.049396,0.38815,0.08078
0.0026101,0.073338,0.072463,0.28855,0.17617,0.043011,0.36352,0.09144
0.0025524,0.0035782,0.018517,0.30045,0.286,0.0043927,0.28419,0.10423
0.002437,0.0039127,0.006561,0.24722,0.16913,0.0034473,0.23652,0.10495
0.0023361,0.0036945,0.050184,0.32758,0.1184,0.0022545,0.29491,0.060639
0.013122,0.0037673,0.049791,0.31782,0.078951,0.00288,0.25503,0.069918
0.04975,0.0037673,0.096709,0.34516,0.060925,0.0023127,0.22942,0.061862
0.0063882,0.0035782,0.11378,0.35274,0.034493,0.0034618,0.26544,0.10449
0.0021919,0.0037091,0.15084,0.31151,0.0010959,0.020887,0.25495,0.11406
0.011536,0.0037091,0.20204,0.28328,0.045972,0.028073,0.23867,0.12493
0.056239,0.0041455,0.1679,0.23785,0.046188,0.059927,0.23381,0.03916
0.057883,0.0050618,0.18524,0.19177,0.094395,0.062429,0.23621,0.029435
0.0085224,0.052727,0.21278,0.15524,0.097654,0.02848,0.23445,0.02322
0.0022063,0.062967,0.24012,0.18856,0.1365,0.073702,0.22415,0.0039563
0.0023361,0.044247,0.23322,0.24894,0.15792,0.067535,0.22542,0.00070493
0.0023793,0.0041309,0.21503,0.29935,0.13907,0.027724,0.20005,0.00069055
0.0023938,0.0039273,0.23605,0.30476,0.20785,0.0018036,0.19212,0.0083441
0.0023361,0.0070691,0.18317,0.34361,0.18154,0.0016873,0.18928,0.033535
0.0027398,0.053993,0.15639,0.32033,0.1858,0.0058473,0.19075,0.041318
0.0025091,0.12022,0.067957,0.30196,0.14926,0.055869,0.18415,0.068738
0.00398,0.157,0.070349,0.29868,0.16312,0.048276,0.18275,0.12769
0.023318,0.0816,0.073979,0.31315,0.18484,0.064145,0.18903,0.13637
0.072591,0.038778,0.040649,0.25291,0.13804,0.12625,0.15991,0.17084
0.082455,0.06784,0.012218,0.22502,0.17141,0.11981,0.19028,0.17003
0.089189,0.061513,0.055419,0.15461,0.19692,0.15631,0.17691,0.1799
0.082902,0.053338,0.0066048,0.086966,0.25922,0.12797,0.1775,0.13703
0.080191,0.028785,0.0066048,0.013005,0.34821,0.12995,0.1615,0.17544
0.055777,0.03456,0.0066193,0.018774,0.35487,0.056465,0.32519,0.078953
0.033311,0.056,0.006561,0.024284,0.32042,0.073295,0.29584,0.092404
0.054869,0.052975,0.017088,0.038225,0.30402,0.049731,0.29632,0.095281
0.043044,0.058662,0.073265,0.051446,0.19425,0.15574,0.21708,0.10788
0.064516,0.064073,0.059239,0.066379,0.17894,0.13921,0.24247,0.13105
0.12971,0.0057455,0.0068964,0.13552,0.16566,0.16497,0.1714,0.19528
0.15013,0.0053673,0.0065756,0.14307,0.1088,0.185,0.17511,0.17911
0.11594,0.0054545,0.0066777,0.14329,0.14162,0.176,0.20002,0.15621
0.11489,0.0055709,0.0070422,0.21063,0.13923,0.17667,0.21589,0.15736
0.16697,0.0057018,0.040343,0.17081,0.14391,0.22108,0.1662,0.14699
0.19075,0.016669,0.047925,0.12181,0.15101,0.1913,0.15103,0.10006
0.22286,0.057789,0.0065027,0.094145,0.20462,0.17152,0.11838,0.088318
0.27773,0.07072,0.073177,0.082794,0.20514,0.19825,0.13202,0.062696
0.33105,0.059709,0.0063569,0.079499,0.22533,0.18556,0.12976,0.045936
0.32673,0.03952,0.0065319,0.12601,0.11206,0.21591,0.1478,0.065645
0.30045,0.054036,0.0069693,0.13023,0.13329,0.20675,0.1676,0.054079
0.31364,0.081833,0.0066339,0.080981,0.1664,0.20179,0.12265,0.09964
0.29047,0.17047,0.0076254,0.064768,0.18102,0.16541,0.12553,0.02309
0.2692,0.18583,0.014711,0.058136,0.097221,0.17606,0.19262,0.019292
0.28859,0.25498,0.047298,0.040455,0.095765,0.16666,0.1338,0.06425
0.30001,0.27085,0.052969,0.037261,0.098346,0.12556,0.13717,0.08383
0.30288,0.23146,0.065785,0.05556,0.088886,0.11379,0.15452,0.11046
0.33071,0.18716,0.12292,0.019738,0.09079,0.10996,0.15204,0.092692
0.2605,0.20119,0.12577,0.012286,0.096558,0.091098,0.17346,0.10762
0.20882,0.1863,0.12129,0.059229,0.13117,0.022604,0.21778,0.11734
0.18232,0.18768,0.085483,0.10892,0.12064,0.023389,0.17321,0.17625
0.17636,0.18516,0.090192,0.083312,0.12446,0.022749,0.10839,0.23869
0.13631,0.16487,0.099596,0.11473,0.16563,0.021207,0.080132,0.27898
0.11486,0.19277,0.11196,0.08934,0.19101,0.019316,0.075685,0.27986
0.10675,0.20865,0.10272,0.099856,0.23521,0.028916,0.081225,0.28127
0.23405,0.20314,0.11613,0.13559,0.27194,0.016669,0.077434,0.30033
0.23423,0.17782,0.091825,0.14398,0.26662,0.01168,0.053684,0.33202
0.23776,0.15798,0.078951,0.068724,0.23832,0.0065309,0.051482,0.29485
0.26742,0.16001,0.07376,0.058754,0.24941,0.0035055,0.062213,0.27408
0.29847,0.21929,0.045869,0.092735,0.26685,0.050996,0.075831,0.24543
0.34247,0.12657,0.014522,0.10702,0.22891,0.12666,0.062636,0.17642
0.32079,0.19693,0.0054821,0.14094,0.23648,0.045818,0.097628,0.29256
0.29962,0.17257,0.0057591,0.13899,0.27088,0.00056727,0.14901,0.28206
0.36659,0.11456,0.0059486,0.13702,0.2544,0.00048,0.074912,0.23943
0.37344,0.15552,0.0056862,0.087153,0.27533,0.043709,0.028096,0.25314
0.40703,0.12511,0.005657,0.070752,0.21144,0.10675,0.060828,0.23198
0.39465,0.10723,0.0054821,0.14368,0.22219,0.12585,0.029933,0.25264
0.37392,0.16214,0.017569,0.12781,0.22064,0.1425,1.458e-05,0.22758
0.32652,0.18009,0.088967,0.12323,0.26533,0.13808,0.058553,0.18061
0.31011,0.21073,0.0062694,0.16772,0.2284,0.10759,0.062198,0.19161
0.26063,0.23073,0.0058903,0.13007,0.25116,0.11066,0.025428,0.18826
0.26011,0.32676,0.093414,0.046008,0.30128,0.11255,4.374e-05,0.24415
0.2432,0.32473,0.13887,0.004618,0.28399,0.076247,7.29e-05,0.1922
0.24026,0.2854,0.14638,0.0073083,0.25729,0.090153,4.374e-05,0.20089
0.2491,0.30807,0.16433,0.0080132,0.25237,0.12449,1.458e-05,0.17311
0.27994,0.19987,0.17772,0.016444,0.24026,0.098865,0.001283,0.15999
0.28076,0.20607,0.12915,0.11358,0.1625,0.044902,0.06214,0.15967
0.29002,0.21732,0.1168,0.026054,0.21692,0.077411,0.06959,0.10417
0.2743,0.21715,0.10022,0.014689,0.20733,0.021513,0.088501,0.057589
0.3154,0.21546,0.074504,0.017868,0.21972,0.083258,0.0347,0.084995
0.3686,0.17401,0.14828,0.031837,0.26927,0.096029,0.012553,0.09262
0.29445,0.16298,0.12429,0.09144,0.23106,0.10477,0.079811,0.087009
0.26999,0.15841,0.053727,0.032355,0.22745,0.056742,0.12552,0.075845
0.27029,0.16252,0.055346,0.019983,0.23896,0.067695,0.099859,0.078708
0.3243,0.18097,0.05469,0.0024169,0.23182,0.097862,0.048639,0.11957
0.20322,0.19866,0.052984,0.0020429,0.19029,0.14247,1.458e-05,0.14707
0.20317,0.25306,0.038083,0.0021004,0.20607,0.16502,2.1258e-10,0.10574
0.19554,0.28906,0.046627,0.012444,0.21498,0.14305,0.0024203,0.084117
0.18265,0.23168,0.06803,0.0043735,0.23889,0.1287,0.040605,0.13979
0.17701,0.19565,0.063627,0.072321,0.25534,0.073905,0.058947,0.10678
0.16507,0.18684,0.077945,0.087196,0.22389,0.062633,0.065391,0.0837
0.20386,0.1953,0.10839,0.002345,0.20389,0.027869,0.054019,0.080247
0.23189,0.25393,0.060697,0.046871,0.23362,0.024189,0.056541,0.080334
0.2149,0.33005,0.05122,0.095181,0.27186,0.024087,0.020091,0.16272
0.24562,0.31811,0.055492,0.11941,0.2602,0.032655,5.832e-05,0.14345
0.32515,0.26764,0.027964,0.11347,0.20012,0.056713,1.458e-05,0.15552
0.34089,0.30675,0.009652,0.10531,0.17549,0.058444,4.374e-05,0.13027
0.34446,0.33684,0.06214,0.053805,0.16869,0.060204,1.458e-05,0.096677
0.30399,0.33533,0.071515,0.010675,0.2224,0.057047,2.1258e-10,0.098389
0.30826,0.38794,0.024874,0.0023018,0.20729,0.061789,0.064808,0.041217
0.29459,0.41507,0.0198,0.0025176,0.15326,0.045425,0.10519,0.01079
0.27426,0.39104,0.06927,0.002345,0.19381,0.083985,0.098342,0.01594
0.27244,0.37859,0.066689,0.0021867,0.19304,0.050153,0.092773,0.049691
0.24089,0.37815,0.047254,0.0071788,0.19231,0.063142,0.081765,0.069889
0.23786,0.36499,0.0059486,0.04982,0.2294,0.050764,0.050359,0.10571
0.29574,0.40217,0.038856,0.044267,0.19935,0.049178,0.05224,0.10338
0.3872,0.34431,0.0057737,0.0056682,0.2172,0.044669,0.053494,0.10059
0.39967,0.32115,0.0055112,0.016415,0.20322,0.033265,0.092306,0.051
0.44948,0.29455,0.0056133,0.011336,0.16553,0.032887,0.063642,0.15498
0.46514,0.31136,0.0056133,0.021536,0.13897,0.064029,0.013953,0.13755
0.46488,0.34762,0.0057299,0.034571,0.19185,0.1241,0.0037179,0.14473
0.41992,0.33968,0.0060507,0.074766,0.17358,0.17741,0.073658,0.10857
0.42336,0.328,0.0072171,0.05838,0.22093,0.068669,0.051351,0.1103
0.38423,0.37111,0.058189,0.0038987,0.19851,0.05104,0.051555,0.10233
0.34822,0.34836,0.079009,0.0026327,0.19032,0.049411,0.020514,0.1206
0.35265,0.35251,0.091358,0.0026471,0.23661,0.024698,0.011241,0.14094
0.33978,0.32303,0.11056,0.0023594,0.2343,0.013804,0.0011664,0.11824
0.31187,0.34468,0.12801,0.0023162,0.26799,0.0084364,5.832e-05,0.13756
0.32805,0.31917,0.15287,0.0026183,0.28626,0.0019491,1.458e-05,0.15088
0.35174,0.30298,0.21195,0.056107,0.26491,0.0018764,2.916e-05,0.15721
0.35552,0.30432,0.15595,0.0026039,0.25528,0.022836,4.374e-05,0.16665
0.33888,0.31846,0.10098,0.06179,0.23567,0.063884,0.0026681,0.18553
0.35066,0.31325,0.10772,0.060883,0.22491,0.10912,0.030968,0.16211
0.34035,0.32752,0.11647,0.0036973,0.29598,0.08592,0.034365,0.13021
0.34467,0.35343,0.14062,0.0022587,0.27458,0.091098,0.09146,0.070882
0.34107,0.38362,0.17761,0.0021867,0.27047,0.080305,0.077026,0.088117
0.32816,0.29855,0.17155,0.0020141,0.29116,0.11274,0.091694,0.086793
0.2929,0.30321,0.12647,0.0019997,0.30714,0.15296,0.045781,0.11364
0.31145,0.29632,0.11397,0.0020141,0.27335,0.20559,0.039803,0.074824
0.30854,0.36733,0.061892,0.023105,0.28271,0.22646,0.055273,0.06143
0.32665,0.38262,0.023867,0.052093,0.28366,0.24044,0.060959,0.064135
0.34461,0.34207,0.025048,0.044655,0.31849,0.24121,0.11091,0.0027766
0.30679,0.33769,0.12241,0.038613,0.32898,0.20627,0.1288,0.052122
0.3077,0.34144,0.030924,0.009941,0.32722,0.25126,0.061163,0.058265
0.31096,0.37604,0.034584,0.0026039,0.35445,0.32544,0.05294,0.058351
0.3142,0.37444,0.046364,0.014962,0.37223,0.39926,0.0059486,0.090232
0.27169,0.2944,0.038083,0.023047,0.35673,0.4327,0.077332,0.11344
0.24974,0.30237,0.023795,0.023565,0.3725,0.45751,0.059866,0.066854
0.2248,0.30407,0.011883,0.041749,0.34095,0.37667,0.065931,0.043634
0.24252,0.29412,0.006838,0.055647,0.41432,0.33044,0.11719,0.051417
