0.27991
0.57468
0.58372
0.72011
0.68745
0.60086
0.4958
0.38427
0.39657
0.28253
0.32816
0.30465
0.20995
0.20361
0.21677
0.23704
0.17911
0.15435
0.17275
0.1256
0.10479
0.10499
0.093697
0.1075
0.12243
0.12841
