0.10187
0.10128
0.093923
0.090533
0.086172
0.085775
0.078395
0.083928
0.09687
0.10011
0.094378
0.090215
0.093098
0.086426
0.085349
0.089872
0.096915
0.082061
0.083755
0.079611
0.085202
0.083305
0.089708
0.095718
