2.7402
2.845
3.2794
3.456
3.3365
3.4905
3.6307
3.0875
3.0063
3.199
3.1556
3.225
3.198
3.1195
3.3105
3.2307
3.2343
3.3118
3.5807
3.7628
3.8544
3.9523
3.8834
3.8653
3.7762
3.5043
3.5231
3.629
3.7253
3.7252
3.6314
3.4748
3.5352
3.4541
3.5162
3.5778
3.8442
3.984
4.07
4.1906
3.8153
3.9655
3.9623
3.7428
3.7692
4.0004
4.1481
4.0397
4.1521
4.2939
4.2833
4.2944
4.1559
3.8395
3.8522
4.0245
4.133
4.1421
4.0369
4.1744
4.4391
4.3455
4.3187
4.0727
3.9117
4.0189
3.7923
3.754
3.827
4.0058
3.8233
4.0843
4.2407
4.3217
4.0955
4.1004
4.0427
4.2361
4.0044
3.9781
4.1707
3.8821
3.8269
4.1846
3.8664
3.8875
4.0662
4.1459
4.0807
3.6486
3.4982
3.684
3.543
3.5621
4.1199
4.002
3.9935
3.7587
3.8435
3.9669
3.8886
4.1422
4.0419
3.8025
3.9255
3.8374
3.8582
3.9362
4.068
3.8894
3.9568
3.6474
3.7748
3.9514
4.0177
3.8995
3.8109
4.103
3.8047
3.8853
3.9224
3.8433
4.0487
4.1026
3.9352
4.0142
4.0642
4.1683
4.1463
4.0681
4.0705
3.8143
3.7448
3.868
3.7346
3.6156
3.7888
3.7879
3.8937
4.2334
4.2303
4.2908
4.1409
4.2658
4.3319
4.3043
4.2351
4.4302
3.9964
4.1307
4.1242
3.9392
3.9399
4.1153
3.9783
3.7505
4.2107
4.2571
3.9937
4.0829
3.9593
4.0037
3.9205
3.8705
3.9358
3.786
3.7475
4.0882
3.9193
4.0004
3.8646
3.8001
3.7888
4.2407
3.9586
3.8444
3.8656
3.7385
4.0537
3.8594
3.9291
4.2452
4.4777
4.2911
4.3697
4.3812
4.497
4.3939
4.2211
3.9547
3.8814
3.6738
3.7221
3.7091
3.7643
4.0349
4.054
3.9623
3.977
4.0064
4.0011
3.9425
3.8752
3.9082
3.8465
3.8288
3.8876
4.1141
4.3046
4.1695
4.0237
4.0735
3.981
3.8904
3.8155
3.673
3.5796
3.5726
3.6278
3.735
3.7646
3.7362
4.07
3.8795
4.0201
4.0486
4.0201
4.1373
4.0519
3.9219
3.8913
3.9576
3.8405
3.7515
3.5617
3.6218
3.7399
3.6312
3.7239
3.8799
3.7946
3.7526
3.6634
3.637
3.8245
3.8532
3.6951
3.4876
3.3617
3.2981
3.3642
3.5386
3.5837
3.9184
4.0481
4.0588
4.0628
4.2781
4.1782
4.2746
4.2461
4.2863
4.2901
4.3251
4.5266
4.4564
4.4548
4.5495
4.415
4.5619
4.6805
4.5477
4.372
4.4342
4.5159
4.2641
4.3392
4.2801
4.326
4.2142
4.1874
