13.575
14.005
14.417
12.955
12.714
13.004
12.948
13.1
11.894
12.395
13.413
14.093
14.028
14.559
14.419
14.231
14.189
13.918
14.03
14.346
14.244
14.466
14.199
13.633
13.726
13.259
13.192
12.36
12.132
11.276
11.241
11.616
10.754
10.586
10.312
10.851
11.263
9.9763
9.8373
10.846
10.747
10.972
11.453
11.768
11.834
12.577
13.453
13.9
14.035
14.201
13.98
14.589
14.471
13.897
14.695
14.335
14.109
13.999
13.47
