21.483
22.259
21.907
21.42
21.677
19.315
21.323
21.154
20.947
20.751
20.903
21.37
21.994
21.839
22.291
22.309
22.893
23.353
23.321
23.05
23.297
23.296
22.517
22.882
23.579
22.741
22.199
21.848
22.407
21.561
21.547
22.174
23.088
22.402
22.32
22.757
22.475
22.094
21.577
20.837
