4.4175
4.4754
4.4988
4.4538
4.5591
4.3444
4.5962
4.5329
4.4502
4.3716
4.4036
4.4467
4.5014
4.4007
4.4642
4.4334
4.6437
4.7811
4.8061
4.7504
4.7494
4.7439
4.644
4.7832
4.8534
4.6603
4.5849
4.5497
4.6853
4.5746
4.5914
4.7123
4.913
4.7513
4.724
4.8412
4.6397
4.5774
4.3501
4.2517
