0.15966
0.15413
0.15135
0.14596
0.14192
0.13702
0.13476
0.13377
0.13188
0.13258
0.13471
0.13673
0.13418
0.12654
0.12057
0.12439
0.12096
0.12151
0.1206
0.12306
0.13176
0.12766
0.12725
0.13291
0.13879
0.13193
0.13008
0.13129
0.13024
0.13113
0.12987
0.1219
0.12814
0.13086
0.12788
0.12635
0.12117
0.12411
0.12545
0.12265
0.12133
0.11227
0.11474
0.11536
0.11594
0.11426
0.11143
0.11316
0.10612
0.10477
0.10452
0.10764
0.10182
0.1004
0.10243
0.10122
0.1044
0.10683
0.10667
0.10255
0.10044
0.097084
0.094338
0.093645
0.098775
0.09791
0.10305
0.098793
0.10129
0.10368
0.10243
0.10343
0.10601
0.10831
0.10364
0.10233
0.10488
0.10656
0.11044
0.10588
0.11319
0.10965
0.10551
0.10292
0.10944
0.11573
0.11525
0.10753
0.1036
0.10858
0.11252
0.11916
0.11888
0.1218
0.12448
0.1248
0.12099
0.12429
0.11584
0.1047
0.11141
0.10606
0.11191
0.11421
0.11785
0.12168
0.11797
0.11915
0.12159
0.11531
0.11881
0.12086
0.11938
0.11393
0.10958
0.10516
0.11069
0.10715
0.10903
0.10767
0.108
0.10864
0.10812
0.11269
0.11059
0.11195
0.11218
0.10875
0.10071
0.10351
0.10218
0.10478
0.10322
0.10034
0.096435
0.09825
0.093283
0.085749
0.099857
0.096936
0.096681
0.093599
0.093306
0.094015
0.094458
0.093609
0.099064
0.099164
0.10089
0.098789
0.092382
0.088429
0.093077
0.10412
0.098787
0.099544
0.10246
0.096728
0.10711
0.10197
0.11289
0.11612
0.11148
0.11563
0.1135
0.11068
0.11451
0.11281
0.10476
0.10278
0.10181
0.094311
0.096051
0.095425
0.087502
0.093349
0.089398
0.08728
0.090348
0.086901
0.096944
0.10425
0.099722
0.11087
0.10628
0.10463
0.10227
0.10817
0.11213
0.1214
0.11431
0.11376
0.11761
0.11521
0.11865
0.11629
0.11808
0.12279
0.12499
0.11985
0.11665
0.11886
0.1206
0.11776
0.11907
0.11859
0.12068
0.11667
0.11811
0.11395
0.11953
0.12313
0.12467
0.12743
0.13221
0.1378
0.13951
0.13769
0.13543
0.13524
0.13785
0.13963
0.13739
0.13906
0.13155
0.12671
0.13578
0.14083
0.1414
0.14678
0.13914
0.13751
0.13659
0.13505
0.13464
0.13368
0.12331
0.12954
0.13433
0.13396
0.13134
0.12471
0.12469
0.11734
0.12653
0.11915
0.12202
0.12728
0.13424
0.13136
0.13365
0.12692
0.13172
0.1407
0.14416
0.14879
0.14245
0.14485
0.14702
0.14937
0.15158
0.14798
0.14738
0.15253
0.15012
0.15396
0.15204
0.143
0.14766
0.15073
0.15967
0.16521
0.15685
0.16111
0.15818
0.16547
0.1654
0.16651
0.17135
0.16915
0.16908
0.16757
0.16387
0.15816
0.16022
0.15617
0.1579
0.16356
0.15853
0.15825
0.17268
0.17608
0.17595
0.17522
0.16555
0.17097
0.16409
0.16378
0.16379
0.15111
0.14529
0.14816
0.14809
0.14356
0.14854
0.14478
0.14551
0.14755
0.1428
0.13867
0.13903
0.13768
0.13141
0.13007
0.12773
0.12714
0.12526
0.12035
0.124
0.11578
0.11639
0.11494
0.11756
0.11264
0.11843
0.11826
0.11749
0.12168
0.11872
0.11852
0.124
0.1264
0.12915
0.12962
0.13506
0.13271
0.13077
0.12851
0.12834
0.12672
0.14225
0.14444
0.14324
0.13648
0.13943
0.14192
0.13983
0.13573
0.13347
0.13243
0.1355
0.14051
0.1395
0.13947
0.13614
0.13347
0.13564
0.134
0.13268
0.14031
0.14066
0.13793
0.14131
0.13556
0.13589
0.14035
0.13947
0.13704
0.13664
0.14139
0.13015
0.12686
0.13089
0.13021
0.12461
0.12377
0.131
0.12491
0.12458
0.13295
0.14035
0.14225
0.13597
0.1325
0.13603
0.13109
0.13003
0.12543
0.12225
0.12393
0.12057
0.11637
0.11721
0.11055
0.11295
0.11232
0.11903
0.12212
0.12991
0.12201
0.12434
0.12373
0.12392
0.12499
0.12
0.11706
0.1246
0.12301
0.11675
0.11467
0.12058
0.12893
0.1248
0.11362
0.11652
0.11689
0.11816
0.11887
0.11784
0.12102
0.11911
0.11634
0.11525
0.11403
0.11271
0.11381
0.11086
0.10843
0.11465
0.11209
0.1161
0.11076
0.11323
0.11531
0.11025
0.11705
0.11509
0.11139
0.11761
0.11766
0.11535
0.11541
0.11811
0.11796
0.12044
0.12191
0.12339
0.12634
0.12467
0.11964
0.11617
0.11365
0.1136
0.11744
0.11884
0.12006
0.11848
0.11485
0.1144
0.11744
0.12088
0.1096
0.11018
0.11081
0.12226
0.12946
0.13612
0.13229
0.13012
0.12941
0.13141
0.13132
0.12673
0.12507
0.12689
0.12519
0.13142
0.12999
0.12631
0.13204
0.13583
0.13798
0.13507
0.13986
0.14356
0.14665
0.15313
0.14909
0.14862
0.14037
0.137
0.13924
0.14008
0.13951
0.14107
0.13748
0.14098
0.14281
0.14229
0.14464
0.14244
0.14847
0.14389
0.14659
0.13804
0.1375
0.14216
0.13282
0.14121
0.1467
0.1426
0.14483
0.15311
0.15237
0.15194
0.15539
0.15218
0.1535
0.14721
0.14699
0.14864
0.14733
0.14377
0.14605
0.13666
0.12662
0.13826
0.1395
0.13946
0.13463
0.14159
0.13329
0.12731
0.13733
0.13653
0.13912
0.13877
0.13811
0.13649
0.14584
0.14619
0.14673
0.14616
0.14502
0.1385
0.13183
0.12932
0.12593
0.12954
0.13203
0.13355
0.13934
0.13501
0.13286
0.13248
0.1299
0.13569
0.14021
0.14365
0.14061
0.13848
0.13618
0.14061
0.14048
0.13701
0.13271
0.1245
0.13144
0.12776
0.12916
0.12878
0.13886
0.12787
0.12911
0.12869
0.13048
0.12452
0.12127
0.11162
0.11541
0.11863
0.11456
0.11771
0.11283
0.11471
0.11703
0.11555
0.10781
0.10501
0.10327
0.10389
0.10103
0.10468
0.10385
0.10891
0.1128
0.11313
0.11535
0.11569
0.11168
0.11343
0.11237
0.11374
0.10981
0.11241
0.11463
0.11966
0.1159
0.10741
0.10559
0.11031
0.11924
0.11928
0.12534
0.12283
0.11872
0.12217
0.12479
0.12007
0.12024
0.11201
0.11345
0.11498
0.11905
0.11676
0.11238
0.12579
0.12795
0.13436
0.13781
0.13164
0.1338
0.13435
0.13358
0.12972
0.13017
0.1298
0.12503
0.1269
0.11936
0.12502
0.13153
0.12872
0.12853
0.1263
0.12318
0.12374
0.12693
0.12195
0.11688
0.11841
0.11942
0.1233
0.12701
0.12833
0.13184
0.14245
0.13599
0.13812
0.14607
0.15105
0.14992
0.13912
0.13298
0.13009
0.13085
0.13243
0.13458
0.13159
0.13644
0.13577
0.13504
0.13613
0.1441
0.1444
0.15089
0.1444
0.15272
0.15137
0.15152
0.1517
0.14483
0.15934
0.16145
0.17067
0.16425
0.16173
0.16347
0.14994
0.15296
0.15091
0.13838
0.14106
0.14914
0.14614
0.13839
0.14869
0.14397
0.13703
0.12531
0.12431
0.1381
0.13786
0.13841
0.13533
0.13746
0.13903
0.13398
0.13133
0.12455
0.12971
0.13381
0.13654
0.13996
0.13721
0.13543
0.13292
0.139
0.13792
0.13239
0.13316
0.13209
0.12892
0.13282
0.12327
0.12783
0.12654
0.13106
0.13007
0.13593
0.1332
0.13553
0.13799
0.13634
0.13573
0.13199
0.12273
0.12778
0.12484
0.11575
0.1237
0.13006
0.12979
0.13562
0.13111
0.13702
0.14403
0.13281
0.1371
0.14674
0.14584
0.14626
0.14519
0.14314
0.13595
0.13212
0.12929
0.12365
0.12456
0.12697
0.12401
0.13549
0.1437
0.15283
0.15032
0.14956
0.14589
0.13353
0.12872
0.13115
0.13444
0.12378
0.12433
0.12425
0.13707
0.12916
0.12758
0.12086
0.13195
0.12314
0.11062
0.11211
0.11215
0.11691
0.12059
0.11803
0.11521
0.11692
0.12177
0.12312
0.1321
0.14201
0.13983
0.1371
0.13723
0.13518
0.12542
0.12518
0.12179
0.11484
0.11293
0.11507
0.11852
0.1172
0.11811
0.11205
0.11744
0.12632
0.11861
0.123
0.13016
0.13412
0.13389
0.1397
0.14097
0.13311
0.13778
0.13725
0.13884
0.13869
0.13657
0.14131
0.14206
0.13971
0.13937
0.13849
0.12739
0.11979
0.1203
0.12381
0.12906
0.13636
0.13709
0.14653
0.13981
0.1463
0.1475
0.14342
0.14388
0.14228
0.14213
0.14606
0.14843
0.14703
0.14495
0.14836
0.14909
0.14589
0.14939
0.15472
0.15871
0.15969
0.15765
0.15616
0.15681
0.15585
0.15952
0.16257
0.1589
0.16698
0.17397
0.17494
0.15749
0.15439
0.15508
0.15335
0.15031
0.14379
0.15124
0.14845
0.15363
0.16372
0.16964
0.17229
0.16794
0.1693
0.17138
0.16616
0.16335
0.15982
0.15416
0.15958
0.15843
0.16002
0.16067
0.15726
0.14712
0.16324
0.16537
0.16716
0.17385
0.15698
0.15893
0.15724
0.14727
0.15319
0.13475
0.14558
0.15576
0.1713
0.17131
0.15094
0.16376
0.1795
0.17463
0.16291
0.16963
0.16734
0.17213
0.1757
0.18646
0.18048
0.16648
0.15567
0.1597
0.15415
0.16219
0.15445
0.1583
0.16302
0.17051
0.16829
0.16515
0.1571
0.15713
0.16101
0.15732
0.15825
0.15775
0.158
0.15839
0.15418
0.15364
0.14893
0.1497
0.15503
0.153
0.14725
0.14331
0.14032
0.13598
0.13427
0.14128
0.14519
0.13787
0.1303
0.1209
0.1242
0.12145
0.12308
0.12286
0.12133
0.12536
0.12572
0.11439
0.12523
0.12339
0.12
0.12324
0.12429
0.13237
0.13516
0.1325
0.12766
0.13589
0.13749
0.1382
0.13879
0.14092
0.14242
0.14611
0.14309
0.13873
0.14014
0.14366
0.15239
0.14554
0.14008
0.14206
0.14173
0.14164
0.14377
0.14516
0.15007
0.14927
0.14863
0.14286
0.14238
0.14244
0.14254
0.14602
0.14822
0.14894
0.1471
0.14556
0.14717
0.14968
0.15301
0.14903
0.14641
0.15078
0.15168
0.15105
0.15516
0.15472
0.15837
0.164
0.15427
0.15294
0.14705
0.15127
0.15004
0.14811
0.15311
0.15539
0.16451
0.16889
0.1765
0.17395
0.17709
0.17804
0.17579
0.1701
0.16504
0.16141
0.15453
0.15624
0.15301
0.16491
0.16551
0.15725
0.1684
0.16807
0.17002
0.16357
0.17032
0.16039
0.1733
0.17452
0.17356
0.15941
0.16301
0.15942
0.15539
0.16152
0.15585
0.1493
0.14552
0.14798
0.1525
0.1615
0.16206
0.15467
0.16206
0.15442
0.15557
0.15598
0.15596
0.16123
0.16506
0.16747
0.16512
0.15839
0.14574
0.13975
0.13846
0.13989
0.14288
0.14614
0.15081
0.148
0.15676
0.15968
0.16325
0.16624
0.1702
0.18639
0.19101
0.18903
0.18753
0.17727
0.17054
0.16712
0.17582
0.17196
0.1627
0.15611
0.17989
0.19464
0.20057
0.20663
0.21573
0.22065
0.21889
0.22376
0.21463
0.21207
0.21143
0.211
0.21247
0.21159
0.21035
0.20927
0.20877
0.20743
0.19816
0.20768
0.18909
0.16858
0.18789
0.18507
0.19059
0.19435
0.19718
0.20371
0.2086
0.19622
0.20564
0.2206
0.22335
0.22475
0.22452
0.21922
0.21712
0.21979
0.23065
0.23558
0.22919
0.22531
0.23167
0.23397
0.22764
0.22491
0.22258
0.22614
0.22494
0.22569
0.23353
0.21404
0.21779
0.2055
0.19064
0.19905
0.20454
0.19945
0.18566
0.18558
0.18155
0.18421
0.18207
0.18135
0.17646
0.17768
0.1953
0.18919
0.19704
0.19773
0.19364
0.18996
0.18214
0.1794
0.17891
0.17953
0.18754
0.17708
0.17078
0.15907
0.16579
0.16326
0.16771
0.17082
0.16879
0.17023
0.18158
0.18454
0.18322
0.18427
0.18536
0.19082
0.19718
0.20287
0.20834
0.19627
0.17351
0.17722
0.18744
0.18917
0.19066
0.18873
0.20257
0.20136
0.20022
0.19399
0.18537
0.19294
0.18801
0.19265
0.18527
0.18107
0.17851
0.18424
0.17302
0.16649
0.16628
0.17455
0.17
0.16313
0.16857
0.17421
0.16599
0.15945
0.15224
0.14847
0.15592
0.15591
0.15884
0.15674
0.15934
0.16288
0.16158
0.16513
0.1621
0.16232
0.16495
0.1642
0.16533
0.17265
0.16886
0.18829
0.19101
0.19034
0.1876
0.18234
0.16965
0.16098
0.15511
0.14882
0.1427
0.13356
0.13624
0.14626
0.1436
0.13271
0.13758
0.13835
0.14467
0.15115
0.15631
0.15385
0.15822
0.16619
0.16825
0.17377
0.18442
0.18853
0.18343
0.18441
0.18334
0.18903
0.18895
0.1899
0.17927
0.1822
0.17547
0.16805
0.15689
0.16271
0.16529
0.15877
0.15867
0.15473
0.15693
0.15804
0.15522
0.14808
0.15118
0.15437
0.14869
0.15187
0.14877
0.14632
0.14812
0.15076
0.15203
0.15341
0.15883
0.15778
0.14301
0.13454
0.14679
0.13673
0.13253
0.14824
0.14293
0.15653
0.14843
0.15079
0.1495
0.15336
0.16053
0.16183
0.17583
0.17022
0.16283
0.15907
0.16781
0.16931
0.17013
0.17053
0.17804
0.16995
0.16552
0.17253
0.16544
0.15167
0.15099
0.15062
0.14819
0.16096
0.15703
0.15401
0.15435
0.15213
0.15811
0.16176
0.15692
0.16104
0.16008
0.15811
0.15939
0.15711
0.15677
0.15596
0.15819
0.16401
0.16306
0.16681
0.16338
0.16309
0.16175
0.15599
0.16964
0.16116
0.15851
0.16063
0.15988
0.16375
0.16508
0.16676
0.1722
0.17274
0.16901
0.16483
0.15675
0.15852
0.16564
0.16737
0.16998
0.16839
0.16461
0.16697
0.17622
0.1689
0.16649
0.16236
0.16378
0.15783
0.16282
0.15622
0.15418
0.15992
0.15937
0.15258
0.14906
0.14469
0.14753
0.14852
0.14368
0.14255
0.14293
0.14543
0.13341
0.12976
0.1284
0.12765
0.13043
0.12709
0.12376
0.12914
0.13052
0.1368
0.13506
0.12406
0.12242
0.12976
0.12739
0.12407
0.12549
0.12837
0.12755
0.12681
0.12506
0.11249
0.11184
0.11757
0.11289
0.11636
0.11942
0.12493
0.13594
0.14182
0.14455
0.14736
0.15044
0.14948
0.14751
0.14889
0.14199
0.1297
0.13308
0.13177
0.13648
0.13295
0.12864
0.13139
0.13187
0.13597
0.133
0.133
0.13342
0.1353
0.13837
0.13906
0.14127
0.14047
0.14115
0.14802
0.1407
0.1416
0.13429
0.12952
0.13124
0.1332
0.13071
0.12953
0.13444
0.14038
0.14211
0.14193
0.14061
0.14413
0.14226
0.14485
0.14522
0.13947
0.13875
0.13912
0.14267
0.14078
0.14932
0.14886
0.1394
0.13709
0.13452
0.12937
0.12114
0.1154
0.12511
0.12092
0.11857
0.12365
0.12523
0.12594
0.12403
0.1244
0.11413
0.11136
0.12297
0.12208
0.12104
0.1231
0.11884
0.11494
0.10922
0.11495
0.1185
0.11244
0.11732
0.1123
0.10723
0.10807
0.098439
0.10551
0.10594
0.1084
0.104
0.10458
0.11297
0.10962
0.10281
0.10178
0.1015
0.090465
0.095274
0.094286
0.098437
0.10201
0.10178
0.10221
0.10625
0.099871
0.094978
0.09716
0.10129
0.10044
0.10363
0.10538
0.10529
0.10162
0.10267
0.10105
0.095653
0.092303
0.094016
0.091372
0.095788
0.096562
0.10027
0.10738
0.10889
0.10953
0.10896
0.11196
0.11239
0.11021
0.11123
0.1179
0.11966
0.13081
0.13779
0.12584
0.11751
0.12084
0.11942
0.11616
0.10683
0.10826
0.1048
0.11785
0.11779
0.10268
0.098281
0.1021
0.098178
0.099324
0.10101
0.1066
0.11234
0.10412
0.095297
0.090767
0.098537
0.09423
0.095778
0.10266
0.10586
0.11008
0.10691
0.10666
0.10931
0.11065
0.11029
0.11031
0.10379
0.10071
0.10453
0.10321
0.097532
0.084196
0.095467
0.11038
0.11355
0.11052
0.11094
0.099761
0.097804
0.1025
0.10579
0.10425
0.11013
0.11163
0.11623
0.1223
0.11314
0.11387
0.12113
0.12172
0.12107
0.11376
0.12119
0.12094
0.11939
0.11803
0.1194
0.12524
0.12302
0.12291
0.11681
0.12409
0.13161
0.12599
0.13319
0.1423
0.13552
0.12941
0.11881
0.10835
0.10041
0.095783
0.10762
0.10872
0.10451
0.10604
0.10205
0.099933
0.10638
0.10488
0.1075
0.11228
0.11122
0.11511
0.11145
0.11057
0.11147
0.10646
0.091297
0.087597
0.084832
0.088294
0.086463
0.087623
0.09169
0.098315
0.096145
0.081375
0.087182
0.090754
0.087292
0.080171
0.077288
0.074189
0.072033
0.073336
0.076594
0.07794
0.067595
0.068358
0.064955
0.069801
0.071678
0.07452
0.076169
0.082249
0.083163
0.083952
0.088021
0.090622
0.09018
0.090088
0.089873
0.088201
0.087492
0.086857
0.080705
0.078373
0.078577
0.081701
0.083663
0.083607
0.080056
0.078629
0.066409
0.066464
0.063406
0.067786
0.063914
0.060799
0.057999
0.06203
0.064051
0.068363
0.068183
0.07687
0.074123
0.080506
0.083302
0.081452
0.081743
0.084665
0.077584
0.072599
0.067058
0.069433
0.08356
0.086478
0.087252
0.085552
0.085091
0.093043
0.093609
0.089819
0.09397
0.10031
0.09773
0.10022
0.093819
0.091469
0.1041
0.11105
0.10871
0.10832
0.11241
0.11356
0.10919
0.10571
0.10277
0.10206
0.10318
0.10797
0.10706
0.11217
0.11558
0.11105
0.11148
0.11033
0.11096
0.11113
0.10292
0.099683
0.10578
0.11055
0.11376
0.12159
0.11933
0.12312
0.12194
0.12442
0.13268
0.13196
0.13543
0.13501
0.13206
0.13212
0.13114
0.1284
0.13388
0.12667
0.12578
0.12299
0.11797
0.11521
0.11416
0.10872
0.10931
0.11289
0.11245
0.1141
0.12466
0.12163
0.11545
0.12011
0.12541
0.13663
0.13889
0.13955
0.13911
0.13818
0.14039
0.14059
0.13984
0.13557
0.13996
0.1372
0.14031
0.13905
0.13616
0.13467
0.14076
0.14636
0.14649
0.14332
0.14133
0.14374
0.14578
0.15278
0.14798
0.14311
0.14293
0.14281
0.14405
0.14707
0.14544
0.14799
0.14525
0.14378
0.14841
0.14563
0.14321
0.14728
0.14629
0.14733
0.14687
0.14749
0.14999
0.15135
0.15504
0.15591
0.15718
0.15613
0.15165
0.14428
0.13938
0.13869
0.13097
0.12772
0.12709
0.13068
0.1425
0.1389
0.13924
0.13826
0.13701
0.14132
0.14835
0.15335
0.15755
0.15937
0.15805
0.15508
0.15675
0.15431
0.1539
0.15258
0.15388
0.15689
0.15968
0.16135
0.15208
0.15176
0.14961
0.15011
0.14942
0.15363
0.1557
0.1593
0.15618
0.15712
0.15702
0.15927
0.1568
0.15419
0.14848
0.15518
0.16134
0.16727
0.16753
0.16748
0.16801
0.16827
0.16953
0.1696
0.1691
0.17251
0.1723
0.16687
0.16309
0.16352
0.16536
0.16178
0.16624
0.16661
0.15492
0.16723
0.1646
0.15993
0.1663
0.16673
0.16627
0.16619
0.16678
0.16556
0.16634
0.16498
0.16036
0.15884
0.15909
0.15241
0.14914
0.15825
0.15877
0.15554
0.14998
0.14747
0.14895
0.15316
0.1478
0.14646
0.15771
0.16306
0.1629
0.16405
0.16234
0.15482
0.15013
0.13142
0.12893
0.1268
0.13832
0.13991
0.1331
0.13135
0.13814
0.13909
0.13094
0.12946
0.12892
0.12619
0.1258
0.12921
0.13047
0.13768
0.13748
0.12816
0.1285
0.12839
0.12814
0.12912
0.13224
0.1359
0.13626
0.13375
0.12754
0.13382
0.13726
0.13826
0.13852
0.13547
0.1291
0.13043
0.13428
0.13692
0.14577
0.14878
0.15455
0.15575
0.16021
0.16407
0.1623
0.16075
0.16026
0.15763
0.15695
0.15841
0.15927
0.15319
0.14936
0.15114
0.16196
0.15801
0.16487
0.16382
0.16219
0.1547
0.1563
0.15816
0.16068
0.16015
0.1592
0.15992
0.16275
0.1597
0.16366
0.16442
0.16333
0.16329
0.16327
0.16357
0.16417
0.16503
0.16503
0.16388
0.16268
0.16254
0.15949
0.15859
0.15762
0.15698
0.15343
0.14437
0.15103
0.14677
0.15185
0.15235
0.15269
0.15098
0.14886
0.13855
0.13556
0.13672
0.13833
0.13893
0.14463
0.14219
0.1408
0.13823
0.1374
0.14367
0.13565
0.13893
0.13285
0.12872
0.12704
0.12989
0.13025
0.1312
0.13208
0.13535
0.13654
0.13962
0.13818
0.13676
0.1321
0.13336
0.13802
0.13928
0.14146
0.14447
0.1457
0.14349
0.14241
0.14857
0.15181
0.15183
0.14938
0.148
0.14679
0.1461
0.14586
0.1454
0.14292
0.14078
0.14458
0.1431
0.14317
0.14203
0.14337
0.13407
0.13803
0.13623
0.13803
0.13519
0.13144
0.13291
0.13787
0.14606
0.15042
0.15243
0.15282
0.15436
0.14672
0.14648
0.13787
0.13491
0.13487
0.13322
0.14319
0.14204
0.13838
0.14488
0.14088
0.1373
0.13996
0.14022
0.14356
0.14526
0.14746
0.15498
0.15967
0.15887
0.15264
0.14079
0.14752
0.15918
0.16101
0.15932
0.15235
0.14803
0.14746
0.14605
0.14907
0.1459
0.14386
0.13969
0.13624
0.13944
0.14133
0.13944
0.14069
0.13923
0.14206
0.15374
0.15528
0.15716
0.15495
0.15451
0.15138
0.15117
0.14955
0.15468
0.15136
0.15131
0.14473
0.1571
0.15365
0.14977
0.1498
0.15399
0.15622
0.15552
0.15486
0.15267
0.15242
0.15241
0.14717
0.15441
0.15716
0.15735
0.15703
0.15855
0.14911
0.16092
0.15981
0.16074
0.15994
0.15402
0.14756
0.14547
0.14447
0.14335
0.14756
0.14678
0.1512
0.14999
0.14558
0.14673
0.14705
0.14723
0.1478
0.14899
0.15071
0.14838
0.14457
0.13823
0.13995
0.15085
0.14629
0.14
0.15282
0.14975
0.14737
0.14783
0.14923
0.15195
0.15218
0.14906
0.14695
0.14747
0.14464
0.14561
0.14511
0.14442
0.14313
0.14539
0.14189
0.14082
0.141
0.14041
0.13835
0.13658
0.12827
0.12957
0.12712
0.12881
0.12571
0.13021
0.1314
0.12669
0.12744
0.12802
0.1294
0.1214
0.13429
0.13836
0.141
0.13906
0.13122
0.13042
0.12902
0.11493
0.10986
0.10007
0.096108
0.10424
0.10813
0.11748
0.11595
0.11279
0.12096
0.12473
0.13012
0.12783
0.12397
0.12426
0.12607
0.12925
0.13337
0.12914
0.12597
0.13263
0.13661
0.1395
0.13662
0.13164
0.12861
0.1167
0.11804
0.12108
0.11083
0.11198
0.10692
0.11913
0.11674
0.11028
0.11139
0.11395
0.12132
0.13324
0.13127
0.13021
0.13011
0.12669
0.12718
0.11944
