3.4871
3.3086
3.2072
3.4177
3.2021
3.0119
2.9772
3.0765
3.2624
3.4109
3.2232
3.1598
3.3771
3.3058
3.3345
3.09
3.037
3.0945
3.111
3.0058
2.7144
2.4449
2.3471
2.2757
2.2535
2.0247
1.8333
2.0381
2.0406
2.1926
1.8319
1.5956
1.6522
1.7043
1.709
1.746
2.0751
2.1936
1.886
1.9283
2.2406
2.2155
2.3185
2.5599
2.587
2.9776
2.8737
2.5665
2.7243
2.9238
2.8873
3.3008
3.4797
3.5235
3.8745
3.6219
3.4248
3.2902
3.8011
3.5042
3.5934
3.787
4.0456
4.0337
4.2162
3.8398
3.943
3.7996
3.9154
3.9555
4.1736
4.0122
3.4708
3.311
3.3353
3.8458
3.647
3.0606
2.7932
2.7332
3.0884
2.7913
3.063
3.1656
3.3316
3.519
3.6645
3.3343
3.5211
3.1908
3.5352
3.5772
3.4064
3.6938
3.441
3.6975
3.7053
3.7544
3.5974
3.8367
3.2227
3.5875
4.0055
3.7817
3.6592
4.0016
3.977
3.7131
3.3188
3.2029
3.1031
2.8035
3.2319
3.0866
3.221
2.4941
2.9892
3.383
3.0874
2.8418
3.204
3.0611
3.2157
3.412
2.9341
2.8697
2.7457
2.6837
2.6116
2.3035
2.0531
2.0646
1.6345
1.5231
1.7068
1.5465
1.6196
1.1549
1.5765
1.3837
2.1107
1.8179
1.8031
1.6875
1.5923
1.4703
1.5553
1.6008
2.0622
1.6806
2.0098
2.2554
1.8041
1.9386
1.9782
1.9894
2.0873
2.5767
2.9571
3.0886
3.5034
3.0296
2.7663
2.2989
1.9756
2.4042
2.669
2.9783
2.7731
2.7706
2.4645
2.9749
2.8974
3.194
3.353
2.7888
2.8168
3.0233
2.8508
2.6691
2.6841
2.5871
2.5991
2.5865
2.2887
2.4395
2.5932
2.4534
2.8
2.4597
2.898
2.6431
2.9572
2.8935
2.8609
2.4939
2.2891
2.3577
2.4227
2.4987
2.2687
2.3151
2.2965
2.9921
3.1102
2.7783
2.4097
2.5497
3.085
2.8641
3.3253
3.3755
2.8635
2.9726
2.4346
2.4137
2.6742
2.5985
2.8481
2.7016
2.4843
2.2354
2.7239
3.3109
3.5584
3.686
3.49
3.2395
3.2933
3.2177
3.0949
2.7206
2.4045
2.5894
2.7577
2.8754
3.0153
2.8934
2.8322
2.5097
2.2461
2.6198
2.8391
2.9708
2.5892
2.7653
2.8965
2.6916
2.5273
2.2425
2.0635
2.2799
2.5832
2.5176
2.7328
2.815
2.6789
2.9609
3.1762
3.1868
3.2433
3.0669
3.2284
3.5136
3.3284
3.2459
3.4828
3.8197
3.6075
3.545
3.5842
3.7053
3.4746
3.7319
3.6861
3.3742
3.6948
3.632
3.5831
3.3013
3.4088
3.6939
3.7332
3.5873
3.6995
3.5167
3.4185
3.4153
3.2902
3.2328
3.0725
2.5309
2.7416
3.0858
2.8538
3.0164
2.7614
3.2677
3.3513
3.5566
3.7121
3.971
4.3087
4.2782
3.7658
3.7383
3.8564
4.0035
4.0668
4.1288
4.0412
3.6356
3.5716
3.6357
3.8719
3.8139
3.8498
4.0227
3.7762
3.8691
3.6508
3.7041
3.6291
3.999
4.0931
4.1253
3.9283
3.8559
3.8555
3.9706
3.8426
3.6207
4.1085
4.3102
4.2945
4.1307
4.0016
4.2158
4.3461
4.0778
3.423
3.4797
3.5055
3.2269
3.3347
3.4769
3.5315
3.229
3.0149
2.843
3.0938
3.5201
3.5303
3.359
3.416
3.1896
3.1273
3.3311
3.4366
3.5934
3.5565
3.4698
3.3449
3.1123
3.2986
3.5889
4.1232
4.0807
4.1275
3.9004
3.6748
3.9621
4.0068
3.7172
3.6677
3.4126
3.5468
3.7167
3.3995
3.4859
3.5422
3.801
3.7151
3.4771
3.6499
3.8616
3.9068
3.744
3.6982
3.8207
3.7208
3.496
3.7306
3.8484
3.9781
4.1357
4.2361
4.12
3.8637
3.9571
3.9228
4.2763
3.8745
3.6568
4.0304
3.947
3.3856
3.2257
3.118
3.2598
2.9294
2.8561
2.7814
3.3156
3.1442
2.8183
3.0107
3.0931
3.3803
2.8378
3.0961
3.3075
2.8866
3.0051
3.4963
3.607
3.0726
2.9478
3.1885
3.2212
3.0372
3.3704
3.1851
2.9078
2.9924
3.2726
3.2596
3.5675
3.9935
3.7032
3.8623
3.9466
4.0095
3.7412
4.0141
3.933
3.7725
3.8513
3.7891
3.8125
3.7349
3.4135
3.2743
3.2688
3.1597
3.1509
3.0589
3.1066
2.9706
3.3962
3.6587
3.8275
3.6688
3.8752
3.9199
3.9831
3.9275
3.8289
3.7264
3.8401
3.903
3.8396
3.8718
3.7663
3.6819
3.6918
3.8718
3.7995
3.5697
3.3971
3.4155
3.4119
3.4701
3.5706
3.631
3.5571
3.4297
3.419
3.4226
3.3374
3.355
3.3806
3.2486
3.158
3.0938
3.3634
3.4356
3.4919
3.3431
3.4373
3.4079
3.3991
3.5332
3.6167
3.6364
3.53
3.4967
3.5946
3.7636
3.8415
3.9005
4.1578
4.0612
3.9831
3.9587
4.0111
4.1141
4.0397
4.1292
4.0368
4.1092
4.3443
4.3591
4.2351
4.0714
4.0555
4.2036
4.2005
4.3817
4.3418
4.2942
4.3184
4.3889
4.2716
4.025
4.1275
4.066
4.2304
4.2942
4.34
4.1089
3.896
3.8247
3.8155
3.989
3.8429
3.9627
4.1385
4.0915
4.1851
4.2301
4.039
4.1068
4.2395
4.2309
4.0549
4.1678
4.2293
4.3668
4.3725
4.5961
4.4939
4.3879
4.3049
4.3666
4.4906
4.4004
4.2126
4.1939
4.1035
4.2515
4.192
3.9568
3.837
3.7686
3.9342
3.8933
3.9451
3.9856
4.2381
4.1868
4.2878
4.3412
4.0427
3.9461
4.0641
3.9074
3.8625
3.7898
4.0595
4.3419
4.1457
3.4845
3.3968
3.7105
3.7315
3.8453
3.8194
3.7821
4.1474
4.1748
4.246
4.2488
4.1926
4.1199
3.9285
3.7347
3.6416
3.6516
3.7344
3.927
3.7898
3.5825
3.4403
3.7183
3.6004
3.6147
3.308
3.5831
3.6446
3.8648
3.8472
3.9052
3.8231
3.9092
4.02
4.3104
4.1
3.9924
4.0255
4.2851
4.3695
4.5271
4.5154
4.4845
4.6041
4.4058
4.4822
4.5233
4.586
4.5732
4.6413
4.666
4.5902
4.504
4.5757
4.5152
4.4457
4.6935
4.3513
4.5628
4.7713
4.774
4.4984
4.608
4.7678
4.8145
4.834
4.3553
4.3642
4.3169
4.2997
4.3625
4.3617
4.4368
4.5549
4.5218
4.5377
4.5971
4.3196
4.3255
4.3761
4.3679
4.2672
4.2449
3.8651
4.022
3.9002
4.1809
4.4318
4.4496
4.4671
4.4888
4.4837
4.2315
4.0577
4.0741
4.0092
3.9537
4.3088
4.5245
4.4707
4.6918
4.6042
4.5743
4.673
4.7196
4.6266
4.573
4.5876
4.7191
4.7661
4.6531
4.7655
4.5497
4.4072
4.3302
4.2065
4.2743
4.0756
3.9607
3.9548
4.0446
4.0176
4.1352
4.1247
4.3627
4.3712
4.2764
4.25
4.4903
4.5005
4.6864
4.7826
4.8417
4.8749
4.9609
4.9789
5.0568
5.1175
5.2192
5.2295
5.1962
5.24
5.1368
5.1792
5.1964
5.1736
5.0804
4.9803
4.9616
4.9882
5.0663
4.9343
4.7946
4.9233
4.738
4.6099
4.6454
4.4676
4.3919
4.3968
4.3207
4.1829
4.3393
4.3327
4.3136
4.3908
4.4449
4.4525
4.6783
4.6758
4.6129
4.6066
4.6554
4.7042
4.6693
4.806
4.7915
4.8074
4.6444
4.9002
4.9633
4.9981
4.9722
4.813
4.6725
4.69
4.5597
4.6529
4.7023
4.8048
4.7996
4.6078
4.5621
4.507
4.3603
4.4151
4.1759
4.0951
3.9231
3.8159
4.1417
3.9722
4.1495
4.3003
4.1842
4.2311
4.1298
4.0778
4.11
3.9272
4.0329
4.0807
4.0842
4.1323
4.2491
4.2406
4.0905
3.8603
3.7835
3.9834
3.8249
3.9433
3.8283
3.9202
3.7993
3.7415
3.7475
3.6098
3.3197
3.3172
3.4953
3.6158
3.6375
3.8231
3.7644
3.6467
3.7567
3.6741
3.7512
3.6971
3.6342
3.8353
3.6327
3.5992
3.6219
3.7068
3.7604
3.611
3.3967
3.3715
3.2768
3.0555
3.2391
3.0318
3.1631
3.2505
3.3873
3.3246
3.4698
3.2717
3.5089
3.739
3.7005
3.6064
3.5859
3.5067
3.3246
3.3235
3.5457
3.6766
3.8377
3.7645
3.7178
3.7611
3.8665
3.9555
3.8999
3.7537
3.7617
3.7742
3.7744
3.7497
3.7004
3.6945
3.8065
3.8872
3.8844
3.7669
3.9917
4.0712
4.1815
4.212
3.9058
4.0473
3.9256
3.6146
3.4825
3.62
3.6121
3.699
3.7502
3.7253
3.8762
4.0011
4.1477
4.2208
4.0754
4.091
4.0623
3.9372
3.8561
4.0238
4.345
4.223
4.2943
4.37
4.4232
4.3255
4.3747
4.4873
4.4557
4.4669
4.5531
4.5699
4.4885
4.4805
4.4447
4.4754
4.3098
4.3336
4.4007
4.5839
4.6808
4.7633
4.5559
4.3776
4.4058
4.3231
4.3897
4.6208
4.5058
4.4456
4.5377
4.6678
4.4715
4.4856
4.3884
4.195
4.0266
4.1005
4.0739
4.066
3.9445
4.0314
4.0872
4.1833
4.2224
4.3294
4.1733
4.1763
4.2925
4.5052
4.6449
4.5399
4.5794
4.4922
4.2056
4.2319
4.0475
3.8017
3.6381
3.7737
4.1707
4.1947
4.1789
4.2052
4.2294
4.2927
4.1387
3.9018
3.9216
3.9235
4.0603
4.2716
4.4309
4.2104
3.8413
3.9133
3.9113
3.7759
3.6175
3.782
3.7405
3.9035
3.7407
3.7004
3.5228
3.5392
3.4031
3.3404
3.229
3.4066
3.4149
3.5304
3.6766
3.568
3.744
3.6239
3.5629
3.7327
3.5228
3.7033
3.8453
3.9666
4.0171
3.9845
4.005
4.0258
4.1635
4.3735
4.311
4.5154
4.6557
4.3818
4.458
4.5518
4.577
4.7575
4.7383
4.9152
4.7247
4.6618
4.6497
4.8426
4.7597
4.8087
4.773
4.9562
4.9737
5.1103
5.025
4.9056
4.7343
4.6305
4.5398
4.4255
4.2685
4.142
4.2006
4.1237
4.2058
4.5032
4.495
4.4827
4.4277
4.4776
4.5586
4.5676
4.6019
4.7093
4.8378
4.6375
4.8057
4.7775
4.6599
4.8115
4.8489
4.938
4.9273
4.8424
4.8402
4.7714
4.7688
4.9056
4.8891
4.9782
5.0106
5.0351
5.1111
5.0704
5.0065
4.8634
4.717
4.8074
4.9012
4.8686
4.803
4.7608
4.8323
4.7858
4.7476
4.8289
4.835
4.9058
4.8838
4.7242
4.6926
4.772
4.757
4.5678
4.5132
4.4735
4.4255
4.4708
4.4344
4.3033
4.1938
4.0024
3.9561
4.0736
3.7973
3.8194
3.7826
3.7928
3.8176
3.7232
3.7562
3.8088
3.6972
3.5338
3.3702
2.9887
3.061
2.5365
2.4956
2.716
2.782
2.9493
3.0233
2.9587
2.9776
3.0654
3.2826
3.0768
2.956
2.9829
3.3087
3.3309
3.3762
3.4585
3.4696
3.3263
3.4603
3.4318
3.5563
3.6695
3.8727
3.9333
3.9506
3.9061
3.818
3.762
3.8627
4.0442
3.8699
3.5028
3.3002
3.4767
3.6842
3.7398
3.5248
3.5992
3.6356
3.4754
3.1899
3.1891
3.5686
3.6518
3.5882
3.4961
3.5079
3.5319
3.444
3.2748
3.2345
3.5248
3.3921
3.3634
3.5014
3.8002
3.9019
4.0654
3.8436
3.5994
3.6481
3.6861
3.5565
3.4549
3.7945
3.8876
3.859
3.7579
3.702
3.6346
3.6032
3.3822
3.645
3.9426
4.0166
3.9462
3.9368
3.9601
3.7733
3.8716
4.005
4.0925
3.9837
4.2433
4.3395
4.1555
4.2886
4.3857
4.4147
4.3888
4.4766
4.5705
4.6934
4.6954
4.7646
4.8147
4.8645
4.6546
4.641
4.6388
4.6833
4.8799
4.8597
4.9037
4.972
4.8156
4.8272
4.7178
4.6986
4.7095
4.711
4.5866
4.5077
4.6415
4.832
4.6521
4.5074
4.4562
4.4089
4.1815
4.2435
4.4239
4.3896
4.4242
4.4709
4.4966
4.1298
3.889
3.7971
3.8047
4.1493
4.5473
4.4655
4.5916
4.4965
4.2772
4.1972
4.2569
3.9944
4.0407
4.1491
4.2457
4.0944
4.1726
4.2241
4.2988
4.3596
4.3779
4.4035
4.3917
4.2801
4.1931
4.117
4.0956
4.0939
4.0857
4.0888
4.0046
4.0358
4.0236
4.0323
4.0721
4.1106
4.2559
4.165
4.0509
4.0541
4.0792
4.1
4.123
4.2734
4.2683
4.2616
4.46
4.4705
4.2311
4.0774
4.1391
4.1709
4.1526
3.96
3.9625
4.1787
4.1126
4.0039
3.9423
3.8249
4.0098
4.0781
3.9977
4.1381
3.8495
3.703
3.7945
4.0797
4.0397
4.027
3.971
3.9394
3.9787
4.0141
3.8728
3.9923
4.0717
4.0788
4.1186
4.1164
4.0304
4.0374
4.1445
4.3105
4.5432
4.5545
4.5028
4.4205
4.2744
4.1684
4.1375
4.1582
4.3904
4.5005
4.4418
4.4167
4.3808
4.4531
4.246
4.2535
4.1234
4.4335
4.2534
3.9732
3.8869
3.8915
3.8226
4.0583
4.2166
4.2378
3.8348
3.9291
3.7705
3.7355
3.9459
3.7222
4.0137
4.1133
3.9561
4.0681
4.0343
4.2049
4.1449
4.1846
4.1226
3.9779
3.8886
3.8024
3.736
3.7431
3.6992
3.5331
3.7887
3.7751
3.6659
3.542
3.6224
3.4147
3.4749
3.6126
3.5887
3.5791
3.8092
3.9025
3.8605
3.9157
3.8023
3.776
3.9094
3.9188
3.801
3.713
3.8454
3.8264
3.8107
3.7552
3.9358
4.004
3.9951
4.0677
4.0051
3.95
3.9083
3.6665
3.7438
3.6379
3.7736
3.9411
4.101
4.1057
3.7645
3.6958
3.7009
3.918
4.0325
4.137
4.1196
4.1312
4.0147
3.9243
3.8757
4.1097
4.2499
4.2514
4.2543
4.2573
4.1515
4.0026
3.8044
3.637
3.6649
3.7719
3.8933
3.8386
3.6604
3.8038
3.7176
3.649
3.6693
3.7207
3.7401
3.6866
3.7101
3.7661
3.9349
4.0552
3.9916
3.9125
3.9946
3.7294
3.7231
3.5593
3.611
3.644
3.7879
3.6669
3.6617
3.5215
3.41
3.2946
3.3344
3.5873
3.8498
3.7984
3.9066
3.8831
3.8022
3.8747
4.0062
4.1577
3.9113
3.8295
3.758
3.6433
3.6351
3.7618
3.7105
3.6871
3.6962
3.7634
3.9275
3.8634
3.9536
3.9386
3.8666
3.807
3.7692
3.8293
3.8135
3.7695
3.817
3.7366
3.8488
3.9479
4.1617
4.1888
4.1156
4.1248
3.9912
3.8613
3.8927
3.9228
3.8561
3.7427
3.9001
4.0515
4.0206
4.1097
3.9768
3.7396
3.9675
3.9808
4.0842
3.8822
3.9606
3.9083
3.7282
3.708
3.8442
3.9054
3.8376
4.0542
3.8629
3.8281
3.9118
3.8978
3.8456
3.7602
3.6717
3.7038
3.6206
3.6601
3.6958
3.8951
4.111
4.1417
4.1183
4.1443
4.0376
3.8744
3.8754
4.2091
4.2118
4.0635
4.1435
4.2374
4.0113
3.9089
3.9803
3.8872
3.6904
3.8525
3.7292
3.8879
3.6403
3.6324
3.5285
3.5733
3.6958
3.6675
3.6454
3.6513
3.7563
3.7168
3.7318
3.3555
3.3887
3.7935
4.0361
3.9571
4.1353
4.018
4.1139
4.1314
4.0108
4.0865
4.2001
4.3326
4.282
4.1834
4.1269
4.1148
4.0182
4.0116
4.0376
3.8828
3.8163
3.9626
4.0345
3.9887
4.1493
4.3162
4.4323
4.4585
4.4584
4.5741
4.4189
3.9714
3.858
3.8244
3.6826
3.456
3.4302
3.6542
3.6685
3.7371
3.6676
3.5298
3.5836
3.7376
3.7973
3.7866
3.8036
3.6018
3.5982
3.516
3.2379
3.0339
3.2123
3.1792
3.0331
2.9876
3.0133
3.0885
3.1356
3.2302
3.1615
3.2496
3.1196
2.9381
2.8202
2.7495
2.6276
2.4302
2.2391
2.2631
2.4204
2.7011
2.904
3.4477
3.2991
3.0806
3.2833
3.177
3.4888
3.4736
3.4224
3.2955
3.1906
3.0334
3.0601
3.0381
3.1401
3.1644
3.4061
3.3946
3.3646
3.2119
3.4236
3.308
3.3547
3.3408
3.3268
3.2922
3.812
3.787
3.5689
3.5614
3.4879
3.6165
3.5714
3.4448
3.4871
3.5044
3.4452
3.5879
3.4441
3.4209
3.5613
3.8834
4.0428
3.9735
3.8687
3.7686
3.6173
3.6683
3.6523
3.6816
3.4268
3.645
3.8492
3.9583
3.8255
3.886
3.9208
3.9121
3.8303
3.825
3.7752
3.7306
3.7856
3.646
3.3514
3.5351
3.5484
3.4745
3.3921
3.3433
3.5456
3.4672
3.3436
3.3862
3.2784
3.4752
3.3655
3.4041
3.5074
3.7236
3.6487
3.242
3.0507
2.8651
2.524
2.6024
3.1115
3.5109
3.683
3.6759
3.5682
3.6247
3.4967
3.2475
3.4817
3.5635
3.538
3.6348
3.5756
3.7137
3.7639
3.7269
3.8363
3.7243
3.6245
3.4496
3.2813
3.4542
3.5161
3.6507
3.7863
3.8629
3.8042
3.8804
3.8156
3.8339
3.9803
3.956
4.0111
3.9575
3.6913
3.5558
3.5515
3.5543
3.3845
3.4535
3.3339
3.3846
3.3213
2.9739
2.9406
3.3158
3.6157
3.4574
3.3367
3.4413
3.2596
3.0456
2.9177
2.9351
3.0839
3.2364
3.6748
3.8385
3.6916
3.359
3.0542
3.1615
3.2283
3.2552
3.2792
3.1108
2.9272
3.1072
3.1288
3.2874
3.064
2.8274
3.004
2.938
2.9412
2.7273
2.659
2.6394
2.783
3.1018
3.1243
3.2428
3.0049
2.9599
2.9081
2.9162
2.9297
2.867
3.0449
2.8072
2.7768
2.8474
2.9409
2.8248
2.9522
3.0798
3.127
3.0097
2.8829
2.7621
2.7386
2.9602
3.0938
2.9724
2.9631
3.097
3.0424
3.1837
3.122
3.1662
3.1166
3.0367
2.8496
2.9494
3.0295
3.1419
3.26
3.2723
2.9417
2.9986
3.0619
3.081
2.8679
2.7815
2.8143
3.0026
3.0229
2.9962
3.0148
2.7567
2.8884
2.8254
2.8008
2.9107
2.9095
2.7626
2.6679
2.7542
2.6606
2.5691
2.6996
2.5089
2.6318
2.7128
2.9698
3.0655
3.0726
3.1105
2.9806
3.1206
3.1276
3.5019
3.8578
3.6628
3.6916
3.6546
3.5827
3.615
3.2633
3.0385
3.0007
2.8166
2.8603
2.9676
3.0043
2.9753
3.1761
3.1897
3.3349
3.1848
2.9585
2.8783
2.9644
3.0044
3.2258
3.3807
3.1946
3.1494
2.9766
2.6314
2.654
2.6444
2.9071
2.9381
3.0651
3.0093
3.0887
3.1086
3.0196
2.84
3.0691
3.212
3.3356
3.4736
3.4409
3.4519
3.2095
2.909
3.219
3.3231
3.2874
3.1731
3.1289
3.1225
3.1887
3.2384
3.4083
3.5015
3.2884
3.3014
3.1976
2.9072
2.8918
3.038
3.2915
3.5606
3.5626
3.6464
3.7021
3.7738
3.6559
3.4398
3.272
3.323
3.5526
3.5084
3.5178
3.4667
3.5977
3.6129
3.2864
3.1838
3.2269
3.218
3.2372
3.302
3.3607
3.4466
3.2902
3.0092
2.8531
2.9315
3.1952
3.3139
3.1188
3.1692
2.9896
3.1439
3.1145
3.0976
3.2744
3.2519
3.3633
2.9419
3.117
3.0782
3.0942
3.287
3.2035
2.9627
2.9749
3.0479
2.9326
2.9171
3.265
3.1722
3.133
3.084
3.2735
3.3283
3.5043
3.3529
3.2851
3.3347
3.3261
3.343
3.4057
3.372
3.3299
3.3524
3.4312
3.5272
3.2719
3.2547
3.3028
3.0569
3.012
2.7943
2.8881
3.2882
3.3856
3.2874
3.082
2.969
2.8288
2.8232
2.9913
2.936
2.9797
3.0078
2.797
2.8751
2.7576
2.6217
2.7913
2.8618
2.9367
2.9881
3.1431
3.1306
3.0819
2.921
2.7399
2.6995
2.7898
2.7173
2.7429
2.8335
2.9053
3.0536
3.0023
2.8023
2.7176
2.485
2.6382
2.6359
2.8547
2.9229
2.9192
2.9536
2.9014
2.995
2.976
2.9464
2.9453
2.9514
2.8934
2.874
2.8866
2.8365
2.6987
2.4648
2.319
2.3291
2.3279
2.6156
2.6145
2.6796
2.6302
2.7033
2.5886
2.5916
2.5141
2.5911
2.7766
2.8451
2.4801
2.7024
2.7173
2.8564
2.6864
2.7063
2.5453
2.6292
2.6889
2.6411
2.8131
2.9903
3.1364
3.3082
2.9336
2.8863
2.8398
2.8364
2.7696
2.7913
2.7693
2.8435
2.8926
3.0171
3.4525
3.051
3.0087
2.9711
3.0568
3.0874
3.0976
3.165
3.0917
2.7635
2.9811
3.1374
3.1229
3.2508
3.4192
3.3328
3.1016
2.8554
2.639
2.9143
2.8415
2.818
2.7048
2.8116
2.878
2.8836
3.327
3.4463
3.2885
3.3788
3.3521
3.3983
3.4405
3.3901
3.2914
3.4037
3.2809
3.4644
3.5777
3.8044
3.6471
3.5427
3.432
3.2777
3.2881
3.4495
3.1073
2.8822
2.7837
2.7798
2.4707
2.161
2.0857
2.5054
2.3496
2.3845
2.6018
2.4036
2.3553
2.3841
2.5718
2.6618
2.717
2.8772
2.6848
2.8859
2.6966
2.517
2.7936
2.7726
3.0365
3.456
2.9873
2.6252
2.2927
2.2994
2.2581
2.2526
2.3721
2.1578
2.1162
2.1106
2.2969
2.241
2.4042
2.4504
2.4617
2.3639
2.2601
2.3632
2.3542
2.266
2.1156
2.0847
2.1761
2.2306
2.2837
2.4703
2.4588
3.0395
3.1656
3.0523
3.3617
3.2577
2.6965
2.7308
2.7497
2.7016
2.8068
2.9558
2.9261
2.8774
3.0513
3.1219
2.9454
3.177
3.1921
3.1266
3.2733
3.4058
3.53
3.2054
2.9825
2.9602
2.9325
2.9219
3.0689
3.0692
3.1095
3.1486
3.1404
3.0659
3.1951
3.4424
3.4902
3.4413
3.4209
3.2132
3.2637
3.1283
3.157
3.2283
3.0952
3.1269
3.2947
3.3348
3.1985
3.2123
3.3594
3.5006
3.5752
3.4115
3.2847
3.4162
3.2587
3.3838
3.4521
3.4508
3.5217
3.5231
3.7661
3.8807
3.8336
3.6718
3.6083
3.3619
3.2191
3.2571
3.2067
3.2958
3.4895
3.5383
3.5643
3.6783
3.5791
3.5646
3.4513
3.2799
3.3094
3.3384
3.4541
3.3203
3.3512
3.3021
3.0292
3.2795
3.3368
3.2799
3.2905
3.2218
3.1052
2.9239
3.1885
3.4224
3.1877
3.2996
3.3823
3.3147
3.4242
3.4487
3.6279
3.3849
3.5851
3.6398
3.6639
3.5122
3.5938
3.5566
3.2713
3.1362
3.1359
3.2412
3.2032
3.1432
3.1446
3.228
3.2309
2.9324
2.6845
2.6478
2.5491
2.5256
2.4242
2.3555
2.5426
2.5
2.8222
2.7445
2.7346
2.8573
2.9145
2.9593
3.0164
3.0935
3.2253
3.1345
3.2133
3.1935
3.2546
2.9922
3.1527
3.1617
3.1803
3.2084
3.2535
3.2695
3.3029
3.38
3.4149
3.2504
3.4409
3.3147
3.4321
3.4382
3.3134
3.2077
2.9038
2.9888
3.0253
2.9619
2.8733
3.0637
3.1869
3.1115
2.8645
2.7829
2.8091
2.9242
2.9878
2.8493
2.9586
2.8849
3.0777
3.1901
3.1623
3.3955
3.4021
3.4494
3.3906
3.1594
3.2415
3.0934
3.293
3.3517
3.1863
3.1695
3.2579
3.4624
3.4793
3.4486
3.669
3.726
3.5226
3.3909
3.2748
3.2272
3.1636
2.8315
3.0205
3.3192
3.0937
3.0353
2.9673
3.1105
3.2392
3.1176
3.222
3.3188
3.0877
3.0736
3.1045
3.0926
2.7725
2.7957
2.9166
3.2427
3.1767
3.2072
3.3567
3.3849
3.3416
3.2877
3.2538
3.481
3.2957
3.256
3.1582
3.3002
3.3099
3.483
3.5532
3.7679
3.853
3.7145
3.5568
3.4954
3.4645
3.4684
3.4879
3.5858
3.6314
3.6421
3.7425
3.7773
3.8296
3.7434
3.7327
3.6805
3.7568
3.6683
3.4846
3.3416
3.1294
3.2396
3.4481
3.4743
3.3446
3.1712
3.2856
3.078
2.9482
2.9716
2.991
3.2792
3.4559
3.5527
3.4434
3.4001
3.4669
3.7046
3.7124
3.6878
3.4945
3.4691
3.4843
3.6473
3.6667
3.6645
3.7591
3.6481
3.6593
3.7981
3.7375
3.7129
3.6577
3.708
3.756
3.8765
3.9368
3.8401
4.0303
3.9973
3.9789
4.0469
3.9481
4.0516
3.8265
3.6422
3.5307
3.6203
3.573
3.4047
3.5084
3.4907
3.5488
3.4554
3.4843
3.6282
3.4971
3.3781
3.1881
3.2996
3.4002
3.4383
3.4179
3.5098
3.5752
3.5786
3.4952
3.4539
3.507
3.6355
3.597
3.4364
3.4065
3.3684
3.3487
3.426
3.5478
3.5823
3.543
3.4803
3.5024
3.4192
3.4552
3.5634
3.5746
3.764
3.8199
3.5123
3.5074
3.4327
3.4545
3.513
3.6418
3.6728
3.7248
3.6481
3.6008
3.6016
3.4394
3.8104
3.5017
3.418
3.3506
3.3768
3.4877
3.4965
3.5324
3.4272
3.4075
3.1874
3.2187
3.3584
3.4137
3.5066
3.4641
3.4846
3.4838
3.4615
3.4822
3.4061
3.4226
3.4018
3.4388
3.462
3.5524
3.5655
3.5621
3.5447
3.5044
3.4527
3.3805
3.3366
3.1799
2.9703
3.0662
2.9887
3.2339
3.2707
3.2465
3.1149
3.2411
3.1758
3.1403
2.9262
3.0101
3.0909
3.1317
3.2935
3.4148
3.6234
3.5972
3.5496
3.4427
3.4135
3.1907
3.3947
3.4248
3.4089
3.4652
3.4652
3.4368
3.4224
3.386
3.3982
3.4519
3.4316
3.2351
3.3167
3.1779
3.3187
3.4652
3.4664
3.3531
2.8592
3.0273
2.9243
2.9775
2.8942
2.9621
2.9525
2.6577
2.6446
2.8672
2.7863
2.7374
2.8261
2.7628
2.5736
2.6092
2.431
2.5743
2.7865
2.6859
2.5837
2.5571
2.4418
2.3939
2.4771
2.2829
2.2421
2.3324
2.4719
2.87
2.8916
2.8553
2.9087
2.8759
2.46
2.3272
2.3909
2.771
2.6071
2.4003
2.4904
2.4383
2.4163
2.5033
2.4793
2.2924
2.5075
2.6493
2.6485
2.6239
2.6671
2.6515
2.7542
2.7457
2.7335
2.8496
2.9524
2.8287
2.8596
2.8849
2.9375
3.1011
3.0612
2.9851
2.9385
3.0565
3.1338
3.0951
3.0698
3.0263
3.2543
3.3253
3.3102
3.4066
3.2356
3.2583
3.0895
3.1999
3.1931
3.2744
3.1887
3.1997
3.2154
3.1707
3.0751
3.1127
3.1556
3.1863
3.239
3.1277
3.0553
3.0781
3.2981
3.3768
3.5007
3.5153
3.5336
3.6674
3.6135
3.6037
3.7263
3.7863
3.7727
3.7392
3.7572
3.8942
3.9014
3.937
3.9532
3.9072
3.9901
3.9015
4.1118
4.07
4.0263
4.0981
4.1566
4.1104
3.9642
3.8252
3.6769
3.5477
3.2477
3.3144
3.3834
3.3746
3.4749
3.4198
3.6622
3.6186
3.4011
3.0159
2.9464
2.7848
2.8061
3.0135
2.9954
2.9325
3.0899
3.1482
2.9623
3.0922
2.9697
2.888
2.8855
2.7137
2.5361
2.4582
2.56
2.5043
2.7883
2.9023
2.8595
3.0989
3.3007
3.2276
3.1384
3.2413
3.3386
3.5768
3.4413
3.4867
3.3202
3.2478
3.3361
3.2004
3.1928
3.1064
3.1655
3.2043
3.3609
3.4423
3.33
3.3911
3.3321
3.2843
3.3959
3.3451
3.3233
3.2419
3.341
3.0938
2.7389
2.954
2.9735
2.9901
3.0641
2.8558
2.896
3.1612
3.0574
3.2348
3.3752
3.5728
3.5924
3.4992
3.5428
3.3865
3.5024
3.532
3.442
3.1764
2.9804
2.7574
2.6928
2.7722
2.7886
3.0802
3.1752
2.9991
2.881
2.9675
2.9463
3.0451
2.9939
2.8968
2.8206
2.8809
2.9215
2.9266
2.9505
2.9347
3.1424
3.2731
3.2775
3.366
3.0683
3.2171
3.2561
3.1512
3.0736
2.9586
2.906
3.006
3.0987
3.0552
2.998
3.1937
3.3816
3.0768
3.3031
3.5686
3.626
3.6673
3.5044
3.6434
3.7397
3.8213
3.8073
3.9105
3.8826
3.8398
3.7476
3.7146
3.5765
3.4929
3.4661
3.4185
3.4153
3.3464
3.4181
3.523
3.5597
3.6345
3.4872
3.5571
3.7329
3.6258
3.5835
3.7482
3.9399
3.6347
3.5683
3.5459
3.5395
3.475
3.3887
3.5988
3.4791
3.6362
4.002
3.8398
3.8254
3.6758
3.5489
3.7149
3.5831
3.4271
3.4579
3.3909
3.4064
3.5572
3.7689
3.7557
3.6365
3.822
3.7488
3.6768
3.6451
3.6278
3.599
3.4049
3.4493
3.6461
3.5902
3.7107
3.6753
3.7241
3.6206
3.4838
3.5049
3.4431
3.2974
3.2954
3.348
3.393
3.2541
3.1466
3.1227
3.0481
3.1309
2.9901
2.9845
3.0094
3.1008
3.2581
3.3203
3.5902
3.68
3.6584
3.6386
3.6813
3.6984
3.6778
3.6268
3.742
3.6773
3.6529
3.5422
3.4445
3.5683
3.6528
3.602
3.8651
3.9081
3.6033
3.6856
3.6935
3.8506
3.858
4.0918
4.1883
4.2453
4.0721
3.966
3.8876
3.7687
3.6268
3.636
3.7269
3.6217
3.521
3.6052
3.6899
3.6979
3.6908
3.7265
3.5501
3.1661
3.3824
3.5336
3.3617
3.3683
3.2095
3.3431
3.5
3.3043
3.4594
3.373
3.3394
3.2927
3.367
3.5507
3.5617
3.4928
3.4082
3.3707
3.2925
3.484
3.3413
3.4631
3.6076
3.7494
3.7712
3.6065
3.4744
3.5018
3.3934
3.3814
3.4334
3.4696
3.4528
4.0197
4.0173
3.9437
3.61
3.5471
3.53
3.6155
3.6266
3.7497
3.7656
3.6663
3.6081
3.4444
3.4335
3.491
3.4459
