0.10746
0.12208
0.12522
0.11087
0.12137
0.12404
0.13501
0.12921
0.12658
0.11896
0.12856
0.11744
0.1168
0.11992
0.13534
0.12533
0.11851
0.12102
0.11633
0.12357
0.11926
0.12246
0.11627
0.11536
0.12395
0.11812
0.10876
0.09575
0.10432
0.10719
0.10529
0.11437
0.10381
0.10862
0.1081
0.11507
0.11571
0.11066
0.11778
0.10928
0.10358
0.10707
0.10778
0.1031
0.10479
0.096151
0.094875
0.093446
0.096733
0.11024
0.10538
0.10664
0.10765
0.114
0.10497
0.10418
0.10736
0.10471
0.11003
0.10567
0.10391
0.093327
0.096009
0.08526
0.085856
0.091429
0.082122
