21.156
21.051
23.058
22.55
22.258
22.414
23.365
24.404
25.709
23.275
20.903
23.307
23.354
23.043
24.629
22.468
25.418
25.736
25.957
26.003
23.783
21.76
22.462
26.672
28.21
27.774
28.373
29.414
27.915
27.711
27.073
25.696
28.187
29.431
29.366
30.149
27.57
27.714
27.234
26.601
26.077
27.297
28.328
28.553
29.211
30.663
32.032
30.877
30.946
30.947
29.854
32.024
32.403
29.383
29.815
30.026
30.669
32.08
34.104
31.953
33.051
33.412
31.998
33.068
34.06
32.055
30.6
29.408
28.212
28.424
28.654
31.09
32.312
32.351
33.527
34.368
34.62
35.773
33.45
34.167
33.847
32.757
33.073
34.581
32.654
33.599
33.631
30.957
31.328
34.479
34.6
34.93
34.384
34.128
35.623
36.449
36.54
34.653
32.946
34.214
35.95
37.732
36.087
36.082
33.887
35.556
35.654
36.626
36.293
34.208
34.359
33.888
35.338
34.607
34.89
35.693
33.368
33.96
36.013
35.436
33.879
33.85
33.159
35.024
36.123
36.893
35.926
35.771
35.889
36.683
38.422
38.437
35.618
35.924
37.157
40.121
39.142
37.942
36.985
37.417
37.278
37.195
38.593
38.053
36.637
37.488
38.507
37.781
36.725
34.604
36.039
35.45
37.183
37.488
37.577
40.215
38.3
36.238
36.481
38.247
40.686
41.857
39.963
40.407
40.657
42.801
39.606
39.209
39.524
38.01
37.325
34.498
34.751
36.29
35.05
34.396
34.658
36.88
34.381
35.413
35.568
36.177
34.016
34.747
35.248
34.021
33.893
33.74
33.71
33.414
31.903
33.192
33.234
33.011
32.647
32.258
29.97
30.663
30.46
29.854
28.742
29.136
28.147
30.865
31.772
31.777
32.346
31.587
30.804
30.914
30.394
30.912
30.052
29.362
29.928
28.36
29.471
31.021
31.742
29.556
30.328
31.564
32.778
32.412
32.918
32.488
31.951
33.289
33.831
33.243
32.828
33.81
33.414
34.29
35.746
35.764
35.578
35.659
35.792
35.934
34.164
35.683
35.774
36.374
36.351
37.569
36.475
37.491
38.382
35.966
36.959
36.384
37.256
37.214
35.529
34.095
34.056
33.856
33.823
34.619
33.806
32.648
32.295
31.551
32.249
31.944
32.689
32.646
31.595
32.113
31.409
32.05
32.874
33.347
35.068
33.41
33.169
32.351
31.629
31.861
31.796
32.552
32.302
31.211
33.914
32.519
33.604
33.952
33.115
32.777
32.706
33.199
33.778
33.946
34.788
34.699
36.655
37.428
40.591
40.634
37.627
36.733
36.565
36.159
35.876
35.366
35.063
34.895
34.406
35.412
34.506
33.72
35.247
35.292
35.042
34.77
34.153
32.581
33.683
34.027
34.555
36.267
36.388
36.843
38.078
37.951
37.921
38.457
38.649
38.471
41.609
43.777
39.983
38.953
39.101
38.444
37.825
39.729
39.329
39.276
40.752
39.751
37.974
39.236
36.797
38.538
40.138
38.688
37.443
37.575
36.888
37.677
38.749
38.558
40.846
40.713
39.372
39.04
38.9
38.77
36.285
36.036
37.742
39.962
39.248
39.285
37.481
36.617
35.509
35.408
35.782
37.772
38.373
37.524
38.375
40.785
40.792
41.231
41.208
41.352
41.385
41.219
40.514
41.283
40.399
39.945
41.21
39.971
39.046
38.493
37.273
36.863
38.589
38.982
40.568
41.669
42.089
39.499
40.803
43.367
40.468
38.618
39.523
40.989
41.074
38.255
38.287
40.261
40.381
40.129
41.764
41.651
41.549
42.753
43.971
44.899
44.768
43.598
41.711
40.691
39.695
40.603
43.321
45.757
43.845
43.256
42.649
41.278
43.007
43.478
45.171
44.516
42.726
42.322
43.712
41.976
41.952
41.974
43.673
45.174
44.82
44.72
45.69
42.671
42.762
42.787
43.83
42.216
42.217
43.133
42.774
41.167
40.668
40.14
39.632
40.062
41.361
38.28
38.269
37.955
37.225
38.265
39.023
38.675
38.777
37.608
38.079
36.01
37.306
37.234
35.221
36.099
36.147
35.551
35.753
32.799
33.573
33.111
34.364
35.451
35.574
34.653
35.933
36.446
35.932
35.485
36.028
35.972
33.347
33.266
32.923
33.055
32.58
33.513
33.784
35.157
35.222
35.7
34.782
35.312
35.03
37.643
38.407
36.859
34.848
35.149
35.254
35.404
34.971
35.125
37.578
37.626
37.832
39.414
37.005
37.082
36.958
36.895
38.296
38.35
38.115
38.775
37.42
36.444
37.54
38.416
39.517
38.973
36.557
32.621
31.971
32.595
33.383
35.573
38.292
37.461
35.282
35.781
35.422
40.521
40.32
42.12
39.637
40.346
38.725
39.726
39.344
39.056
38.847
37.2
38.826
38.517
37.087
37.392
38.865
38.593
38.483
38.758
39.158
38.381
38.438
39.339
38.788
37.708
38.368
39.466
38.492
40.272
