0.043182
0.061744
0.088375
0.07656
0.12117
0.086716
0.087612
0.081992
0.046155
0.081492
0.090729
0.086993
0.041306
0.025851
0.050686
0.040199
0.06656
0.08175
0.10262
0.1135
0.10375
0.13928
0.15682
0.22227
0.20393
0.1295
0.234
0.26102
0.25494
0.22768
0.21268
0.20576
0.1931
0.19466
0.19432
0.20291
0.17258
0.18099
0.1782
0.23831
0.20268
0.22277
0.17916
0.15779
0.17575
0.18943
0.16077
0.20107
0.18427
0.19716
0.20446
0.20195
0.17842
0.18012
0.17921
0.16566
0.18291
0.1809
0.15703
0.16121
0.15147
0.11235
0.12813
0.13901
0.13196
0.09589
