8.5075
10.145
11.368
11.766
11.679
11.343
11.358
10.068
9.5669
9.6127
8.9317
10.174
11.016
9.7121
9.78
7.7992
6.8207
5.9834
5.3348
3.9212
4.8131
3.9584
3.031
2.2312
2.2821
3.3117
1.9109
1.9798
3.1532
1.5869
2.4365
2.0445
2.5214
2.0273
2.9047
3.0202
2.6547
1.9463
1.1399
1.7506
2.2124
2.2477
2.7342
3.5136
3.4394
3.6596
3.7297
4.4634
4.1478
3.0695
3.3077
3.7106
3.781
2.6127
5.1592
4.9968
5.0955
5.2724
4.9457
4.6477
7.2589
5.6011
6.8403
8.5082
8.3028
8.8274
6.9818
6.4006
5.982
7.2739
6.9664
7.0146
7.6346
7.6311
7.3296
7.6769
6.5952
6.0312
6.9576
7.8263
8.0596
8.9907
9.0782
10.656
10.892
10.179
9.9767
9.1553
9.8659
10.324
9.6917
8.7992
10.343
9.1032
10.122
10.685
10.318
10.506
9.5577
10.355
10.172
10.347
11.068
9.7972
8.8006
6.7184
7.7828
8.7044
8.1005
7.0888
6.2431
6.4309
6.3154
5.4333
6.1525
5.3954
6.6014
6.0575
6.1175
6.9743
4.4114
5.3993
4.9956
3.4613
5.7569
4.3625
4.2331
4.1894
4.9481
4.436
3.7827
3.7379
4.5232
4.5966
5.5008
5.4384
5.0191
5.834
5.6643
6.5981
7.1331
8.5456
9.5941
10.008
10.058
8.0514
6.6893
5.7523
5.6315
3.197
3.7438
5.1047
4.6183
4.3552
5.5499
4.3733
4.7395
4.0699
3.6692
4.6649
3.7375
3.674
2.2041
3.5639
6.7709
8.3336
8.1833
7.3638
8.085
8.0371
5.6002
6.7439
6.0744
6.3225
5.7807
4.2527
4.4522
5.7455
5.1242
5.8216
6.3071
5.7778
5.6552
7.2314
7.0948
4.6372
4.3425
5.1736
4.5866
4.6335
5.9902
6.4864
5.3868
6.1147
6.6369
6.6913
6.6748
7.7641
7.8304
7.6244
7.3794
5.6503
6.7109
5.8676
3.8836
1.5953
0.70306
1.0514
2.0137
2.0648
2.215
1.8259
2.4939
3.1458
2.894
2.8433
3.5161
3.1049
2.4313
2.5537
2.7684
4.5393
4.2433
4.5691
5.3015
5.2359
4.1589
3.7007
4.0778
3.9231
3.9908
3.7995
3.6245
3.41
4.0283
3.8872
4.7065
5.1508
5.6368
5.2022
7.3282
7.0082
7.168
6.5554
6.7545
8.3258
7.1678
6.1866
6.0877
4.8069
3.5246
3.1638
3.746
3.494
4.5307
5.1314
6.0295
5.2588
4.5148
6.896
6.1974
6.707
6.3147
6.2437
7.6429
6.9433
7.2762
7.2872
8.1181
7.9279
7.6155
7.9188
6.7041
5.1212
5.2552
6.3625
6.4037
5.3502
5.857
5.8718
7.0965
6.1637
4.4361
5.7568
5.6833
6.5108
7.4992
8.6374
8.5927
8.012
7.1076
6.2346
6.6816
5.6779
2.6419
2.648
5.5686
6.2465
5.5667
5.2816
5.0075
4.4363
4.7693
3.1414
4.6929
6.173
6.6079
6.6249
8.1555
8.5223
8.6656
9.0868
9.5061
8.7284
6.4496
7.3088
5.9333
3.6652
3.5035
5.1408
6.0774
8.6018
8.3928
7.5948
7.9552
6.421
7.0016
7.7684
8.4738
7.9759
8.3665
8.4816
8.3008
7.8784
9.1572
8.8149
8.9613
7.9881
7.6436
8.4242
7.2414
9.1087
9.0525
9.6587
8.3662
8.6059
8.4756
6.8184
7.0496
6.7331
7.0003
7.8118
10.345
10.811
10.613
10.476
9.1884
9.5705
8.9856
8.8453
8.3697
7.2215
6.3331
6.2913
6.9429
5.4239
5.8195
6.3742
5.7026
6.3987
6.9717
7.0229
7.3855
8.3622
10.002
10.204
10.064
10.044
11.311
11.822
10.296
9.0245
10.491
10.981
11.238
10.497
10.443
9.4425
9.776
9.78
9.0992
9.1837
8.887
7.9698
7.4704
8.4354
7.8197
9.2058
10.675
11.215
9.462
9.4861
9.4123
10.173
9.8952
10.197
9.7564
9.7784
9.0046
7.5985
8.109
7.8182
8.0632
6.6694
5.8031
6.8405
8.2896
9.4331
7.4489
7.3947
7.0163
8.8601
7.9223
7.4336
6.2263
6.7566
7.5849
7.6736
8.5061
7.9256
7.3556
6.5226
6.3676
4.8411
4.0027
4.0737
4.4572
5.3171
4.5454
5.0961
6.4417
7.7616
7.5943
7.7634
7.5941
6.5487
6.4816
6.4221
5.8946
5.6624
6.9714
5.7957
5.7415
5.8532
5.3484
5.5188
5.5871
4.9927
6.0731
6.5433
7.1518
8.513
8.8642
8.395
9.1334
8.2418
7.0631
7.8428
8.2749
8.4909
9.7534
11.903
11.719
12.598
11.925
12.3
12.321
12.386
12.254
12.391
12.604
12.249
12.343
12.237
12.016
11.74
11.827
11.767
11.704
12.014
12.201
11.753
10.396
10.946
10.301
8.6268
9.4601
7.8386
8.7741
9.33
10.088
9.9042
9.0761
7.8596
7.9825
10.421
11.167
11.28
9.7569
9.7162
9.5121
9.2852
9.4666
8.7205
7.6329
5.3006
6.0871
5.952
5.0809
5.3856
6.2347
6.5062
5.0992
6.0364
7.0478
7.0532
8.0439
9.1222
9.9489
10.187
11.165
11.949
10.025
9.5556
10.259
10.359
10.609
11.593
11.753
11.223
11.649
10.943
11.213
11.173
10.61
9.9743
8.8846
9.6923
9.9417
10.462
10.823
11.75
11.482
12.557
12.11
12.6
12.393
11.707
11.414
11.519
11.587
10.755
10.93
12.755
13.387
13.69
13.411
13.458
13.348
13.309
13.293
11.001
8.2184
8.7587
8.2796
7.7649
7.9996
7.733
10.533
12.582
13.339
15.092
14.593
15.238
15.423
14.795
14.393
13.095
13.651
13.356
13.126
13.792
13.756
14.082
14.047
14.307
13.64
13.345
13.262
13.135
10.477
9.5613
7.6685
7.8724
7.7381
8.2295
9.4105
9.5033
10.18
10.25
10.616
10.968
11.869
12.998
13.791
13.895
13.911
14.167
14.69
15.178
15.079
14.949
14.5
14.773
13.172
13.51
13.257
12.924
13.022
12.682
11.743
10.257
9.7524
11.49
11.788
12.63
12.902
12.829
13.29
13.555
12.691
12.177
12.662
13.189
14.514
14.082
12.886
12.697
12.133
12.433
11.479
10.798
9.1186
9.6514
9.2881
10.188
9.3022
9.9559
10.454
10.681
10.339
10.087
9.8759
8.4376
6.8807
6.2257
6.8275
7.864
9.4164
10.245
10.27
7.7747
8.3518
8.668
7.2902
5.226
4.7462
5.458
5.822
6.8915
6.4511
7.4943
7.0924
7.2747
7.4812
6.6546
7.3925
7.0712
7.2888
7.7973
8.129
7.7325
7.8599
7.7231
7.5752
9.1084
9.9722
9.9045
10.335
9.9079
7.2948
9.4236
10.232
10.715
10.55
10.863
11.629
11.288
12.214
11.504
11.658
12.237
10.743
11.648
10.144
8.9617
8.4161
8.1649
7.9069
7.944
9.3168
10.565
10.103
9.4699
9.1963
9.6271
10.076
9.6248
9.4654
10.268
9.6676
10.291
10.982
11.11
11.514
9.9612
10.069
10.45
10.52
11.266
11.866
11.616
11.302
10.536
10.571
10.111
10.643
11.192
12.048
11.082
10.277
10.027
10.654
10.021
10.608
11.6
11.395
11.638
13.104
12.953
11.973
11.719
10.578
11.468
11.588
11.641
10.61
10.898
11.262
11.433
11.18
12.604
12.017
13.732
11.19
11.553
11.816
10.983
11.482
11.933
10.83
9.3631
7.2075
6.7852
7.9496
8.7196
8.9515
7.2547
6.3277
7.1287
8.1285
8.0788
5.1706
7.4828
7.7205
5.7928
6.6243
7.3276
0.017597
0.017597
8.8481
10.76
10.373
10.394
10.821
12.057
11.178
11.418
11.241
11.37
11.496
11.039
9.5454
9.8185
9.6349
9.6956
9.0175
9.726
9.5187
7.4794
8.2865
8.5874
9.2598
8.3239
7.4183
7.2206
6.5513
7.0038
7.0255
7.5421
9.1484
9.8409
9.5502
9.5247
8.9029
7.3822
7.1059
5.9814
6.1183
7.3542
6.8717
5.2699
5.0479
4.3799
5.7319
6.6861
6.7393
6.0846
5.8404
6.1008
5.7032
5.2039
5.2249
6.0934
6.4113
7.1757
6.7877
6.476
8.2454
9.4654
9.3349
9.6934
10.411
11.114
10.997
11.13
11.327
11.147
11.641
12.362
11.325
12.31
12.119
11.023
10.479
10.468
10.766
11.783
11.035
10.75
10.628
10.605
10.373
10.906
9.7253
8.7586
8.4938
8.2984
9.1164
7.787
7.1131
7.2945
8.1656
9.172
9.2636
8.8228
8.6127
9.1024
8.4069
8.4102
7.1163
6.1717
5.9132
6.734
6.776
5.5534
5.2273
4.4524
5.3618
5.9954
6.4403
6.8769
6.5316
5.745
4.7399
5.8974
5.7517
5.112
6.2943
6.1167
6.5964
5.3776
6.331
7.4039
8.0406
7.8807
8.4594
7.8495
6.7691
5.4588
6.0591
6.8239
9.1073
9.3013
8.7485
8.4104
8.0925
5.795
4.8649
6.806
7.5244
7.6488
6.5474
6.0755
5.8808
4.9375
5.8901
6.7279
7.8769
8.1501
8.1745
9.6087
10.269
9.8304
9.902
10.373
10.606
9.976
10.277
9.0608
9.37
9.1497
8.26
7.6936
9.0553
6.9971
7.1317
8.5188
7.9394
7.8899
7.9704
8.3965
7.8499
8.6542
7.5964
6.9202
6.4885
5.5274
5.516
7.0824
6.5236
5.9303
6.4334
6.9698
8.3096
7.6765
8.4662
8.8791
8.1687
7.3504
7.89
7.1148
6.7301
6.518
7.5548
8.1487
7.6445
7.6067
7.4528
6.5472
6.1249
6.4082
6.3504
5.4358
6.0136
6.3826
7.9635
8.4558
8.3954
8.9043
9.0041
9.2998
9.0389
8.8854
9.1253
8.4925
9.7127
8.7544
8.4489
8.4709
8.1699
8.1543
8.2451
8.6401
8.0039
8.6862
8.6974
8.7138
8.3889
8.8362
8.5232
9.337
10.244
10.167
10.464
10.632
10.79
10.545
10.419
10.105
10.166
9.6928
9.8258
9.7806
9.6304
10.06
9.9419
10.069
9.9263
9.2717
9.754
9.449
11.293
11.487
12.174
12.033
11.501
11.846
11.425
12.193
11.99
11.761
10.719
11.615
10.48
9.9685
9.9355
9.6612
9.925
9.9003
11.168
12.292
12.013
12.608
12.774
13.107
13.039
12.631
12.92
12.995
13.157
13.214
12.634
12.809
12.69
11.67
11.015
10.811
11.222
12.446
13.354
14.178
13.574
13.771
13.279
12.885
12.095
11.703
11.518
12.115
12.237
12.15
11.666
10.727
9.7214
9.2839
9.1879
9.1778
9.5778
9.7696
9.463
8.7455
7.9242
7.6494
6.2919
5.6384
6.078
6.1325
6.0801
6.937
7.8661
7.4406
8.8087
9.5158
9.3587
9.389
9.6987
9.1302
9.3229
9.4487
10.358
11.143
10.87
10.867
10.38
10.35
10.623
10.494
10.358
10.136
11.146
11.203
11.488
11.487
11.432
11.78
11.898
11.304
10.933
9.572
8.7095
8.4594
8.9578
9.8657
9.9128
10.071
11.068
11.623
11.638
12.211
13.032
12.885
12.81
13.454
13.3
12.873
13.102
12.806
13.449
13.691
13.885
14.235
14.182
14.222
13.847
13.319
13.785
14.03
13.482
13.44
12.553
12.91
12.763
11.898
12.242
12.682
13.005
10.618
10.322
8.8588
8.8373
7.9319
8.6778
8.9999
8.5726
9.2533
9.2264
8.9613
8.1248
7.9947
7.9777
6.6193
6.5624
5.5592
5.5217
5.4821
5.0801
5.2435
4.5278
5.0503
5.1265
5.5227
6.1255
6.5926
6.1619
5.1355
4.9215
4.8677
5.6715
5.148
5.4492
5.0584
5.1047
5.3785
5.4825
6.0367
6.4069
6.2107
5.9641
5.6293
4.6399
4.7905
6.5246
6.2257
5.8222
5.1567
5.427
5.9421
5.9667
6.3515
5.9986
6.1134
5.4077
6.2764
5.6648
6.2676
5.9692
6.0988
5.4593
6.0411
8.0728
7.1979
7.2776
6.4211
7.554
5.5338
5.6755
6.7826
6.3641
6.3964
4.3907
3.277
3.0697
2.1741
1.0872
0.80768
1.1245
2.5033
3.5239
3.5985
3.1623
3.1416
3.0227
1.7345
2.9685
2.956
3.2092
2.7553
3.2992
3.1637
1.8179
1.7695
0.90786
0.64812
0.14823
1.0205
1.4272
0.92697
1.7789
1.473
0.17154
0.39945
0.83274
1.7816
2.0213
3.7216
3.3998
3.1379
3.8427
3.6779
2.8637
3.3641
2.9764
4.3908
5.5509
6.1382
6.4438
5.4818
5.1565
7.0145
6.8513
6.4706
6.1057
5.5563
5.4723
5.4607
6.8925
6.4377
5.4373
3.1204
2.7035
1.9735
3.701
3.4847
2.2368
0.40595
1.6308
2.0702
2.4685
2.0244
3.2269
1.8736
2.2914
4.0078
3.5716
3.6121
3.6118
2.9459
2.4381
3.5348
3.3844
3.3051
3.076
2.2769
2.3047
3.2632
5.2286
6.517
6.8435
6.7606
7.2977
7.0515
9.0079
9.5456
8.8947
7.6379
6.5369
5.5807
6.9818
7.526
7.0398
8.2246
9.8238
8.9771
8.7567
8.4156
9.5067
8.4881
9.2574
9.7702
9.3552
9.0081
8.9721
8.5237
10.277
10.235
9.696
9.8711
9.2483
9.2401
10.115
10.259
10.776
10.659
10.759
9.9533
9.9854
10.549
11.313
11.036
9.8369
10.355
10.254
11.128
11.212
11.333
11.634
10.21
9.4965
9.6825
9.5822
9.6498
10.41
11.121
10.849
10.428
10.614
10.274
10.755
10.24
10.435
9.9029
9.5763
8.8615
10.008
9.4463
9.4264
10.39
10.448
9.9285
9.8401
8.0483
7.8129
9.3315
9.6728
9.1234
8.4825
9.4427
9.5637
9.716
9.2881
9.3192
7.756
7.8973
7.8625
6.5142
5.8229
6.3554
6.0121
5.9232
6.7132
8.0256
8.2142
8.8382
7.1297
6.3246
6.0615
6.7104
7.301
7.1721
6.7323
7.3367
7.8651
8.0564
9.3376
10.563
10.855
10.506
9.9654
9.4103
7.6613
5.2681
4.2797
3.2902
3.8868
3.2727
3.7451
4.6015
4.5294
5.1775
5.9007
6.2312
7.2428
7.1235
6.7558
7.1867
7.4204
8.594
8.7278
10.104
9.6413
8.9236
7.7892
8.4053
8.1222
7.412
6.9608
8.5918
8.7357
8.1343
8.423
7.2951
6.8583
6.9705
8.7905
8.472
8.6912
7.7786
7.927
8.3326
8.0243
7.9616
6.5359
7.9948
8.0219
8.0668
9.3366
8.9028
9.2323
10.094
9.7641
9.8031
9.2281
9.5178
10.107
11.406
11.283
11.174
11.406
11.794
12.392
11.882
11.31
11.875
11.815
10.603
10.294
9.1208
9.2405
8.8847
8.537
8.6127
8.6426
8.7186
10.203
9.8015
9.4118
9.5233
10.028
9.992
10.608
10.366
10.452
10.708
9.031
7.765
7.4183
6.8862
7.163
7.9297
7.5926
7.8366
8.3281
7.974
7.4862
7.2051
6.8526
7.5331
6.5362
6.5476
6.3876
6.716
6.3584
6.8343
6.3941
6.8684
6.0147
6.1677
5.5267
3.7897
3.7347
3.6505
4.3113
4.9237
3.7775
2.8775
2.9471
3.8603
3.8787
4.1728
3.9885
3.0751
2.9746
2.7085
2.6375
3.1899
3.4091
3.783
4.2727
4.7343
5.0084
4.3031
3.6496
5.5551
5.9322
5.7231
4.447
3.5719
3.0594
2.7941
4.0638
3.7518
3.7111
4.1867
5.9328
6.5232
6.4021
4.4681
5.103
5.1685
3.3568
2.9044
2.3813
2.7215
3.1776
3.5197
2.1367
2.2523
4.0671
5.0622
6.28
4.8339
4.5009
3.6613
4.5105
4.3841
5.3455
4.3226
5.2548
6.5413
6.2079
6.0243
5.9855
6.8769
6.3162
5.2101
4.8447
3.7405
5.173
4.5567
5.7554
5.8611
6.0407
5.7584
5.2152
6.0952
5.9908
5.6094
4.5567
4.3081
4.3511
3.9128
5.3697
5.3788
4.9132
4.9121
3.9141
4.3607
4.3496
2.5427
3.2536
3.9888
4.8328
4.5251
4.891
3.3356
4.6425
5.5543
3.7952
2.7011
3.1773
4.7766
3.1017
5.1391
5.1483
5.8057
6.0092
7.5448
8.3701
6.318
5.5655
5.629
6.1033
6.4922
6.0428
6.325
5.7924
5.8372
7.4535
7.5656
7.078
7.2697
6.9097
6.8418
6.0046
5.0749
5.7346
4.3037
4.2052
5.1707
5.522
8.0304
8.4937
8.9834
8.7058
9.5389
11.155
11.465
11.265
11.58
10.315
9.6491
9.6367
9.4586
9.1673
9.8126
9.583
9.1632
9.2647
10.145
10.747
10.878
10.264
9.9042
11.225
11.889
11.94
11.052
10.865
11.297
11.976
11.664
11.123
11.566
11.792
11.798
12.022
11.923
12.087
12.269
11.408
11.271
11.991
12.017
12.573
12.805
13.083
13.544
13.13
12.203
12.144
10.961
11.238
10.588
10.96
10.403
10.007
9.2989
9.2284
7.9203
8.3331
8.492
8.6162
8.366
7.9193
7.7408
7.8513
9.9154
9.1732
8.9888
8.7544
8.6305
7.1915
7.7025
8.5715
8.9274
9.7502
8.2787
9.2838
9.3327
9.994
10.549
10.302
10.572
10.391
10.942
10.465
9.4124
8.7704
8.8054
8.4556
8.2454
9.7103
11.241
10.446
10.742
10.756
10.449
9.5497
8.4057
8.8751
8.8165
8.7515
10.324
11.76
11.654
11.545
10.909
11.34
10.381
10.125
9.8768
8.6308
8.185
5.6111
5.6807
5.3783
4.898
5.1475
5.3569
5.0132
4.2122
4.3649
6.1843
6.5884
6.0964
5.3009
6.1199
5.3667
4.7096
5.8631
4.5209
5.0475
7.3945
6.9082
6.8551
5.6801
6.1003
7.9545
8.7519
9.3517
10.171
10.496
10.632
9.3837
9.1384
8.8194
9.4401
9.4828
10.74
9.677
9.5515
9.0696
7.9803
6.9758
6.548
6.2646
6.9596
5.6414
6.4458
7.1039
6.8776
6.8407
7.6328
7.8993
8.9681
8.839
8.6011
8.7612
8.7256
9.8357
10.3
9.9419
9.2417
9.9978
10.269
10.084
9.3597
8.6006
9.0671
8.6741
7.4789
7.663
8.1242
9.0638
10.018
9.7281
9.4416
9.4867
9.8977
9.5641
9.7663
9.0854
9.1193
11.162
10.95
10.959
10.423
8.7414
10.053
9.9585
10.902
11.75
11.221
10.998
10.555
10.584
10.734
11.003
10.003
8.1701
8.1802
7.2928
7.3913
7.2075
7.5275
6.5411
5.9356
5.7206
6.9457
7.5261
7.223
7.7642
8.1649
7.5914
6.7371
5.4826
5.0359
5.7261
6.1381
5.9456
6.5006
6.9024
6.0283
5.6088
5.8106
5.8968
4.9907
5.616
4.6368
4.3545
3.88
4.3093
3.869
3.7351
4.9906
5.4174
6.045
7.0487
6.4602
7.6962
8.7165
8.215
7.5743
7.8734
7.2014
7.708
6.3165
6.0496
4.0341
4.5122
6.7413
6.6456
5.5264
5.4605
4.1239
3.7011
4.1138
4.6502
5.4519
5.9027
5.9345
6.4902
5.7924
6.3894
8.469
6.5828
6.8427
6.7252
6.5508
6.8739
7.044
7.4618
7.9777
7.1959
7.4759
7.6222
8.308
8.1221
6.777
6.5561
6.8193
7.8031
7.7884
6.6386
7.2344
7.7592
6.9325
6.7604
5.9891
5.3904
6.1046
6.5432
6.6933
5.2097
3.7937
3.7179
4.7439
3.8691
4.3036
3.1747
3.5691
4.1785
4.567
5.5479
6.6571
4.0638
3.2686
3.0338
4.1904
5.4691
5.7408
5.5252
6.2755
6.3167
5.6784
5.2128
6.3496
6.4143
6.3986
4.8603
5.0617
5.235
5.5693
5.1292
5.3312
5.2722
6.6479
6.767
7.112
7.4303
7.1057
7.4075
7.606
7.0408
6.9792
7.83
7.7659
8.3677
8.0556
7.1759
5.1493
5.4459
5.1657
4.0162
4.9875
5.4929
5.0726
4.6633
4.4166
4.0343
3.9267
2.8875
3.3756
4.0124
2.9042
4.5832
4.6382
4.4895
5.8869
6.1949
5.935
5.9593
5.2184
4.7434
3.8038
3.8885
4.8182
4.5702
4.1102
3.7863
4.1093
3.7628
5.2748
5.593
5.267
4.6672
3.6625
3.9463
4.0278
3.4691
2.9682
3.4708
3.8125
4.0324
5.1427
5.4232
5.4201
4.772
5.327
6.2383
6.3858
6.8627
6.8158
5.9535
5.9245
5.5111
4.952
4.2594
4.277
3.6781
3.6378
3.242
3.3044
3.964
4.1343
3.5033
3.0621
2.5882
2.7002
1.5184
1.1188
1.6384
2.8651
2.4441
3.4337
4.873
4.9443
5.5673
5.6871
4.4701
4.7252
5.4524
5.2662
5.408
5.1474
5.2979
3.9768
4.315
4.0722
4.1676
4.1161
3.7469
3.6665
3.477
2.595
2.3747
2.3976
2.3127
2.0505
2.0198
1.689
1.9805
2.2881
2.0269
2.3347
3.3573
3.3144
3.2961
2.5936
2.4353
2.5752
3.6507
3.7151
3.3599
