23.857
23.871
24.164
24.176
24.092
23.761
23.23
23.179
22.684
23.14
23.698
24.278
23.649
23.973
23.911
23.875
24.201
24.053
24.157
23.774
24.403
23.792
23.765
23.04
23.102
22.367
21.635
21.56
22.009
22.646
22.626
22.572
23.057
22.5
22.063
21.922
20.568
21.456
20.934
19.619
19.797
18.352
19.153
19.095
19.743
19.553
19.153
19.168
