0.73996
0.79113
0.80951
0.74351
0.76098
0.76315
0.7244
0.7475
0.66971
0.66485
0.66334
0.65272
0.67024
0.65367
0.67801
0.60666
0.55457
0.57396
0.58379
0.46141
0.46929
0.46111
0.513
0.51682
0.61654
0.5942
0.60752
0.66168
0.7191
0.75521
0.77725
0.76148
0.75751
0.77239
0.7536
0.72954
0.67036
0.62612
0.6557
0.70188
0.68012
0.63993
0.67147
0.72039
0.70224
0.5871
0.50641
0.55635
0.56393
0.52868
0.47236
0.39204
0.41631
0.38091
0.39876
0.38519
0.41658
0.45014
0.44464
0.50944
0.58631
0.58637
0.49651
0.56314
0.64182
0.64419
0.62254
0.61355
0.60951
0.59014
0.52298
0.4446
0.51203
0.53885
0.52292
0.53831
0.5421
0.56535
0.49765
0.48659
0.48659
0.37156
0.36404
0.31747
0.35009
0.40723
0.41928
0.47181
0.48703
0.42879
0.51395
0.49012
0.4601
0.42184
0.36789
0.44084
0.47288
0.46862
0.47314
0.42893
0.41927
0.40539
0.34964
0.29197
0.30567
0.26875
0.23437
0.23355
0.24975
0.2121
0.1844
0.28883
0.26898
0.24552
0.27926
0.23587
0.23329
0.33667
0.32364
0.29074
0.3019
0.36774
0.30866
0.29246
0.3543
0.36519
0.42575
0.42738
0.43867
0.43166
0.42656
0.4935
0.5178
0.40887
0.48444
0.54485
0.55242
0.62726
0.62722
0.60989
0.5667
0.51638
0.58426
0.64424
0.69957
0.77408
0.68092
0.65037
0.57902
0.59761
0.65438
0.63293
0.64559
0.63955
0.66751
0.67718
0.64
0.62007
0.57695
0.5919
0.57731
0.51153
0.53356
0.58267
0.5258
0.55204
0.53253
0.54111
0.48813
0.57503
0.58325
0.58528
0.58616
0.59946
0.60835
0.60348
0.57727
0.53824
0.53629
0.47819
0.51432
0.54246
0.5469
0.5427
0.56223
0.48704
0.47665
0.44411
0.44791
0.48389
0.46589
0.40334
0.36761
0.39336
0.35867
0.34113
0.36689
0.32459
0.35525
0.38756
0.34596
0.444
0.38973
0.37934
0.35897
0.3943
0.43108
0.44152
0.43226
0.47281
0.50892
0.51072
0.50619
0.5113
0.45341
0.39841
0.45021
0.438
0.42999
0.42756
0.44532
0.42893
0.43232
0.46766
0.39134
0.36469
0.38336
0.42035
0.42482
0.42078
0.38298
0.36278
0.37776
0.36946
0.27602
0.25179
0.30252
0.2845
0.28756
0.24643
0.23991
0.22715
0.22583
0.14537
0.17821
0.18839
0.26488
0.28233
0.26616
0.24998
0.2575
0.2355
0.27441
0.28894
0.31063
0.27633
0.2849
0.33992
0.37248
0.42528
0.46054
0.44827
0.48018
0.49247
0.53074
0.53209
0.5202
0.49962
0.49033
0.50014
0.48912
0.39741
0.40206
0.41204
0.34819
0.40175
0.39454
0.37619
0.44269
0.44087
0.3815
0.37233
0.46783
0.43598
0.39743
0.42052
0.38472
0.37719
0.39758
0.43424
0.3445
0.35846
0.36175
0.34735
0.35268
0.31993
0.29867
0.31886
0.29258
0.32805
0.37484
0.37536
0.33028
0.2951
0.2996
0.32528
0.27763
0.29933
0.23992
0.21333
0.18426
0.20126
0.19947
0.19826
0.21801
0.212
0.14239
0.19681
0.22122
0.21866
0.21639
0.22348
0.2216
0.23854
0.28818
0.34501
0.35424
0.3805
0.37524
0.39405
0.38229
0.35192
0.32948
0.36267
0.33871
0.41342
0.4305
0.41881
0.37995
0.39076
0.35654
0.35982
0.3581
0.41267
0.34899
0.37134
0.38692
0.41439
0.4113
0.41463
0.35918
0.38198
0.38636
0.40385
0.41634
0.37398
0.40352
0.40381
0.39214
0.34191
0.39685
0.41271
0.45384
0.47596
0.50988
0.51148
0.51605
0.52375
0.52719
0.53856
0.52636
0.52018
0.53554
0.53792
0.55575
0.56935
0.57676
