0.24701
0.24989
0.23184
0.20586
0.18226
0.17692
0.18222
0.17771
0.15613
0.14501
0.13835
0.13408
0.13892
0.15347
0.16185
0.15828
0.14781
0.17106
0.15956
0.15919
0.15618
0.14091
0.12656
0.10267
0.12485
0.12615
0.10361
0.11585
0.12548
0.11577
0.11733
0.10809
0.098244
0.076147
0.07641
0.062884
0.041826
0.040092
0.040983
0.018223
0.029101
0.032326
0.043497
0.035641
0.04145
0.035563
0.049914
0.069443
0.061018
0.056315
0.06781
0.042167
0.069366
0.062285
0.054472
0.076312
0.068391
0.033837
0.053273
0.058347
0.070537
0.067892
0.036169
0.052837
0.080086
0.07279
0.050931
0.075622
0.095397
0.10209
0.12469
0.13642
0.12082
0.17252
0.18715
0.20453
0.23184
0.23209
0.23066
0.23337
0.24828
0.22629
0.22606
0.22576
0.25466
0.27534
0.2844
0.29022
0.28943
0.25782
0.25567
0.25618
0.25092
0.23963
0.22392
0.22052
0.23913
0.26642
0.26118
0.2686
0.26769
0.2711
0.2805
0.26461
0.23932
0.24168
0.23012
0.22986
0.24928
0.22076
0.21578
0.25511
0.23375
0.26534
0.27259
0.2892
0.29737
0.28775
0.3364
0.31856
0.31038
0.30268
0.3316
0.3303
0.32273
0.29053
0.2863
0.28309
0.27559
0.25258
0.23511
0.25999
0.23719
0.23955
0.25008
0.27425
0.28241
0.25962
0.23133
0.23113
0.2525
0.22159
0.21778
0.23157
0.2096
0.20451
0.17807
0.18825
0.19321
0.18719
0.195
0.21881
0.24087
0.24943
0.25816
0.27252
0.26783
0.24284
0.24639
0.30004
0.29706
0.26044
0.26061
0.24783
0.2599
0.25897
0.27236
0.28755
0.26886
0.27531
0.30193
0.29397
0.26902
0.24941
0.28199
0.29
0.29068
0.29621
0.3057
0.31587
0.32107
0.3084
0.3216
0.32487
0.32116
0.30657
0.31925
0.29549
0.3125
0.33721
0.34553
0.32275
0.29381
0.27347
0.24418
0.23649
0.23753
0.28731
0.29769
0.27176
0.25106
0.22226
0.23221
0.25447
0.24301
0.25194
0.24613
0.23786
0.2436
0.26266
0.26485
0.27409
0.29692
0.31208
0.30689
0.27937
0.27636
0.27065
0.261
0.28374
0.27117
0.28072
0.27618
0.28054
0.2892
0.26261
0.27599
0.27367
0.25984
0.24387
0.26377
0.25893
0.256
0.27256
0.25853
0.20853
0.17226
0.22167
0.16573
0.22671
0.23946
0.22078
0.21208
0.21787
0.24388
0.25405
0.24746
0.26923
0.29881
0.26649
0.24634
0.23351
0.24639
0.24314
0.25925
0.23739
0.25046
0.26447
0.24025
0.25398
0.27096
0.2591
0.2538
0.24902
0.25127
0.25789
0.25338
0.29894
0.31393
0.29534
0.29654
0.29912
0.28228
0.27122
0.24619
0.25721
0.26813
0.28827
0.2964
0.27019
0.25643
0.25686
0.27237
0.26329
0.26881
0.28494
0.31952
0.29619
0.31613
0.32835
0.30733
0.30775
0.34328
0.33054
0.28537
0.26963
0.29078
0.27491
0.27513
0.2775
0.19556
0.1972
0.20903
0.24821
0.21931
0.19158
0.19556
0.18958
0.21416
0.25029
0.26207
0.27313
0.29775
0.29599
0.28218
0.25948
0.29934
0.32627
0.36433
0.34333
0.36019
0.3944
0.38133
0.37699
0.36401
0.3985
0.41059
0.39467
0.4287
0.4515
0.40895
0.41778
0.44841
0.43902
0.3966
0.38225
0.38569
0.41691
0.40502
0.40591
0.39925
0.35026
0.32441
0.32606
0.32498
0.32804
0.32858
0.32732
0.32349
0.3104
0.26362
0.25229
0.25188
0.2439
0.22068
0.20555
0.18228
0.17894
0.19038
0.20736
0.21441
0.18598
0.17769
0.16243
0.16447
0.18069
0.17741
0.1426
0.12441
0.13151
0.13172
0.11811
0.09547
0.091979
0.066404
0.070013
0.070241
0.085699
0.089667
0.086814
0.056343
0.069389
0.045122
0.036515
0.043759
0.045492
0.050149
0.064277
0.047122
0.055202
0.061424
0.054097
0.041562
0.072627
0.083721
0.12162
0.14091
0.16483
0.10559
0.11994
0.12156
0.17472
0.14758
0.13303
0.15042
0.1549
0.15934
0.18705
0.21134
0.21514
0.24233
0.23833
0.24328
0.2513
0.24956
0.24504
0.28596
0.30538
0.27166
0.28156
0.27345
0.29715
0.3032
0.30773
0.29539
0.29615
0.27181
0.26206
0.28617
0.29809
0.29664
0.28397
0.28262
0.2922
0.30216
0.32083
0.33807
0.34917
0.35772
0.34481
0.33065
0.33597
0.31232
0.30278
0.28499
0.26359
0.23354
0.21974
0.23707
0.23015
0.23944
0.26031
0.27053
0.25572
0.22749
0.26638
0.25712
0.24229
0.25055
0.25907
0.27018
0.26188
0.25979
0.24422
0.23116
0.23322
0.20467
0.20657
0.1951
0.18547
0.20179
0.2103
0.19257
0.18045
0.12247
0.16809
0.16465
0.15052
0.17571
0.14653
0.16446
0.18439
0.19825
0.16891
0.22973
0.23962
0.23847
0.27286
0.27047
0.27664
0.2786
0.28477
