42.892
43.093
44.444
45.58
46.838
46.602
46.357
46.526
47.149
47.804
47.842
48.072
47.656
47.556
47.185
47.119
46.434
46.268
46.986
46.891
47.372
48.14
48.67
50.004
48.614
47.838
49.385
49.506
48.826
48.115
48.474
48.183
49.505
51.116
50.829
52.289
53.185
53.272
53.05
53.614
53.52
53.797
52.447
52.936
53.171
53.295
51.878
51.192
51.375
50.912
50.204
52.378
51.418
51.315
51.711
49.253
49.112
52.051
52.065
51.971
51.63
52.088
53.579
51.908
50.027
50.868
50.93
49.879
49.473
48.796
48.192
47.202
48.4
46.107
44.97
43.682
42.409
42.933
44.059
43.477
43.551
43.408
43.36
43.202
42.182
40.908
41.054
40.936
41.534
41.364
41.832
41.878
42.076
42.67
43.774
42.788
42.339
40.679
40.814
40.448
41.398
41.973
41.318
41.871
43.027
41.716
41.539
42.14
41.808
43.113
43.795
42.434
43.399
41.895
41.263
41.391
41.295
41.846
39.514
39.869
39.698
39.903
38.756
39.918
39.617
40.358
41.212
41.341
42.247
42.387
43.192
41.366
42.093
42.329
43.255
42.521
41.412
42.312
43.693
43.812
43.029
44.206
43.93
43.063
44.241
44.663
45.496
45.373
44.553
44.619
45.339
44.321
43.281
42.824
42.273
42.092
41.884
42.509
42.359
38.705
38.864
40.228
39.241
38.574
38.576
39.077
39.08
38.834
40.576
41.043
40.11
40.468
41.042
42.952
41.387
41.155
41.687
40.804
40.674
39.273
37.916
39.258
38.481
37.823
38.413
38.294
37.865
38.145
37.304
36.322
35.744
37.358
37.312
39.227
39.428
40.457
39.914
38.494
38.308
38.941
40.316
41.226
39.957
39.323
39.287
40.594
41.195
40.986
41.344
41.463
40.447
39.667
38.171
37.716
38.346
40.607
39.928
40.191
39.601
39.711
39.944
38.967
39.038
39.513
39.069
40.813
39.716
39.212
39.901
39.8
38.638
39.921
39.522
38.995
39.09
40.534
40.873
39.383
40.582
38.09
37.435
38.636
39.051
39.865
37.7
37.424
38.533
37.954
36.357
37.837
38.665
38.622
38.653
38.869
38.552
39.059
40.016
38.567
38.864
37.606
36.982
36.851
36.485
37.016
37.005
37.865
38.134
36.278
36.755
37.81
37.631
37.622
37.367
38.877
39.455
39.588
40.669
40.674
40.49
41.787
42.912
42.608
41.795
41.745
41.059
40.54
39.892
40.794
40.418
39.617
40.207
40.034
37.604
37.277
38.638
40.63
39.008
39.494
39.604
38.444
41.641
41.625
41.837
40.474
42.473
43.803
43.761
44.69
43.322
42.07
41.2
39.734
39.479
40.882
41.709
42.084
39.99
39.028
37.578
38.102
37.769
35.958
36.073
35.7
35.479
34.935
34.1
34.417
33.008
32.659
35.978
36.297
35.449
35.704
36.225
37.094
36.809
35.995
36.636
35.465
35.97
38.513
39.867
39.628
39.733
39.304
38.695
38.744
39.903
39.784
41.949
42.53
42.666
42.773
43.643
44.251
45.883
45.708
45.211
45.064
43.799
44.684
45.13
46.229
46.29
46.106
45.518
46.134
47.263
48.536
47.906
48.948
49.725
50.018
51.286
50.397
49.109
46.416
45.42
46.752
47.724
49.38
51.182
50.612
49.97
48.87
47.017
46.589
49.357
49.515
49.844
49.467
49.302
48.05
47.303
45.379
44.854
43.034
46.474
47.155
46.881
45.386
47.139
47.627
46.966
46.861
47.627
46.233
45.117
45.015
43.455
43.537
43.28
42.793
42.747
43.362
40.779
40.123
41.463
41.634
41.485
40.823
40.57
39.864
40.714
40.664
41.936
42.382
40.962
40.472
40.177
41.009
41.358
40.373
39.736
38.941
38.343
37.789
37.163
38.196
38.481
38.583
38.562
37.272
37.809
39.134
40.448
39.609
40.093
39.49
39.647
39.69
40.184
41.447
41.423
42.293
42.104
42.86
42.139
41.554
40.399
40.071
40.493
41.037
41.016
42.756
44.579
44.127
44.608
40.915
40.311
40.588
41.794
41.87
43.506
41.06
41.791
42.876
41.16
40.509
39.936
39.746
39.357
39.503
37.52
38.316
39.39
39.188
40.396
40.166
40.323
40.164
