0.071107
0.091692
0.070484
0.0716
0.081635
0.096107
0.073413
0.085731
0.088561
0.11072
0.11438
0.091674
0.070848
0.055778
0.049013
0.057573
0.042406
0.072466
0.10477
0.13769
0.16
0.12764
0.11361
0.13932
0.10815
0.10324
0.085158
0.07448
0.074407
0.092212
0.075495
0.074214
0.083827
0.061686
0.054387
0.041905
0.037259
0.040262
0.040899
0.0281
0.035386
0.019068
0.02936
0.017719
0.034613
0.036816
0.046957
0.049515
0.036807
0.031801
0.055901
0.081335
0.11185
0.1052
0.10818
0.10398
0.13106
0.13482
0.13646
0.14444
0.12364
0.13219
0.11562
0.14036
0.11052
0.14183
0.1078
0.089536
0.098741
0.070265
0.074263
0.05451
0.082613
0.069466
0.093805
0.12792
0.12724
0.11746
0.10819
0.11144
0.13897
0.14033
0.13021
0.13541
0.10843
0.12639
0.11429
0.10578
0.088796
0.095867
0.1007
0.12813
0.1074
0.12511
0.093683
0.082275
0.096076
0.05524
0.077939
0.12944
0.1399
0.12476
0.11066
0.1093
0.11327
0.12531
0.10099
0.14099
0.13565
0.14949
0.12633
0.14732
0.16633
0.16724
0.19684
0.1888
0.17033
0.19535
0.22466
0.22306
0.23911
0.1914
0.20361
0.22288
0.24391
0.23376
0.2177
0.23846
0.2668
0.2325
0.19081
0.16021
0.15756
0.21873
0.20751
0.26053
0.26118
0.26118
0.24686
0.24362
0.28792
0.27762
0.27663
0.29703
0.31791
0.27739
0.24735
0.25478
0.25256
0.22468
0.23674
0.27556
0.29601
0.3153
0.27967
0.24993
0.22124
0.18941
0.18881
0.17707
0.20804
0.20625
0.25352
0.30411
0.27435
0.33644
0.34573
0.36118
0.34445
0.35912
0.30667
0.29807
0.32574
0.33358
0.30558
0.3044
0.34544
0.2791
0.28143
0.31264
0.31465
0.28096
0.25697
0.22483
0.28778
0.29323
0.27914
0.27806
0.32307
0.31563
0.32536
0.34701
0.36094
0.33865
0.297
0.33728
0.33159
0.36268
0.35671
0.39124
0.36701
0.36449
0.36138
0.39206
0.38637
0.42396
0.41085
0.41266
0.40694
0.40861
0.41745
0.40958
0.41107
0.40145
0.40288
0.40053
0.40814
0.42784
0.45471
0.44016
0.48048
0.49967
0.49643
0.54236
0.53361
0.5057
0.49966
0.50614
0.50128
0.47297
0.46788
0.45399
0.43177
0.43682
0.43115
0.40277
0.40899
0.42596
0.43072
0.42435
0.35839
0.33067
0.32823
0.30683
0.29087
0.29019
0.2884
0.31772
0.30626
0.32694
0.35087
0.33854
0.3865
0.4116
0.40589
0.41129
0.39579
0.38559
0.36776
0.36593
0.38962
0.38931
0.34141
0.34891
0.32596
0.31711
0.30359
0.25671
0.18264
0.14126
0.16899
0.19493
0.21515
0.25413
0.24907
0.25711
0.29222
0.28948
0.28628
0.31154
0.29077
0.29987
0.26093
0.25283
0.20996
0.20364
0.21745
0.1881
0.17654
0.25232
0.23033
0.1874
0.18644
0.19667
0.19321
0.18229
0.2122
0.20777
0.17401
0.16803
0.15518
0.14531
0.12377
0.12402
0.10044
0.13829
0.14949
0.12795
0.13043
0.10103
0.096442
0.075144
0.078542
0.061074
0.07334
0.12046
0.10844
0.12141
0.10877
0.1237
0.085404
0.078781
0.068712
0.092904
0.091889
0.06471
0.065853
0.086623
0.073103
0.089235
0.073562
0.051384
0.078943
0.080659
0.07864
0.069646
0.078161
0.058712
0.064466
0.064163
0.099486
0.11004
0.11572
0.12463
0.099973
0.11209
0.11533
0.15531
0.14769
0.16272
0.15563
0.16882
0.17474
0.1864
0.19117
0.19511
0.18932
0.18422
0.17569
0.15717
0.14793
0.16836
0.17522
0.1637
0.15901
0.1603
0.16914
0.15102
0.12576
0.11653
0.11056
0.12421
0.14341
0.12194
0.13013
0.1864
0.17708
0.19208
0.19639
0.19922
0.18482
0.1669
0.13638
0.13973
0.11634
0.10267
0.1024
0.12262
0.13902
0.13829
0.15939
0.12688
0.12589
0.15943
0.14292
0.16318
0.15305
0.1228
0.12488
0.12854
0.15235
0.17928
0.15653
0.12634
0.14345
0.17582
0.19092
0.18036
0.15699
0.14205
0.14356
0.12418
0.11223
0.14737
0.12406
0.13543
0.16084
0.13865
0.14546
0.16378
0.16778
0.15003
0.16265
0.15707
0.15666
0.13384
0.10369
0.11012
0.12572
0.13554
0.12625
0.10343
0.10733
0.07552
0.074267
0.083795
0.089049
0.070933
0.10135
0.13048
0.14416
0.17342
0.16698
0.15603
0.15009
0.15215
0.14183
0.16331
0.18464
0.19023
0.19335
0.21949
0.18638
0.20781
0.21226
0.22657
0.22849
0.21295
0.20335
0.18364
0.1827
0.1749
0.18278
0.1658
0.1701
0.13093
0.11012
0.10658
0.13095
0.12778
0.13341
0.15469
0.14464
0.14038
0.13016
0.099238
0.092058
0.1184
0.13403
0.13917
0.13865
0.17368
0.1711
0.16616
0.1524
0.16897
0.18263
0.19055
0.23023
0.22051
0.2471
0.26084
0.27064
0.25157
0.22478
0.25405
0.24996
0.24902
0.25815
0.26854
0.27517
0.28394
0.2989
0.29532
0.31418
0.3308
0.31925
0.30314
0.30621
0.29071
0.29102
0.26971
0.24256
0.23049
0.20962
0.16514
0.18438
0.20856
0.22805
0.22431
0.23812
0.25723
0.24634
0.24785
0.26945
0.25364
0.24858
0.265
0.233
0.21886
0.23378
0.22837
0.25257
0.26779
0.25854
0.2851
0.24728
0.25996
0.26771
0.26525
0.2817
0.30147
0.2975
0.28662
0.28084
0.27918
0.26348
0.26082
0.24036
0.24913
0.25955
0.25012
0.24276
0.21327
0.22996
0.23999
0.20631
0.21316
0.21017
0.20224
0.19365
0.21616
0.20605
0.2515
0.2602
0.26471
0.24579
0.25719
0.29365
0.29897
0.3058
0.32207
0.31718
0.29625
0.33171
0.33407
0.32827
0.31972
0.30892
0.29113
0.28566
0.26194
0.30581
0.30908
0.32606
0.31854
0.30102
0.32986
0.32999
0.34175
0.26861
0.26467
0.26393
0.30703
0.30239
0.32208
0.30811
0.26309
0.26982
0.28656
0.26307
0.24445
0.25211
0.23868
0.20883
0.22893
0.23395
0.26671
0.26525
0.29206
0.25441
0.27408
0.29009
0.31023
0.32179
0.33298
0.28066
0.28575
0.29564
0.30443
0.28689
0.29042
0.2859
0.2917
0.28971
0.27252
0.2613
0.26738
0.27718
0.30474
0.30753
0.28009
0.25604
0.24049
0.23339
0.2414
0.28577
0.30671
0.3061
0.29757
0.28157
0.27907
0.24116
0.26797
0.27569
0.28477
0.28196
0.27961
0.28484
0.29316
0.28449
0.28888
0.29534
0.29495
0.3237
0.34611
0.35981
0.39236
0.37906
0.38607
0.40126
0.41313
0.43136
0.42121
0.41755
0.39156
0.36491
0.37323
0.36682
0.34368
0.33471
0.34468
0.35882
0.34797
0.35292
0.32185
0.32885
0.35793
0.32884
0.35158
0.3683
0.34378
0.34013
0.31697
0.32317
0.32983
0.32318
0.32878
0.35727
0.34327
0.35047
0.3201
0.30541
0.29502
0.31653
0.32701
0.31779
0.31279
0.30579
0.2899
0.32882
0.31968
0.34762
0.35814
0.36113
0.3437
0.31529
0.3378
0.34877
0.3856
0.39505
0.39129
0.40668
0.38839
0.3858
0.37709
0.35455
0.34077
0.3813
0.36968
0.36157
0.31075
0.3143
0.31114
0.32294
0.34706
0.38183
0.40604
0.42035
0.40849
0.39138
0.35832
0.3525
0.37892
0.35901
0.33863
0.33318
0.27959
0.29794
0.27892
0.2726
0.25557
0.26039
0.2594
0.25047
0.27778
0.28194
0.2864
0.26142
0.24445
0.24664
0.29149
0.27966
0.26896
0.24349
0.21331
0.20113
0.19765
0.19505
0.19181
0.16176
0.15096
0.12138
0.11468
0.11317
0.12914
0.10063
0.10607
0.1248
0.11075
0.14241
0.15704
0.14429
0.11976
0.14017
0.15735
0.14214
0.14776
0.13208
0.12072
0.13576
0.13131
0.15096
0.16276
0.16567
0.16245
0.16648
0.18478
0.18045
0.18264
0.18719
0.17671
0.15571
0.11525
0.097877
0.11395
0.090178
0.12394
0.12537
0.11632
0.12933
0.090332
0.087132
0.11106
0.071982
0.10641
0.08042
0.073075
0.07356
0.10135
0.082077
0.11322
0.11867
0.10633
0.082005
0.082196
0.073871
0.076845
0.09102
0.11965
0.13793
0.13261
0.12822
0.11334
0.15088
0.1157
0.13975
0.14838
0.17059
0.18582
0.15652
0.16856
0.19312
0.18811
0.19989
0.2096
0.19817
0.18863
0.18846
0.17235
0.17301
0.18703
0.20268
0.19463
0.1989
0.22035
0.22876
0.21545
0.21117
0.21301
0.18425
0.18774
0.18988
0.19516
0.18921
0.17215
0.165
0.16431
0.16824
0.18914
0.19315
0.19383
0.20834
0.21959
0.21704
0.21114
0.20742
0.20226
0.21344
0.21349
0.22342
0.20933
0.21383
0.21186
0.2246
0.23056
0.22971
0.2381
0.2268
0.24323
0.24129
0.22886
0.18721
0.17816
0.1583
0.14934
0.1527
0.16648
0.18508
0.18411
0.21567
0.21091
0.20607
0.23965
0.25102
0.2365
0.22521
0.24467
0.27825
0.29609
0.30611
0.28527
0.28844
0.27595
0.24803
0.24761
0.23731
0.22453
0.21368
0.19577
0.23086
0.22896
0.24241
0.26138
0.25983
0.2671
0.28649
0.27733
0.26304
0.26484
0.27035
0.2591
0.26774
0.27454
0.29694
0.2731
0.25407
0.27293
0.26731
0.25318
0.2299
0.26699
0.26157
0.26995
0.28102
0.252
0.24225
0.24737
0.25027
0.24719
0.27961
0.27392
0.27181
0.26743
0.2521
0.2596
0.26377
0.25903
0.27425
0.27476
0.25955
0.24765
0.22107
0.22581
0.22546
0.21488
0.22689
0.20561
0.18323
0.18022
0.18033
0.19441
0.21334
0.19517
0.1742
0.16829
0.18583
0.19793
0.19613
0.20942
0.18379
0.2112
0.20576
0.17183
0.1819
0.20665
0.20938
0.21031
0.20959
0.21995
0.22245
0.2087
0.19833
0.20042
0.18288
0.14623
0.14499
0.18326
0.19417
0.16834
0.14957
0.13318
0.11493
0.14769
0.15654
0.11927
0.10819
0.12725
0.13662
0.15593
0.16712
0.18184
0.17171
0.15239
0.13168
0.10497
0.11133
0.1086
0.10373
0.11262
0.11866
0.11565
0.10603
0.13213
0.12619
0.12545
0.14813
0.14378
0.14663
0.15243
0.15734
0.18259
0.19988
0.17437
0.18883
0.20615
0.26099
0.26243
0.22034
0.22823
0.23473
0.25794
0.27784
0.25249
0.22491
0.23016
0.21142
0.18743
0.19213
0.15448
0.16341
0.19655
0.20359
0.20464
0.24268
0.2149
0.23031
0.20249
0.2052
0.20078
0.21469
0.23325
0.22278
0.21656
0.23832
0.22812
0.22191
0.22863
0.22136
0.19834
0.18837
0.21342
0.22741
0.20226
0.21947
0.21615
0.19568
0.1747
0.14835
0.15204
0.16304
0.16814
0.18089
0.1847
0.16645
0.1485
0.13115
0.17496
0.1998
0.20878
0.2047
0.20355
0.2064
0.21213
0.21134
0.20333
0.2204
0.22616
0.22633
0.20892
0.20374
0.21899
0.20818
0.22884
0.24045
0.24033
0.26082
0.27256
0.27362
0.25232
0.23373
0.23195
0.24969
0.28292
0.25397
0.25923
0.25937
0.23068
0.22055
0.25896
0.23137
0.21575
0.23574
0.25741
0.25827
0.22731
0.23918
0.24667
0.26352
0.28333
0.28428
0.30937
0.31691
0.31171
0.3111
0.32214
0.32093
0.33977
0.34392
0.32777
0.31176
0.31718
0.33011
0.3457
0.35391
0.36838
0.40056
0.39563
0.39355
0.39155
0.39891
0.41182
0.423
0.4206
0.43433
0.44224
0.41365
0.40278
0.42308
0.44536
0.45096
0.43667
0.38258
0.37282
0.3968
0.39551
0.37892
0.37969
0.38557
0.40107
0.39483
0.40019
0.4004
0.41199
0.41831
0.41829
0.4624
0.44562
0.4424
0.47176
0.47169
0.47938
0.48313
0.47784
0.48272
0.47992
0.4619
0.43604
0.41855
0.41981
0.43209
0.4474
0.42854
0.43627
0.45072
0.42357
0.42846
0.41428
0.40958
0.41144
0.439
0.42718
0.45208
0.45216
0.45964
0.46503
0.47604
0.47142
0.47545
0.48055
0.46717
0.45362
0.45549
0.45377
0.47102
0.43023
0.43122
0.42574
0.39121
0.36174
0.37205
0.39937
0.39492
0.35378
0.35738
0.37724
0.37162
0.37056
0.35123
0.34087
0.30444
0.33928
0.33832
0.2913
0.2722
0.25069
0.25359
0.258
0.22338
0.2283
0.20567
0.19464
0.19711
0.20493
0.21418
0.22679
0.21319
0.20727
0.1709
0.16036
0.16156
0.17846
0.17446
0.16211
0.17116
0.17565
0.17716
0.18026
0.20105
0.18557
0.16811
0.17673
0.18758
0.21676
0.22129
0.20889
0.19744
0.16984
0.17163
0.16068
0.15224
0.15138
0.15329
0.1554
0.1728
0.181
0.18303
0.17784
0.15808
0.18026
0.15116
0.13144
0.15241
0.1448
0.14797
0.14744
0.14938
0.17054
0.1556
0.15187
0.1629
0.19933
0.20969
0.17923
0.1639
0.13447
0.12911
0.12033
0.12791
0.13658
0.18166
0.21127
0.18728
0.18347
0.15674
0.16686
0.17206
0.16695
0.14619
0.14848
0.16331
0.20383
0.21022
0.21691
0.2151
0.23821
0.26255
0.28994
0.27766
0.26882
0.24721
0.20374
0.24798
0.25311
0.22427
0.18848
0.18256
0.18476
0.15961
0.16787
0.18273
0.17168
0.18216
0.19027
0.18493
0.18744
0.21881
0.18089
0.19678
0.20602
0.19494
0.20432
0.2393
0.26672
0.24175
0.20174
0.2001
0.23533
0.2434
0.25613
0.24787
0.23295
0.23014
0.24377
0.26449
0.2715
0.28395
0.29225
0.26431
0.2709
0.26936
0.27556
0.28667
0.27083
0.25216
0.26853
0.25926
0.24803
0.23245
0.27227
0.27102
0.2291
0.23753
0.24307
0.24028
0.22588
0.23424
0.22254
0.22779
0.24513
0.25627
0.25893
0.22853
0.22574
0.23086
0.24151
0.22374
0.1987
0.17465
0.15436
0.14759
0.15842
0.1574
0.14187
0.13571
0.1461
0.15432
0.13712
0.13385
0.1201
0.11583
0.12419
0.11746
0.11434
0.12737
0.092245
0.08795
0.1154
0.12006
0.14098
0.14619
0.15068
0.14861
0.17631
0.15547
0.16838
0.19944
0.21472
0.20673
0.22702
0.22407
0.23615
0.24446
0.24551
0.26639
0.28507
0.25542
0.32482
0.33138
0.30589
0.30884
0.31422
0.29923
0.2972
0.27741
0.28619
0.27263
0.26843
0.24275
0.2141
0.23359
0.2161
0.19362
0.15496
0.16159
0.16897
0.17741
0.21031
0.21474
0.23501
0.23949
0.22719
0.23052
0.22859
0.21805
0.25332
0.22744
0.20847
0.23646
0.26641
0.26709
0.26817
0.28373
0.28058
0.27587
0.28151
0.28956
0.30206
0.30853
0.31272
0.32044
0.31683
0.33083
0.3295
0.32248
0.32431
0.33136
0.3434
0.30648
0.33469
0.35014
0.34933
0.33843
0.3533
0.35135
0.34346
0.36404
0.37613
0.37581
0.36553
0.3607
0.40341
0.40529
0.4204
0.4422
0.47779
0.48016
0.47695
0.47331
0.49034
0.50035
0.48954
0.47356
0.47498
0.47767
0.48252
0.47419
0.44276
0.43963
0.44887
0.46789
0.45185
0.41856
0.39896
0.36931
0.34699
0.34516
0.33618
0.34103
0.32973
0.33083
0.31274
0.31792
0.30675
0.31523
0.30743
0.31174
0.32228
0.32132
0.33197
0.33956
0.30938
0.33307
0.27968
0.25982
0.25693
0.23447
0.21834
0.22755
0.29673
0.33208
0.37955
0.38911
0.40376
0.42577
0.46576
0.45178
0.44363
0.45319
0.46509
0.46798
0.45478
0.45542
0.45143
0.44477
0.43481
0.41167
0.40704
0.41008
0.43722
0.42191
0.40982
0.38993
0.38444
0.36864
0.40242
0.40766
0.40266
0.37227
0.33469
0.30541
0.28929
0.29453
0.30429
0.29046
0.28494
0.29811
0.30298
0.29926
0.32066
0.32902
0.3116
0.30926
0.33136
0.33029
0.32772
0.33317
0.32177
0.31338
0.30967
0.30177
0.27468
0.26816
0.24664
0.24965
0.24378
0.26916
0.29319
0.25861
0.24795
0.23207
0.23767
0.2632
0.27099
0.28359
0.28852
0.25856
0.26242
0.2584
0.24091
0.24398
0.28055
0.24307
0.25603
0.22518
0.22363
0.22108
0.21302
0.20224
0.19961
0.20528
0.20713
0.19733
0.17116
0.15365
0.14942
0.12423
0.12562
0.14202
0.19623
0.2014
0.20611
0.20443
0.21632
0.24273
0.2346
0.24035
0.23255
0.19737
0.19291
0.22052
0.26097
0.26935
0.29734
0.27896
0.26716
0.24524
0.25767
0.29586
0.28723
0.30934
0.30772
0.28768
0.30563
0.29001
0.26761
0.28168
0.31134
0.31993
0.33397
0.33557
0.37978
0.37733
0.40598
0.43673
0.46851
0.47995
0.4915
0.51794
0.52449
0.52033
0.53937
0.51941
0.45735
0.47056
0.46603
0.45735
0.48968
0.49945
0.51161
0.51169
0.51642
0.55582
0.56182
0.57753
0.57274
0.56217
0.56464
0.59126
0.58524
0.58171
0.57736
0.59997
0.61478
0.59791
0.59653
0.62278
0.61056
0.58112
0.58674
0.57642
0.56343
0.56932
0.5887
0.5958
0.6018
0.60753
0.61912
0.60702
0.61072
0.60356
0.59826
0.56377
0.58137
0.58203
0.58096
0.59556
0.58087
0.57954
0.57239
0.55906
0.55794
0.55637
0.54329
0.55522
0.54582
0.53565
0.53976
0.52367
0.55415
0.55318
0.53468
0.54682
0.52572
0.52508
0.52102
0.51456
0.51556
0.52527
0.51918
0.51587
0.47963
0.45722
0.48864
0.52891
0.57471
0.56206
0.5467
0.53029
0.53415
0.53407
0.53348
0.52479
0.51321
0.51595
0.4902
0.41099
0.49516
0.51491
0.49697
0.46904
0.48987
0.48127
0.45838
0.45024
0.43389
0.43336
0.42858
0.42564
0.42137
0.4235
0.43298
0.41857
0.37129
0.39049
0.39418
0.40934
0.38709
0.40988
0.42262
0.42335
0.44148
0.46398
0.50238
0.51515
0.53157
0.54101
0.53489
0.54523
0.53064
0.51351
0.52704
0.53284
0.54479
0.56017
0.56341
0.5595
0.54399
0.50945
0.51455
0.49965
0.47881
0.4854
0.50709
0.5136
0.52512
0.48519
0.51014
0.49359
0.4817
0.48864
0.49171
0.49478
0.49733
0.51482
0.51679
0.50918
0.48678
0.47564
0.48905
0.48555
0.46187
0.45446
0.46995
0.47886
0.46983
0.46957
0.49502
0.49363
0.48579
0.47079
0.47114
0.46272
0.47372
0.47846
0.48147
0.46868
0.44459
0.44685
0.44772
0.45883
0.44207
0.4354
0.4286
0.42653
0.42874
0.44806
0.46855
0.47856
0.48414
0.48964
0.48722
0.48117
0.45544
0.4559
0.46084
0.44224
0.45944
0.46345
0.4669
0.46242
0.45341
0.4463
0.44153
0.45182
0.44506
0.453
0.42594
0.36962
0.36344
0.36238
0.37815
0.36839
0.39131
0.38419
0.3735
0.38589
0.36372
0.37542
0.38063
0.42166
0.40402
0.38797
0.36094
0.33687
0.328
0.32308
0.34043
0.3379
0.29388
0.244
0.23628
0.23734
0.2653
0.2853
0.28604
0.25105
0.25776
0.24478
0.23322
0.22548
