4.8302
4.9252
4.7724
4.7071
4.3855
4.3848
4.1144
4.3251
4.2034
4.1635
4.2678
4.1798
4.1519
4.3959
4.2246
4.2317
4.3903
4.5437
4.352
4.315
4.381
4.0713
3.7714
3.4451
3.0152
2.9882
3.3109
3.1924
3.2516
3.9812
3.8182
3.5043
3.8076
3.9717
3.8548
4.0737
3.9338
3.8253
4.0467
3.7592
3.6842
3.4868
3.5994
3.195
3.2923
4.1101
4.2695
4.3255
3.7925
3.8536
4.2218
3.9733
3.9918
3.927
3.5683
3.9379
4.0736
4.395
4.5176
4.0052
3.6193
3.6574
3.7008
3.6422
3.5906
3.4812
3.4123
3.7467
3.8326
3.5321
3.4268
3.2697
3.2522
3.3561
3.4271
3.6764
3.4077
3.6509
3.7937
3.9953
3.7286
3.7989
3.795
3.6147
3.6494
4.0123
4.071
3.8875
3.3966
3.2608
3.0729
2.7621
3.1726
3.7245
3.5945
3.2772
3.4224
3.5632
3.5263
3.6454
3.5229
3.9213
4.181
4.279
4.3893
4.515
4.3927
4.106
4.1768
4.0108
3.9631
4.1732
4.0353
3.8995
4.1653
3.9701
4.1716
3.9766
3.6268
3.7868
3.9784
4.4119
4.0026
3.3768
3.5864
3.5711
3.4891
3.4525
3.1902
3.1201
2.7066
2.9952
3.0127
3.0974
3.2021
3.6141
4.0007
3.6487
3.6325
3.4789
3.5921
3.2407
3.0347
3.2352
3.3152
3.7538
3.856
3.9758
3.6935
3.8743
3.7536
3.7037
3.8516
3.5489
3.6286
3.8093
3.7844
3.5915
3.7713
4.0241
4.0791
3.5722
3.7153
3.4897
3.4209
3.3467
3.2567
3.6908
4.0098
3.9279
4.488
4.4144
4.2084
4.2956
4.2788
4.1744
4.2089
4.06
4.4113
4.3916
4.6025
4.6205
4.3172
4.2819
4.3807
4.5322
4.4794
4.342
4.3704
4.4951
4.4114
4.4959
4.4234
4.7173
4.3687
4.3817
4.3268
4.3151
4.1693
4.1113
3.6794
3.8384
3.8714
4.0096
4.2476
4.2532
4.0678
3.8623
3.9091
3.342
3.4023
3.2791
3.5073
3.6989
3.7828
3.5398
3.4327
3.596
3.7963
3.8069
3.9302
3.967
4.0625
4.4922
4.5008
4.3416
4.2279
4.2127
4.0062
4.0721
3.9703
3.7594
3.3437
3.8835
4.0855
