4.0914
3.6014
4.703
6.4009
9.4483
9.738
10.07
9.528
7.8937
7.4503
11.025
11.294
10.581
9.1459
9.6573
10.141
12.34
14.274
15.125
13.88
11.87
9.0463
8.2937
9.4546
10.047
8.8162
4.4381
5.5223
2.4723
2.894
5.0168
4.8681
3.146
1.4045
2.9027
