0.087228
0.081323
0.10634
0.14055
0.20438
0.20267
0.20716
0.19288
0.16987
0.15206
0.21871
0.22802
0.21198
0.19454
0.20457
0.20849
0.23602
0.28318
0.28481
0.26901
0.22534
0.17441
0.16462
0.19675
0.20295
0.17451
0.091003
0.1099
0.049149
0.059427
0.097949
0.092149
0.059069
0.026945
0.058627
