0.18571
0.20025
0.23048
0.22632
0.21548
0.21086
0.21349
0.21177
0.22146
0.22019
0.21114
0.21158
0.16712
0.13824
0.14753
0.16486
0.20228
0.21823
0.21162
0.18324
0.17032
0.16933
0.17321
0.17925
0.14718
0.13062
0.10787
0.089351
0.073123
0.058581
0.046134
0.04872
0.039157
0.048244
0.0525
0.056877
0.050682
0.04693
0.024439
0.056942
0.066421
0.05259
0.03522
0.0865
0.043416
0.056057
0.062913
0.072079
0.083741
0.069236
0.066555
0.057111
0.087256
0.095797
0.069623
0.068263
0.032263
0.04096
0.028311
0.0086387
0.0082638
0.028571
0.020328
0.01423
0.030046
0.028954
0.019346
0.04655
0.012329
0.0086224
0.038581
0.039705
0.012282
0.046429
0.07199
0.033026
0.013776
0.027119
0.036524
0.026288
0.016614
0.033834
0.016071
0.046815
0.014651
0.054698
0.039454
0.033028
0.055447
0.057779
0.10828
0.14697
0.16957
0.16973
0.15916
0.14067
0.1387
0.081175
0.12492
0.12102
0.14849
0.15801
0.2102
0.20264
0.22003
0.27199
0.21567
0.17766
0.23776
0.25353
0.27934
0.23598
0.24849
0.27064
0.27383
0.26905
0.26856
0.26013
0.26021
0.26378
0.23473
0.24253
0.2416
0.23009
0.22652
0.22268
0.22067
0.23529
0.23177
0.1915
0.16382
0.14831
0.19015
0.17569
0.15863
0.14629
0.15779
0.18283
0.17052
0.15164
0.13637
0.13535
0.12608
0.13584
0.14634
0.13615
0.15924
0.14781
0.11186
0.1179
0.074954
0.099908
0.080527
0.075942
0.077018
0.079668
0.072459
0.048
0.0479
0.06633
0.091205
0.08584
0.071581
0.05856
0.050282
0.039864
0.033881
0.037396
0.053848
0.038677
0.045111
0.032143
0.039423
0.041105
0.044066
0.076202
0.093279
0.099171
0.067418
0.085062
0.052621
0.078755
0.065141
0.061894
0.081895
0.10886
0.1194
0.090649
0.1101
0.07988
0.064023
0.073914
0.054051
0.055073
0.042631
0.03389
0.04245
0.052777
0.045685
0.048224
0.038096
0.079083
0.098061
0.10361
0.077893
0.07274
0.091533
0.070124
0.08923
0.095386
0.11217
0.091703
0.071735
0.060876
0.088356
0.090779
0.10297
0.10174
0.11777
0.11494
0.10608
0.078861
0.05126
0.058762
0.093631
0.080106
0.078051
0.10585
0.1227
0.12433
0.13243
0.12671
0.11907
0.083444
0.085523
0.081973
0.084756
0.083884
0.06905
0.063404
0.077726
0.066173
0.047348
0.063196
0.061333
0.066266
0.064176
0.059621
0.096618
0.087562
0.10795
0.10511
0.095719
0.093491
0.13442
0.13153
0.13525
0.11958
0.11516
0.091364
0.098954
0.10853
0.050466
0.067011
0.065419
0.078177
0.085077
0.069152
0.047639
0.045412
0.054058
0.060764
0.10965
0.12853
0.12301
0.13413
0.08584
0.068404
0.091617
0.096207
0.095574
0.090022
0.097842
0.11472
0.11214
0.09412
0.1238
0.10932
0.14188
0.1231
0.096625
0.10731
0.12071
0.13242
0.12136
0.11525
0.15577
0.14983
0.12596
0.1308
0.1264
0.1317
0.15915
0.14063
0.13633
0.13111
0.13763
0.16334
0.16949
0.17491
0.19486
0.19327
0.19837
0.18505
0.16834
0.15549
0.15336
0.11893
0.1175
0.13214
0.15448
0.19503
0.19625
0.18697
0.21207
0.24976
0.23737
0.2491
0.25429
0.2398
0.21935
0.20861
0.21072
0.21338
0.1647
0.18435
0.18018
0.17
0.16422
0.17593
0.18644
0.17106
0.13991
0.14503
0.13947
0.13634
0.11097
0.092333
0.10106
0.11041
0.11496
0.087349
0.060117
0.070279
0.080462
0.10758
0.11004
0.13072
0.13226
0.13741
0.14888
0.14021
0.14098
0.13623
0.10497
0.11291
0.13387
0.12925
0.13679
0.11863
0.10874
0.10827
0.10517
0.11427
0.10158
0.10821
0.10409
0.10324
0.092134
0.080188
0.065146
0.06642
0.097002
0.068339
0.065203
0.081153
0.072193
0.054686
0.050207
0.055628
0.059081
0.054691
0.029058
0.035672
0.062982
0.052251
0.038553
0.029884
0.042704
0.023601
0.024025
0.021534
0.024335
0.0094034
0.021892
0.03283
0.073174
0.084058
0.057968
0.060136
0.073392
0.048249
0.047822
0.036816
0.015705
0.026768
0.057268
0.04309
0.046268
0.04162
0.041914
0.0073168
0.016346
0.04567
0.036874
0.026576
0.01331
0.043966
0.022031
0.064218
0.062096
0.053378
0.061624
0.063769
0.04791
0.062099
0.094295
0.082615
0.090618
0.069238
0.068062
0.062056
0.067311
0.10935
0.11638
0.12622
0.12717
0.11915
0.11334
0.1144
0.12755
0.14082
0.14577
0.12972
0.13422
0.14499
0.13718
0.12901
0.11739
0.13605
0.12935
0.12119
0.11008
0.090259
0.082306
0.085163
0.084989
0.091413
0.12214
0.14869
0.15975
0.17851
0.18255
0.16061
0.17288
0.18855
0.19192
0.18307
0.18629
0.198
0.21163
0.21743
0.22583
0.22031
0.21626
0.21932
0.20716
0.20043
0.2167
0.22149
0.21519
0.20904
0.19338
0.18462
0.16622
0.13912
0.13813
0.10773
0.1116
0.14096
0.12955
0.10001
0.095068
0.10669
0.076739
0.09384
0.13556
0.15453
0.15173
0.098411
0.084044
0.086626
0.070543
0.08836
0.1122
0.11866
0.13377
0.1271
0.11517
0.10323
0.08513
0.066176
0.081142
0.091757
0.093354
0.089515
0.092038
0.088992
0.10764
0.12774
0.11679
0.095921
0.086547
0.089188
0.078339
0.078383
0.071301
0.061779
0.08413
0.089655
0.11167
0.099814
0.098897
0.077819
0.070116
0.065416
0.072525
0.069238
0.080094
0.078734
0.060187
0.058192
0.073951
0.09419
0.10366
0.067055
0.073169
0.068918
0.12254
0.15292
0.15604
0.16069
0.15781
0.15488
0.17917
0.18027
0.21025
0.2076
0.20127
0.17826
0.1663
0.168
0.1445
0.12747
0.12174
0.1611
0.17121
0.19894
0.1964
0.1897
0.15497
0.14736
0.1506
0.14879
0.10754
0.11577
0.14824
0.15483
0.15497
0.1534
0.14415
0.16769
0.18717
0.17434
0.15685
0.13368
0.1446
0.16956
0.16131
0.12533
0.10306
0.10509
0.11498
0.11673
0.12731
0.10348
0.093535
0.067208
0.067565
0.070943
0.065041
0.086173
0.087812
0.068322
0.056633
0.053813
0.056203
0.06028
0.052561
0.055746
0.034063
0.031256
0.061042
0.045893
0.093843
0.12511
0.10273
0.091558
0.0902
0.085517
0.090949
0.092328
0.11642
0.085637
0.075522
0.043237
0.056938
0.041296
0.026147
0.01273
0.022562
0.060125
0.068613
0.083729
0.096377
0.084945
0.066533
0.092864
0.10369
0.11507
0.11591
0.1007
0.10905
0.097106
0.086233
0.092461
0.11133
0.097954
0.10485
0.091012
0.087509
0.093908
0.092432
0.080101
0.080364
0.11718
0.11901
0.13999
0.16676
0.13929
0.13046
0.12192
0.11278
0.092957
0.071612
0.069825
0.093707
0.087737
0.077175
0.084922
0.087769
0.084898
0.067257
0.057112
0.039608
0.04954
0.048294
0.070281
0.079297
0.074111
0.091748
0.083779
0.074195
0.077673
0.067857
0.090432
0.063545
0.056586
0.051295
0.074517
0.06272
0.048975
0.058467
0.053015
0.037556
0.061868
0.11132
0.10615
0.076339
0.039433
0.045307
0.08045
0.15217
0.22025
0.238
0.23284
0.18578
0.1585
0.1601
0.15725
0.14931
0.12534
0.12836
0.11148
0.11562
0.12283
0.10296
0.09873
0.077937
0.045853
0.075566
0.093537
0.10173
0.10823
0.15293
0.16003
0.16567
0.16157
0.1748
0.17485
0.1671
0.17552
0.16592
0.18486
0.18929
0.17202
0.21851
0.24379
0.23397
0.2433
0.26706
0.24638
0.27082
0.25651
0.28721
0.27835
0.28769
0.27025
0.28775
0.29013
0.2746
0.2594
0.27411
0.26329
0.27153
0.25762
0.2249
0.205
0.19212
0.21056
0.20548
0.21968
0.24127
0.18929
0.18266
0.20527
0.27375
0.28425
0.28994
0.25091
0.24904
0.26108
0.24366
0.24762
0.24744
0.28974
0.29231
0.26481
0.23168
0.21929
0.23685
0.24487
0.23309
0.26286
0.30851
0.31886
0.3034
0.32837
0.30933
0.29359
0.27683
0.22222
0.22898
0.22024
0.27377
0.33244
0.37445
0.39509
0.41687
0.4085
0.37225
0.3882
0.42482
0.45045
0.45489
0.45844
0.451
0.46683
0.47761
0.43367
0.42111
0.43
0.43763
0.46045
0.47556
0.45894
0.44138
0.44554
0.43428
0.42396
0.38266
0.34918
0.32093
0.2642
0.2295
0.206
0.20551
0.23071
0.23296
0.20888
0.21567
0.20946
0.21603
0.24858
0.27807
0.28
0.2971
0.30121
0.31057
0.30587
0.30671
0.29754
0.27696
0.26986
0.27225
0.26045
0.27038
0.30673
0.30208
0.30581
0.32512
0.36033
0.3398
0.31438
0.29575
0.28407
0.23403
0.23382
0.28986
0.28865
0.28793
0.25275
0.24673
0.23146
0.24975
0.27241
0.28599
0.28548
0.28171
0.25754
0.31882
0.32418
0.31986
0.32818
0.33592
0.34688
0.35036
0.3674
0.34421
0.35236
0.35842
0.34766
0.3129
0.31852
0.28919
0.24812
0.2222
0.20244
0.2184
0.22787
0.19965
0.18599
0.18565
0.15368
0.13843
0.1193
0.099475
0.13342
0.14637
0.16047
0.1936
0.21198
0.18596
0.26243
0.27513
0.2702
0.29315
0.26362
0.25276
0.24837
0.26927
0.26527
0.22045
0.18365
0.16568
0.16536
0.18057
0.17189
0.18406
0.17124
0.15906
0.15795
0.16975
0.18624
0.20886
0.18836
0.21799
0.20144
0.20643
0.27286
0.2795
0.28405
0.25771
0.26312
0.28
0.28926
0.28711
0.27787
0.2863
0.28856
0.27356
0.25667
0.2486
0.24844
0.23379
0.25289
0.30021
0.29709
0.27771
0.25895
0.24829
0.24861
0.23355
0.19795
0.18704
0.13797
0.14942
0.17001
0.1559
0.16819
0.12889
0.11805
0.10315
0.11776
0.10348
0.098583
0.11659
0.12131
0.11752
0.1095
0.12139
0.10629
0.10659
0.076572
0.12123
0.1691
0.19928
0.19348
0.16167
0.16814
0.16493
0.17461
0.17518
0.17897
0.14573
0.1251
0.126
0.10752
0.12108
0.1372
0.14739
0.1659
0.16021
0.16795
0.15548
0.13956
0.12834
0.13327
0.1425
0.15495
0.17621
0.19486
0.17629
0.14306
0.14809
0.10289
0.1024
0.11153
0.11966
0.13731
0.12617
0.082954
0.092406
0.13223
0.12632
0.098015
0.081727
0.088949
0.096939
0.12102
0.1086
0.11994
0.11447
0.13609
0.1676
0.15272
0.13238
0.14541
0.15723
0.15257
0.1398
0.13584
0.12957
0.10859
0.087975
0.11637
0.086593
0.088583
0.090123
0.10805
0.11843
0.096308
0.08287
0.089543
0.099772
0.10567
0.084019
0.072586
0.056883
0.061092
0.074461
0.060972
0.048483
0.062421
0.064861
0.060793
0.079865
0.089545
0.095677
0.11734
0.11724
0.1027
0.13387
0.13343
0.1297
0.12697
0.12062
0.093172
0.083137
0.099331
0.10778
0.11388
0.12314
0.11626
0.097566
0.093519
0.13029
0.13596
0.14478
0.15589
0.16484
0.18861
0.2246
0.21367
0.17731
0.19181
0.21363
0.22379
0.2193
0.23542
0.24322
0.23552
0.25047
0.26174
0.23742
0.23283
0.22855
0.23514
0.23603
0.23376
0.21681
0.18305
0.15676
0.15948
0.15244
0.15941
0.15541
0.17281
0.1651
0.16667
0.14697
0.11231
0.11692
0.095695
0.084606
0.08424
0.077146
0.077351
0.083774
0.092041
0.12435
0.10934
0.10254
0.097617
0.080353
0.095785
0.076858
0.060453
0.055625
0.068526
0.05848
0.046166
0.028815
0.036317
0.057264
0.056154
0.055871
0.085008
0.10209
0.08924
0.061008
0.089511
0.075371
0.057542
0.067819
0.069131
0.079762
0.053631
0.036926
0.031311
0.046652
0.037327
0.040063
0.061457
0.060063
0.063085
0.057855
0.081134
0.048356
0.027876
0.056027
0.041252
0.042457
0.060253
0.057766
0.052652
0.075265
0.097839
0.094604
0.10318
0.1329
0.13812
0.12353
0.10583
0.11865
0.085436
0.086353
0.068725
0.033816
0.069255
0.062361
0.051575
0.048763
0.075114
0.11353
0.12964
0.12157
0.12265
0.11675
0.10316
0.10988
0.090643
0.10637
0.13116
0.12089
0.14103
0.13548
0.13105
0.1226
0.11657
0.12806
0.13088
0.1087
0.11902
0.11702
0.084362
0.088563
0.077729
0.059495
0.050371
0.067709
0.06454
0.049273
0.06054
0.062943
0.070478
0.093622
0.074682
0.070292
0.059406
0.054247
0.079888
0.089422
0.093057
0.05639
0.053531
0.045573
0.02739
0.023972
0.032554
0.031545
0.033157
0.026171
0.041772
0.046367
0.046512
0.041162
0.056076
0.030794
0.052639
0.06347
0.069833
0.073136
0.048688
0.038665
0.037165
0.060492
0.060343
0.067023
0.04093
0.03865
0.048744
0.053716
0.055471
0.065316
0.065566
0.082412
0.07346
0.07248
0.068166
0.080197
0.072562
0.054534
0.042746
0.058267
0.062934
0.059185
0.10153
0.11306
0.07887
0.032499
0.06455
0.052764
0.056439
0.080192
0.072727
0.053564
0.045703
0.079628
0.06125
0.08738
0.092063
0.060154
0.036176
0.026057
0.036233
0.038342
0.058155
0.04166
0.068332
0.06649
0.10918
0.1085
0.084219
0.066714
0.094172
0.096049
0.091271
0.097421
0.07996
0.038788
0.045743
0.04832
0.071046
0.069265
0.07521
0.068494
0.099446
0.079301
0.086085
0.089375
0.074117
0.078066
0.055292
0.03602
0.052721
0.065081
0.092269
0.12908
0.1138
0.1184
0.10656
0.11438
0.10028
0.11856
0.12613
0.1199
0.10143
0.12095
0.11482
0.1135
0.15185
0.18722
0.21007
0.22528
0.24326
0.24644
0.25276
0.23549
0.19955
0.2082
0.24986
0.31594
0.29632
0.27211
0.25116
0.25916
0.21761
0.19423
0.20749
0.19772
0.16864
0.14889
0.1333
0.17138
0.17417
0.15381
0.16602
0.16022
0.16852
0.15401
0.14668
0.16106
0.17502
0.17532
0.16453
0.15531
0.14424
0.11966
0.10648
0.09988
0.060741
0.041296
0.024038
0.025208
0.029974
0.059074
0.039209
0.054496
0.058052
0.065
0.07492
0.072927
0.078601
0.084621
0.081829
0.088446
0.097051
0.10188
0.0945
0.084505
0.077323
0.11256
0.11965
0.12578
0.12606
0.1211
0.12885
0.12312
0.12286
0.12745
0.1134
0.086553
0.10383
0.10201
0.10997
0.1233
0.1057
0.10739
0.1089
0.097173
0.085829
0.080837
0.10204
0.059532
0.069421
0.031862
0.064834
0.066579
0.083292
0.071006
0.050293
0.030987
0.022494
0.017831
0.048615
0.066079
0.052075
0.053281
0.062774
0.050802
0.053796
0.08878
0.096098
0.10454
0.1371
0.14536
0.16245
0.13338
0.11024
0.10722
0.1214
0.12858
0.13376
0.10457
0.10854
0.077734
0.060727
0.052776
0.046651
0.071937
0.074835
0.094834
0.075329
0.084008
0.073185
0.071172
0.0721
0.050565
0.06796
0.066986
0.072903
0.071251
0.080991
0.08797
0.079779
0.068631
0.10317
0.10284
0.11816
0.13014
0.10274
0.096687
0.10595
0.089626
0.056422
0.010081
0.015903
0.025977
0.05784
0.083887
0.073481
0.091436
0.10282
0.10108
0.084316
0.088598
0.11643
0.10801
0.093327
0.081003
0.084214
0.082305
0.076598
0.069094
0.078275
0.079028
0.079618
0.06057
0.060551
0.061434
0.069187
0.0962
0.12474
0.12967
0.11981
0.13156
0.12873
0.13849
0.13726
0.12008
0.1054
0.079291
0.10315
0.11487
0.12383
0.135
0.12226
0.10871
0.10874
0.11454
0.11512
0.11254
0.12537
0.11319
0.11573
0.13635
0.12843
0.10465
0.10549
0.11241
0.12832
0.11657
0.12987
0.133
0.17092
0.17519
0.13309
0.12087
0.079194
0.14836
0.10743
0.097377
0.065873
0.018372
0.024168
0.043918
0.026794
0.027282
0.023464
0.0081872
0.042417
0.063991
0.068801
0.079068
0.093501
0.096477
0.08625
0.10015
0.12156
0.12832
0.11703
0.13638
0.14
0.1381
0.11729
0.12756
0.16808
0.13106
0.11724
0.12027
0.16565
0.18174
0.20044
0.22457
0.23278
0.25074
0.25696
0.26952
0.27894
0.28906
0.26676
0.28721
0.27904
0.27987
0.29297
0.28158
0.29938
0.3047
0.31423
0.30265
0.2879
0.28361
0.26279
0.23692
0.22599
0.22345
0.26305
0.29591
0.26588
0.25086
0.18273
0.18986
0.23492
0.25055
0.21173
0.19547
0.17195
0.15329
0.14877
0.14826
0.17072
0.16207
0.15567
0.17123
0.17669
0.16112
0.1626
0.14722
0.11445
0.10853
0.18102
0.18156
0.16794
0.17687
0.16368
0.14146
0.12442
0.13251
0.1471
0.17902
0.18528
0.16201
0.13787
0.16033
0.14111
0.16934
0.17587
0.15784
0.13824
0.14642
0.13253
0.14669
0.12534
0.11678
0.10299
0.10675
0.113
0.11661
0.13635
0.13035
0.1111
0.086127
0.067586
0.043629
0.062895
0.081024
0.099534
0.098907
0.096128
0.10209
0.10718
0.12684
0.14067
0.14452
0.14195
0.13319
0.11517
0.14012
0.14146
0.13587
0.13227
0.15875
0.1679
0.17969
0.17081
0.17969
0.17385
0.1565
0.15467
0.15146
0.17722
0.15554
0.15436
0.13366
0.12338
0.14864
0.15162
0.17622
0.17274
0.15788
0.14421
0.14101
0.1433
0.14158
0.11966
0.10476
0.09693
0.10603
0.090552
0.077482
0.073805
0.085013
0.097051
0.10869
0.12416
0.15457
0.18318
0.18343
0.17218
0.19625
0.17709
0.13773
0.16848
0.16863
0.14931
0.15022
0.13741
0.14029
0.12965
0.1104
0.11925
0.10688
0.1069
0.15629
0.14496
0.15578
0.18899
0.17287
0.1576
0.14735
0.16649
0.16659
0.18169
0.14968
0.14764
0.14701
0.16298
0.16038
0.16283
0.18475
0.21363
0.21514
0.22506
0.22346
0.22705
0.19972
0.21952
0.20758
0.19759
0.19867
0.19413
0.22434
0.20811
0.22593
0.26564
0.26214
0.23549
0.21092
0.21222
0.17523
0.1583
0.13554
0.15226
0.19309
0.19639
0.19129
0.17115
0.18543
0.18995
0.20097
0.19004
0.20796
0.20534
0.19553
0.2081
0.21248
0.22774
0.26645
0.28233
0.31231
0.31467
0.32339
0.34564
0.33486
0.33248
0.32838
0.33376
0.33451
0.34017
0.31663
0.30283
0.3178
0.30595
0.32024
0.33684
0.32412
0.30105
0.31618
0.31566
0.34437
0.38798
0.39422
0.39042
0.39323
0.39959
0.40767
0.40809
0.42001
0.42972
0.42966
0.41809
0.41501
0.37638
0.36278
0.32327
0.30939
0.29901
0.26865
0.26894
0.29446
0.32591
0.32591
0.29466
0.30466
0.31236
0.29616
0.29224
0.3096
0.33985
0.34877
0.32774
0.3201
0.32003
0.30721
0.30278
0.29573
0.2974
0.27918
0.26785
0.25845
0.27712
0.26515
0.25659
0.25705
0.24579
0.24024
0.22719
0.228
0.25666
0.27152
0.24324
0.24582
0.23498
0.25821
0.26562
0.25154
0.25906
0.25701
0.24878
0.21941
0.2233
0.25663
0.29354
0.31466
0.29966
0.28271
0.24361
0.24078
0.21844
0.20313
0.19809
0.20833
0.23651
0.22826
0.21717
0.1889
0.20712
0.20827
0.19507
0.19538
0.20002
0.19424
0.17958
0.17315
0.18568
0.20401
0.2019
0.18766
0.18061
0.17872
0.19016
0.23091
0.23514
0.24326
0.2103
0.18272
0.21501
0.20922
0.2252
0.23632
0.26186
0.2889
0.28874
0.26292
0.22781
0.23168
0.25817
0.25143
0.23238
0.19438
0.20097
0.22889
0.26637
0.24955
0.28671
0.27025
0.26869
0.26636
0.26121
0.29884
0.34924
0.35579
0.33475
0.30416
0.29641
0.29856
0.28202
0.28037
0.27646
0.25393
0.22842
0.22363
0.23358
0.22491
0.21964
0.23619
0.24391
0.24214
0.23303
0.22155
0.23669
0.23299
0.22291
0.22349
0.23278
0.21145
0.2062
0.20708
0.19118
0.17307
0.16257
0.16907
0.171
0.17157
0.16924
0.17112
0.14433
0.11551
0.11137
0.11934
0.14661
0.14142
0.15365
0.14645
0.14645
0.14653
0.16048
0.15108
0.15115
0.14598
0.15591
0.1537
0.15312
0.17222
0.20585
0.20726
0.20889
0.19379
0.19397
0.22027
0.21371
0.21047
0.20119
0.2091
0.20421
0.18862
0.18569
0.17214
0.15072
0.15373
0.16748
0.18355
0.14843
0.14312
0.11872
0.15123
0.12735
0.15088
0.16648
0.16754
0.16086
0.15591
0.16173
0.15054
0.13679
0.17255
0.17788
0.17783
0.19472
0.20387
0.19549
0.20088
0.23362
0.26995
0.26939
0.2748
0.25391
0.25036
0.25742
0.25101
0.25772
0.2603
0.26305
0.2626
0.26865
0.27192
0.30838
0.34684
0.34646
0.34613
0.31982
0.32695
0.31793
0.3192
0.28742
0.28801
0.30212
0.28744
0.29307
0.28675
0.23666
0.21624
0.21654
0.22929
0.23028
0.22844
0.24148
0.23843
0.2316
0.2528
0.23968
0.23315
0.24721
0.21179
0.24122
0.2313
0.21179
0.19415
0.20623
0.16747
0.17459
0.17217
0.14584
0.12584
0.12463
0.12235
0.10019
0.099772
0.094478
0.087551
0.078934
0.072763
0.088483
0.062597
0.077856
0.058221
0.045388
0.034198
0.034266
0.025192
0.038963
0.037131
0.038876
0.027158
0.037054
0.077011
0.065383
0.061467
0.054662
0.053878
0.027273
0.019936
0.026482
0.031896
0.031425
0.037742
0.04252
0.065734
0.065065
0.069602
0.062757
0.11124
0.12048
0.12721
0.14375
0.081751
0.040874
0.024231
0.032094
0.057039
0.077002
0.084255
0.10762
0.11453
0.11361
0.12647
0.10355
0.10527
0.10745
0.1007
0.10683
0.11858
0.10928
0.074721
0.098317
0.081885
0.070848
0.11576
0.098388
0.066285
0.035233
0.068417
0.093775
0.10584
0.11987
0.16825
0.15747
0.18779
0.22399
0.19467
0.17365
0.16644
0.16338
0.14995
0.18694
0.1751
0.18145
0.18539
0.17383
0.17615
0.1847
0.20901
0.2045
0.21306
0.20924
0.19539
0.19973
0.21454
0.24697
0.2511
0.27897
0.29726
0.29345
0.2891
0.28736
0.27727
0.26554
0.25385
0.25307
0.26033
0.25955
0.25727
0.27141
0.28026
0.25269
0.27412
0.31212
0.31652
0.31906
0.33071
0.34923
0.35512
0.31676
0.28993
0.27663
0.24202
0.2532
0.24359
0.22538
0.19291
0.19537
0.18823
0.13707
0.12751
0.16838
0.20031
0.21194
0.19198
0.18749
0.17814
0.21235
0.18855
0.14942
0.17425
0.17445
0.17027
0.21681
0.1867
0.15894
0.1728
0.16413
0.1694
0.13356
0.16064
0.16596
0.1601
0.1494
0.13894
0.13484
0.13371
0.097793
0.094616
0.12671
0.13201
0.11363
0.11824
0.15081
0.13556
0.12723
0.097355
0.087532
0.093865
0.14918
0.15218
0.13834
0.15818
0.14984
0.16789
0.21248
0.21118
0.20879
0.17635
0.18167
0.18769
0.18632
0.18232
0.19232
0.16809
0.19012
0.17118
0.15951
0.18542
0.20876
0.21727
0.23013
0.23343
0.21799
0.20607
0.21009
0.20095
0.18083
0.18534
0.21986
0.25965
0.24749
0.2326
0.24072
0.25324
0.25683
0.25862
0.2569
0.25286
0.23874
0.22973
0.25223
0.25321
0.26296
0.25965
0.23878
0.23996
0.25362
0.26423
0.2558
0.24174
0.23612
0.24165
0.26771
0.25193
0.2272
0.23956
0.25278
0.24145
0.23705
0.25201
0.25923
0.24928
0.25307
0.24693
0.24823
0.21877
0.22043
0.21503
0.23965
0.25808
0.26009
0.25983
0.26781
0.24376
0.2473
0.25382
0.23923
0.23112
0.25709
0.26995
0.25953
0.21641
0.18137
0.1953
0.17325
0.21831
0.22831
0.21482
0.18479
0.17224
0.16376
0.17387
0.18253
0.18796
0.17603
0.19201
0.1865
0.20421
0.19356
0.17603
0.19225
0.22497
0.22947
0.2188
0.20705
0.21019
0.23695
0.24386
0.24571
0.22599
0.23981
0.24875
0.24195
0.24824
0.24119
0.24033
0.21357
0.15746
0.18405
0.20939
0.19943
0.19161
0.18961
0.22313
0.25685
0.29075
0.32051
0.3303
0.28974
0.29883
0.28199
0.26249
0.24701
0.24491
0.25494
0.28044
0.30119
0.29886
0.26196
0.26983
0.27805
0.27313
0.27478
0.25589
0.25661
0.23862
0.21526
0.20065
0.20731
0.19711
0.21744
0.21067
0.20007
0.19902
0.21819
0.22998
0.24363
0.20655
0.19989
0.20194
0.17872
0.16585
0.13219
0.1567
0.14596
0.12772
0.1677
0.15248
0.11962
0.12156
0.11404
0.10486
0.095328
0.091256
0.086681
0.07949
0.07032
0.12292
0.17368
0.18129
0.16913
0.14428
0.15387
0.19846
0.21009
0.18293
0.15948
0.16162
0.14635
0.14111
0.18819
0.22774
0.2135
0.23474
0.26759
0.27735
0.30797
0.32448
0.34753
0.34351
0.32624
0.28467
0.27207
0.26894
0.29039
0.23445
0.22037
0.20808
0.20634
0.213
0.20408
0.20355
0.22675
0.24065
0.22199
0.2157
0.22304
0.22154
0.20643
0.20423
0.20062
0.18269
0.19232
0.19224
0.17705
0.16454
0.17093
0.17543
0.208
0.24413
0.25573
0.26436
0.27521
0.28296
0.25968
0.25704
0.2656
0.24092
0.22782
0.24006
0.21336
0.22165
0.23646
0.22363
0.21301
0.21807
0.18626
0.16345
0.15698
0.12393
0.11095
0.14626
0.13799
0.10101
0.088769
0.10348
0.10991
0.091652
0.069798
0.058394
0.059062
0.036075
0.036578
0.04044
0.046424
0.070999
0.10149
0.13303
0.10482
0.11341
0.12944
0.14489
0.17101
0.18364
0.18209
0.13785
0.1247
0.13096
0.13221
0.13418
0.13171
0.14527
0.1551
0.17177
0.17007
0.18226
0.17153
0.14321
0.15287
0.15464
0.15589
0.16677
0.16048
0.16505
0.17017
0.18838
0.15928
0.17113
0.19389
0.19466
0.2157
0.21361
0.22654
0.21218
0.19609
0.18881
0.15772
0.15071
0.18062
0.18011
0.19828
0.18823
0.1933
0.19775
0.19924
0.18773
0.20625
0.19786
0.19764
0.18006
0.18128
0.16635
0.13321
0.13946
0.1402
0.13752
0.12738
0.1289
0.12716
0.12715
0.14368
0.15067
0.16356
0.17007
0.17864
0.16344
0.14754
0.1518
0.15922
0.15877
0.13103
0.10619
0.11039
0.092528
0.079461
0.064283
0.071313
0.064272
0.048925
0.064722
0.077522
0.068159
0.068167
0.066418
0.059356
0.064769
0.087577
0.10799
0.13569
0.14377
0.14947
0.14652
0.1208
0.10539
0.13769
0.12453
0.11286
0.11987
0.12843
0.12201
0.13507
0.12281
0.12163
0.12429
0.12916
0.10689
0.075659
0.078983
0.1222
0.10155
0.11148
0.15494
0.14026
0.13904
0.1205
0.082399
0.098323
0.13117
0.13473
0.10474
0.1
0.092082
0.085925
0.071822
0.066658
0.080571
0.15266
0.10305
0.080209
0.099543
0.11223
0.10823
0.11778
0.10869
0.1208
0.12895
0.12447
0.11209
0.1227
0.13792
0.1506
0.17761
0.18477
0.2043
0.2131
0.2012
0.19491
0.18493
0.17273
0.20603
0.21115
0.18079
0.1595
0.14594
0.14776
0.12764
0.13
0.14027
0.15481
0.16376
0.19346
0.19048
0.1616
0.14646
0.14169
0.14931
0.14347
0.1359
0.12159
0.10718
0.068776
0.029214
0.055617
0.078862
0.10777
0.089305
0.091635
0.090479
0.12277
0.13532
0.14394
0.15532
0.14896
0.13172
0.12788
0.11512
0.089261
0.07464
0.081165
0.083403
0.094166
0.12787
0.11468
0.16214
0.1775
0.18898
0.18004
0.17626
0.16576
0.1552
0.13297
0.12569
0.13568
0.14678
0.14289
0.14601
0.13413
0.13025
0.1308
0.14134
0.12901
0.1603
0.16155
0.15807
0.18099
0.17497
0.17053
0.16465
0.15205
0.1419
0.15583
0.15971
0.15127
0.12677
0.11467
0.12764
0.13535
0.14011
0.16265
0.15435
0.16321
0.15269
0.13959
0.12518
0.12796
0.12552
0.11103
0.10407
0.12645
0.15229
0.17991
0.19091
0.19465
0.18101
0.18385
0.18588
0.18124
0.17647
0.17888
0.1762
0.17188
0.15702
0.1606
0.16981
0.18635
0.20045
0.22226
0.22794
0.23057
0.23595
0.25039
0.2487
0.24819
0.25181
0.24851
0.25449
0.24618
0.24452
0.24519
0.25078
0.22596
0.22691
0.21279
0.2379
0.25079
0.24927
0.23144
0.19162
0.18594
0.2006
0.20411
0.16627
0.16412
0.20536
0.20669
0.23318
0.22477
0.2758
0.26046
0.22571
0.2422
0.23662
0.24187
0.22947
0.19155
0.21295
0.21453
0.22738
0.23745
0.2392
0.23459
0.2362
0.24763
0.25903
0.2709
0.2768
0.29206
0.31289
0.31057
0.29147
0.3104
0.29923
0.33855
0.36028
0.35928
0.34876
0.34009
0.34017
0.36427
0.3775
0.36915
0.37168
0.36254
0.36173
0.32296
0.36763
0.36609
0.35936
0.35464
0.38335
0.39407
0.39251
0.39582
0.40278
0.41851
0.42291
0.41896
0.43081
0.43468
0.42788
0.42739
0.42791
0.42489
0.40345
0.40027
0.38992
0.34847
0.36563
0.36632
0.3693
0.37883
0.39782
0.39379
0.40599
0.4146
0.40731
0.3727
0.36777
0.37049
0.36192
0.35123
0.35423
0.37509
0.37812
0.39804
0.4244
0.43952
0.4066
0.39728
0.3708
0.34373
0.33117
0.3264
0.32494
0.32979
0.34336
0.34828
0.34558
0.34356
0.34933
0.37457
0.39128
0.38288
0.37677
0.36574
0.35665
0.33105
0.32681
0.3138
0.30168
0.29802
0.27517
0.30975
0.30189
0.32775
0.33018
0.33715
0.34234
0.31676
0.3044
0.3331
0.32751
0.32918
0.36799
0.35226
0.35086
0.35509
0.38114
0.37235
0.38228
0.38854
0.39216
0.4368
0.46093
0.45908
0.43144
0.38055
0.33714
0.34282
0.34659
0.35885
0.35627
0.3768
0.37261
0.35059
0.34785
0.36276
0.38874
0.36149
0.35145
0.36227
0.37097
0.35783
0.3637
0.35681
0.31878
0.30585
0.29666
0.27736
0.29534
0.30684
0.2867
0.2958
0.31059
0.31705
0.29897
0.29257
0.28291
0.27975
0.29642
0.29341
0.29786
0.26736
0.27255
0.27881
0.2678
0.27713
0.29823
0.29481
0.29816
0.31491
0.31968
0.3159
0.30577
0.31366
