0.095943
0.067688
0.036687
0.078889
0.071977
0.061378
0.081266
0.10573
0.11047
0.15038
0.13186
0.09939
0.099223
0.12236
0.11587
0.15038
0.1647
0.19146
0.2062
0.18674
0.20906
0.21646
0.22028
0.20645
0.16088
0.15002
0.13627
0.15588
0.15367
0.13242
0.11063
0.11537
