3.2211
3.2177
3.2214
3.2434
3.2223
3.3187
3.0597
3.013
3.0743
3.2686
3.4912
3.4685
3.3662
3.12
2.9473
3.0984
3.3802
3.4202
3.1151
3.1983
3.4818
3.6864
3.6817
3.5451
3.4563
3.3615
3.4985
3.8773
3.8617
3.6294
3.5847
3.7069
