0.095123
0.093207
0.09154
0.09061
0.096695
0.099836
0.099083
0.098325
0.095127
0.089516
0.084125
0.079631
0.081436
0.079285
0.080032
0.08758
0.088897
0.083501
0.095793
0.091973
0.094328
0.092715
0.097414
0.10094
0.093071
0.096448
0.098899
0.10434
0.1023
0.099488
0.097002
0.093644
0.088269
0.090804
0.088758
0.082599
0.078412
0.081328
0.083352
0.086267
0.082486
0.080629
0.08018
0.084285
0.089997
0.092506
0.09462
0.091097
0.092216
0.091863
0.099961
0.10152
0.10076
0.10188
0.10048
0.096259
0.097707
0.096344
0.094906
0.086284
0.088987
0.088619
0.085123
0.083687
0.083927
0.087001
0.089244
0.091688
0.091036
0.087757
0.087938
0.082811
0.087709
0.084518
0.085232
0.081116
0.078271
0.073319
0.070112
0.072863
0.06732
0.067501
0.067708
