0.068104
0.053146
0.10251
0.10443
0.12319
0.11475
0.14996
0.17612
0.16315
0.1339
0.13995
0.14429
0.16059
0.18484
0.17203
0.16463
0.16852
0.1731
0.21188
0.19276
0.19406
0.18007
0.19416
0.21856
0.20443
0.16292
0.14412
0.15166
0.17948
0.16432
0.18558
0.1385
0.11745
0.10902
0.13575
0.1281
0.13735
0.13335
0.17522
0.13185
0.13547
0.16277
0.15027
