0.22802
0.22721
0.16584
0.19575
0.14573
0.14463
0.18383
0.21573
0.19099
0.20266
0.21656
0.19374
0.20453
0.19574
0.17641
0.19057
0.18191
0.21022
0.22788
0.21622
0.24552
0.26995
0.21146
0.20245
0.20924
0.1879
0.22347
0.21049
0.16215
0.18541
0.10388
0.2125
0.18083
0.13674
0.11364
0.15001
0.14277
0.11787
0.10347
0.10117
0.088298
0.087167
0.07789
0.052754
0.068182
0.078741
0.10766
0.16436
0.1814
0.12098
0.18352
0.18785
0.1891
0.17691
0.21323
0.21011
0.2017
0.24109
0.298
0.3235
0.35451
0.33706
0.34927
0.34828
0.38293
0.39541
0.35868
0.3676
0.38453
0.37271
0.4186
0.44876
0.50709
0.54018
0.55173
0.54735
0.56543
0.57817
0.58405
0.57971
0.59179
0.60691
0.58523
0.59203
0.58528
0.60638
0.6189
0.56935
0.58698
0.55887
0.53824
0.52124
0.47669
0.43891
0.44539
0.42932
0.42198
0.39481
0.41676
0.42465
0.38689
0.43275
0.43017
0.46287
0.46642
0.48674
0.48422
0.49416
0.50618
0.49709
0.49192
0.47066
0.44588
0.41092
0.39529
0.36525
0.35547
0.38302
0.39969
0.42496
0.41879
0.39037
0.36815
0.40713
0.45279
0.44789
0.44886
0.44464
0.46493
0.45655
0.42477
0.41988
0.45282
0.49313
0.52071
0.54467
0.536
0.49385
0.47062
0.51392
0.50136
0.43974
0.43578
0.42695
0.43691
0.43089
0.43706
0.4494
0.455
0.45045
0.46203
0.47127
0.45577
0.44947
0.41359
0.45147
0.46962
0.50222
0.5244
0.52241
0.49755
0.48671
0.48426
0.4852
0.45784
0.45115
0.45112
0.46434
0.45857
0.45745
0.44883
0.45578
0.44929
0.38329
0.38986
0.42653
0.41464
0.3897
0.39297
0.39999
0.40709
0.40821
0.39089
0.4005
0.41724
0.42888
0.45118
0.46906
0.46025
0.43203
0.40267
0.40902
0.44148
0.45625
0.4074
0.3763
0.43654
0.47727
0.4951
0.47767
0.51189
0.52941
0.53917
0.57022
0.592
0.6271
0.60505
0.61655
0.6392
0.63425
0.68324
0.67725
0.65971
0.69096
0.69851
0.69458
0.7107
0.71452
0.67389
0.69246
0.66517
0.61384
0.62755
0.61198
0.6374
0.62222
0.59889
0.61285
0.60514
0.60118
0.6147
0.60861
0.64024
0.63153
0.59575
0.58961
0.61008
0.64113
0.63565
0.61509
0.61143
0.62918
0.6359
0.63448
0.66857
0.68346
0.65753
0.65278
0.62532
0.65186
0.66448
0.63814
0.63343
0.61536
0.61201
0.6068
0.64499
0.6302
0.61808
0.57775
0.56953
0.52912
0.53079
0.51079
0.52471
0.52589
0.53223
0.55922
0.56368
0.57575
0.58036
0.59213
0.58697
0.59676
0.5898
0.61199
0.60935
0.59965
0.64185
0.6348
0.64693
0.65125
0.66782
0.67193
0.65063
0.64307
0.65915
0.65341
0.67559
0.66106
0.64066
0.63053
0.6249
0.63554
0.63964
0.6757
0.67967
0.67992
0.68584
0.64758
0.67263
0.60154
0.57558
0.58053
0.58791
0.58854
0.60629
0.60351
0.58574
0.56383
0.52988
0.50252
0.48077
0.48052
0.40872
0.44214
0.42576
0.43812
0.46255
0.48629
0.46147
0.45106
0.48571
0.47853
0.48056
0.45487
0.45835
0.46857
0.45469
0.46262
0.4514
0.44629
0.46619
0.47913
0.4846
0.46729
0.47813
0.48032
0.50714
0.51947
0.51803
0.51494
0.51551
0.52798
0.53785
0.54848
0.54793
0.52666
0.49957
0.46007
0.43135
0.41009
0.41563
0.4665
0.47817
0.50233
0.49014
0.49229
0.48149
0.49951
0.48053
0.4783
0.5171
0.54013
0.53217
0.5545
0.57711
0.58542
0.59254
0.6252
0.60835
0.61413
0.59963
0.58434
0.57189
0.56463
0.54729
0.50561
0.50971
0.56067
0.55155
0.49701
0.51257
0.52511
0.49991
0.52949
0.5485
0.54861
0.49798
0.49431
0.50658
0.50125
0.50609
0.52101
0.52595
0.5601
0.5546
0.55429
0.54831
0.55862
0.51701
0.50764
0.50208
0.4891
0.49717
0.52527
0.52154
0.52595
0.51728
0.51014
0.51574
0.52723
0.49652
0.50886
0.49889
0.52427
0.52081
0.52411
0.53532
0.55857
0.55163
0.5572
0.55445
0.50167
0.48707
0.47282
0.47687
0.47914
0.46329
0.45616
0.44501
0.43223
0.39807
0.39605
0.37772
0.33902
0.29274
0.28814
0.32587
0.36401
0.36795
0.38757
0.4024
0.38051
0.40369
0.43021
0.41372
0.37423
0.37306
0.37439
0.38769
0.40345
0.39765
0.40998
0.40984
0.41999
0.40066
0.35113
0.34833
0.3669
0.36217
0.38449
0.36082
0.35951
0.39706
0.38822
0.40232
0.40675
0.43831
0.44558
0.45974
0.43839
0.47502
0.48042
0.43744
0.46705
0.47759
0.51812
0.50249
0.50645
0.48859
0.48923
0.48085
0.48313
0.4753
0.49087
0.44824
0.42245
0.41079
0.4298
0.46891
0.47108
0.45974
0.5017
0.51897
0.51224
0.5168
0.51329
0.50615
0.49906
0.50225
0.46961
0.45335
0.40514
0.41911
0.44916
0.47286
0.4245
0.43557
0.43561
0.41303
0.36129
0.36643
0.38965
0.39104
0.39562
0.4038
0.41355
0.43044
0.41006
0.42808
0.39533
0.4191
0.47772
0.45836
0.45681
0.46949
0.4826
0.48321
0.47753
0.46587
0.47327
0.46797
0.4498
0.47637
0.48319
0.45284
0.45031
0.43924
0.43811
0.43215
0.4382
0.42982
0.40391
0.40233
0.40433
0.40803
0.44853
0.43818
0.43318
0.47244
0.50167
0.45802
0.4538
0.46044
0.42586
0.43893
0.39555
0.39638
0.40736
0.44109
0.44228
0.45665
0.41203
0.40441
0.42004
0.41965
0.44305
0.43149
0.42175
0.41455
0.38846
0.38063
0.40296
0.40104
0.37971
0.37036
0.38802
0.39014
0.37532
0.35109
0.36265
0.35547
0.35158
0.36185
0.37249
