0.74904
0.7312
0.79248
0.88046
0.96339
0.95937
1.0127
1.1198
1.1466
1.1413
1.1836
1.2216
1.2783
1.3468
1.3785
1.39
1.3617
1.4586
1.514
1.5545
1.6274
1.6386
1.6279
1.6017
1.6361
1.6603
1.694
1.621
1.6053
1.631
1.7052
1.8576
1.9571
1.735
1.8394
1.8741
1.8098
1.7811
1.762
1.5978
1.6641
1.8428
1.9456
1.8725
2.102
2.0881
2.026
1.9425
1.9688
1.8429
1.9604
2.0112
2.0721
2.0279
1.9994
1.9886
1.9504
1.9698
1.8806
2.0171
2.0885
2.1848
2.1179
2.1621
2.0991
2.0367
2.1335
2.093
2.0604
2.2336
2.2482
2.1703
2.1284
2.3056
2.3474
2.5276
2.6467
2.486
2.4589
2.5139
2.4739
2.363
2.3602
2.4124
2.5049
2.3285
2.1766
2.0886
2.0851
2.1779
2.2356
2.2732
2.275
2.4786
2.4642
2.5557
2.4716
2.4288
2.4167
2.3069
2.3505
2.4041
2.4531
2.3988
2.2943
2.2056
2.2029
2.2927
2.17
2.187
2.2141
2.2759
2.3686
2.5187
2.3583
2.2691
2.2453
2.3289
2.4359
2.5012
2.437
2.5931
2.5923
2.6223
2.5238
2.5527
2.5052
2.4323
2.351
2.396
2.3324
2.3632
2.3933
2.569
2.3661
2.2178
2.2315
2.3035
2.295
2.2942
2.2443
2.4978
2.4431
2.4899
2.4366
2.4747
2.5891
2.5151
2.5631
2.6092
2.561
2.4685
2.5658
2.663
2.5768
2.5774
2.5183
2.695
2.6377
2.603
2.782
2.7679
2.6885
2.7383
2.7065
2.6471
2.5005
2.5649
2.5781
2.503
2.5822
2.551
2.4972
2.7107
2.6856
2.5599
2.5496
2.6478
2.674
2.7241
2.7342
2.7705
2.8416
2.9215
2.8407
2.8631
2.8316
2.7942
2.7633
2.6285
2.5434
2.7618
2.7145
2.7759
2.8692
2.7651
2.606
2.5051
2.5112
2.5309
2.5066
2.5231
2.5281
2.5454
2.6114
2.645
2.6514
2.5799
2.4836
2.604
2.5205
2.531
2.5511
2.5244
2.5461
2.589
2.5406
2.4909
2.5615
2.5598
2.5515
2.669
2.6197
2.7488
2.7284
2.7888
2.7853
2.7216
2.6087
2.5421
2.5145
2.5415
2.663
2.5655
2.5849
2.6067
2.681
2.7239
2.8089
2.9013
2.8771
2.757
2.7124
2.6191
2.5511
2.6229
2.6905
2.7312
2.7434
2.7032
2.707
2.88
2.8758
2.9779
3.075
3.1371
3.0391
3.0078
2.9089
2.9512
2.7887
2.9085
2.7936
2.8527
2.7456
2.7294
2.8492
2.9493
2.9386
2.8722
2.8483
2.832
2.8062
2.6635
2.5873
2.6148
2.6475
2.741
2.7781
2.8191
2.7444
2.6778
2.6677
2.6581
2.7517
2.8218
2.7486
2.8973
2.7643
2.6103
2.6086
2.7273
2.7491
2.678
2.7885
2.7153
2.5483
2.5667
2.4843
2.6351
2.6529
2.719
2.7994
2.7722
2.7545
2.7418
2.5595
2.5392
2.5445
2.6335
2.7783
2.7971
2.7921
2.8233
2.9953
2.8797
3.0511
3.0121
2.9559
2.9824
2.9865
2.9083
2.9848
2.9495
2.8589
2.9595
2.7998
2.9713
3.056
2.9199
2.991
3.0049
2.9393
2.8031
2.7172
2.7554
2.8125
2.9287
2.8843
3.0326
3.0416
3.1571
3.1702
3.1384
3.1635
3.0605
3.0731
3.1147
3.1983
3.3299
3.3217
3.2464
3.0665
3.0277
3.0276
3.1871
3.1349
3.2011
3.299
3.2484
3.1887
3.3181
3.2963
3.1934
3.1903
3.2225
3.2753
3.2696
3.1881
3.1617
3.3424
3.3223
3.2938
3.305
3.2064
3.2428
3.2311
3.2806
3.2316
3.1151
3.1831
3.4378
3.4009
3.2231
3.2578
3.2454
3.2453
3.0957
3.2339
3.3282
3.4198
3.3564
3.3293
3.4483
3.3915
3.2996
3.1895
3.0846
3.0939
3.1491
3.3319
3.2821
3.5033
3.5648
3.4706
3.3685
3.2911
3.158
3.0665
3.1329
3.1865
3.2199
3.3725
3.4531
3.4909
3.4657
3.5064
3.563
3.4009
3.2148
3.1873
3.2237
3.2598
3.2298
3.196
3.2914
3.3699
3.3616
3.4627
3.4675
3.3685
3.3484
3.5011
3.5762
3.6708
3.4442
3.5437
3.6317
3.5097
3.323
3.3905
3.3811
3.3541
3.2777
3.2751
3.2113
3.2951
3.3757
3.2779
3.3297
3.2201
3.1336
3.3734
3.4337
3.5516
3.4764
3.4472
3.5257
3.6248
3.6943
3.8092
3.6125
3.5141
3.4996
3.4784
3.5379
3.4655
3.5852
3.5573
3.4241
3.4119
3.4718
3.4899
3.5202
3.423
3.3318
3.337
3.2393
3.1893
3.0613
3.1855
3.1106
3.178
3.0887
3.0797
2.977
3.0254
3.0053
2.9486
2.8862
2.9038
2.949
2.9638
2.8817
2.8322
2.8087
2.9238
2.9288
2.8562
2.7911
2.9668
3.1063
3.0585
2.9221
2.8633
2.8848
2.7781
2.7714
2.8287
2.8693
2.8111
2.8138
2.7992
2.9506
2.9425
2.8756
2.8336
2.9029
2.9908
3.1355
3.1462
3.1535
3.0157
2.9695
2.9553
2.9742
3.0154
3.0885
3.1525
3.3053
3.3769
3.409
3.38
3.3828
3.1913
3.1575
3.1641
3.2434
3.2879
3.3404
3.3017
3.1121
3.1508
3.2166
3.2893
3.3351
3.3129
3.1911
3.1025
3.139
2.978
2.9636
3.1313
3.1908
3.0893
3.1627
3.1496
3.3366
3.3392
3.3037
3.2066
3.2284
3.0901
3.0949
3.1815
3.1973
3.1391
3.0751
3.1396
3.2003
3.1337
3.1648
3.2029
3.323
3.2306
3.2389
3.3533
3.4735
3.4457
3.4186
3.4209
3.4476
3.4084
3.449
3.3369
3.3148
