1.8643
1.9691
2.0089
2.182
2.2543
2.356
2.3231
2.8332
2.8687
2.8055
2.4419
2.649
2.3311
2.5397
2.5722
2.3776
2.5207
3.0646
2.9004
2.932
2.9139
2.853
2.9987
3.2319
3.3084
3.3162
3.0276
2.7705
3.0135
2.7208
2.8246
2.7082
2.6766
2.8944
3.0555
3.3251
3.39
3.4629
3.3162
3.3069
3.3475
3.3546
3.4241
3.5432
3.4101
3.2955
3.424
3.2472
3.0242
3.1488
3.4051
3.4291
3.2279
3.2061
3.0713
2.8597
2.5364
2.4383
2.5773
2.5212
2.1789
2.0472
1.9739
2.3469
2.3054
2.0572
2.5378
2.7798
2.6223
2.207
2.2793
2.5524
2.7837
2.7504
2.6215
3.0318
3.2448
3.296
3.3296
3.2466
2.9076
2.7894
2.5917
2.6583
2.7887
2.609
2.8516
2.9432
2.6478
2.7965
2.8441
2.8921
3.0611
3.1411
3.1344
2.7909
2.8
2.9716
2.8321
2.754
2.6889
2.692
3.1162
3.1944
3.0545
3.2978
3.276
3.1229
3.1673
3.4095
3.2353
3.0825
3.1565
2.9763
2.875
3.0867
3.2222
2.998
2.9039
2.8255
2.8295
3.0571
3.1554
3.0277
3.3122
3.11
3.1905
3.141
3.215
3.2179
3.3688
3.2201
3.2536
3.3105
3.294
3.4357
3.6274
3.4575
3.5292
3.535
3.4562
3.8446
3.9155
3.7546
3.8235
3.9178
3.719
3.7594
3.6979
3.4639
3.7775
3.8066
3.6673
3.5138
3.5074
3.4841
3.5028
3.6983
3.7474
3.4776
3.5254
3.3026
3.454
3.187
3.0022
3.0927
3.0089
2.9671
2.8034
2.841
2.8507
2.5228
2.3657
2.5201
2.339
2.2005
2.3915
2.5261
2.5683
2.7826
3.1651
2.8814
2.6226
2.7007
2.9772
2.9786
2.9366
3.0437
3.1859
2.9583
2.8431
2.5686
2.7501
2.7499
2.6548
3.011
3.3036
3.2874
3.3571
3.2991
3.2494
3.3327
3.7516
3.9878
3.9173
3.6952
3.5138
3.672
3.5937
3.7387
3.5865
3.4395
3.8032
3.7886
3.7448
4.1296
3.9759
4.0632
3.8849
3.9892
3.8252
3.9373
3.9486
3.8027
3.9292
3.8392
3.8909
3.9381
3.9477
3.8071
3.8395
3.528
3.528
3.528
