0.4859
0.46318
0.4676
0.4729
0.44822
0.49761
0.486
0.44478
0.42177
0.42407
0.48325
0.4298
0.29717
0.38344
0.37804
0.45804
0.42766
0.4626
0.44658
0.50031
0.61928
0.62944
0.65238
0.64103
0.62585
0.65709
0.68455
0.69243
0.72062
0.73552
0.72405
0.72295
0.71266
0.74057
0.75313
0.7544
0.76139
0.76519
0.7595
0.7318
0.67809
0.67598
0.67264
0.68631
0.65361
0.67693
0.61052
0.64306
0.63759
0.60233
0.57905
0.53176
0.59832
0.57238
0.58703
0.58465
0.54924
0.55676
0.5649
0.59037
0.65253
0.64141
0.63644
0.63343
0.58994
0.62385
0.63032
0.64216
0.6392
0.66688
0.6839
0.66514
0.62945
0.65655
0.65215
