0.1066
0.13849
0.12455
0.13895
0.10066
0.044498
0.04917
0.057255
0.048704
0.052061
0.079371
0.10405
0.10512
0.12096
0.12987
0.13289
0.11292
0.15213
0.159
0.19518
0.1879
0.18225
0.17433
0.18256
0.21371
0.25132
0.28727
0.32558
0.33108
0.34292
0.31051
0.30638
0.29243
0.28222
0.2945
0.28237
0.30977
0.33094
0.33519
0.37407
0.40954
0.40764
0.39995
0.40583
0.42436
0.43515
0.45043
0.43714
0.45399
0.43608
0.48246
0.4836
0.51328
0.53126
0.5448
0.56207
0.55438
0.53583
0.54605
0.5522
0.51666
0.52291
0.49709
0.49212
0.48183
0.48011
0.44326
0.46537
0.41693
0.40656
0.41219
0.41386
0.38896
0.36237
0.34204
0.32101
0.3169
0.28266
0.30223
0.28493
0.30442
0.28214
0.31417
0.31537
0.28389
0.30881
0.31279
0.33168
0.36541
0.36303
0.36944
0.36642
0.36227
0.37067
0.39262
0.39455
0.43521
0.46418
0.49652
0.52248
0.54204
0.55513
0.56981
0.56019
0.5758
0.57628
0.58266
0.56409
0.55466
0.56947
0.56592
0.58352
0.59376
0.57983
0.56191
0.53865
0.5088
0.48871
0.47905
0.49567
0.48273
0.49242
0.50303
0.48735
0.49717
0.51261
0.51787
0.47084
0.47886
0.47733
0.46376
0.47759
0.45753
0.47315
0.4712
0.48575
0.51456
0.53196
0.54556
0.54739
0.53814
0.54083
0.55928
0.59321
0.57969
0.57136
0.52665
0.50494
0.51395
0.47501
0.46156
0.44795
0.4232
0.40489
0.41133
0.4298
0.44011
0.41973
0.40735
0.42017
0.41728
0.46122
0.48284
0.43567
0.43157
0.42323
0.40198
0.37907
0.39139
0.37913
0.35679
0.37039
0.31796
0.33296
0.32086
0.3188
0.30884
0.33947
0.35814
0.32667
0.32452
0.3022
0.34804
0.34897
0.33725
0.33632
0.35947
0.34501
0.31347
0.34007
0.32237
0.33629
0.33745
0.32315
0.3316
0.35871
0.38164
0.36516
0.38423
0.41262
0.43655
0.45912
0.46004
0.45373
0.44714
0.46759
0.4717
0.44654
0.46202
0.46046
0.45538
0.47711
0.4959
0.50287
0.48005
0.48598
0.50109
0.50172
0.46645
0.47761
0.49659
0.51257
0.52253
0.50843
0.48731
0.48004
0.45188
0.47649
0.48647
0.47237
0.4836
0.48995
0.46764
0.42911
0.41767
0.37643
0.364
0.35591
0.35521
0.34526
0.34913
0.34377
0.33891
0.34961
0.35462
0.31267
0.32417
0.32643
0.31311
0.27718
0.27503
0.30353
0.28382
0.27722
0.24831
0.23622
0.23363
0.24208
0.26046
0.26822
0.26182
0.27591
0.26444
0.28728
0.30491
0.28878
0.25121
0.2557
0.25925
0.27145
0.28704
0.29914
0.28434
0.28735
0.31979
0.33434
0.32949
0.33123
0.36707
0.37485
0.3787
0.39317
0.4056
0.42761
0.42475
0.41503
0.41148
0.43602
0.44748
0.43118
0.40635
0.43305
0.44104
0.44572
0.45804
0.46241
0.44533
0.46163
0.46369
0.45225
0.43631
0.42582
0.39827
0.38014
0.3691
0.35169
0.36828
0.38963
0.37554
0.32716
0.30307
0.29463
0.29933
0.29666
0.2571
0.26455
0.28145
0.2998
0.31796
0.26611
0.26533
0.26978
0.26556
0.27025
0.29481
0.30892
0.30093
0.26886
0.25847
0.22837
0.23433
0.22683
0.22814
0.21047
0.18331
0.19154
0.22601
0.1834
0.17259
0.15119
0.14278
0.15691
0.15506
0.16058
0.20379
0.21337
0.18717
0.20693
0.18146
0.1632
0.16194
0.16431
0.14624
0.16527
0.17273
0.13939
0.14332
0.1376
0.13231
0.13809
0.15672
0.14403
0.1562
0.17642
0.16713
0.15201
0.15206
0.13629
0.11197
0.12793
0.098175
0.076288
0.087749
0.075974
0.082183
0.064633
0.061143
0.04529
0.05225
0.056298
0.04952
0.054987
0.086289
0.095961
0.11423
0.10746
0.11105
0.087934
0.087158
0.068631
0.070242
0.051026
0.051114
0.0707
0.0673
0.076579
0.065267
0.066127
0.061154
0.054466
0.078658
0.079333
0.092962
0.1103
0.093401
0.10001
0.10971
0.090146
0.065588
0.049083
0.049287
0.059859
0.072284
0.089573
0.096602
0.099104
0.10436
0.087574
0.091115
0.087683
0.10971
0.10252
0.10483
0.11678
0.11664
0.14164
0.15963
0.16643
0.17265
0.1455
0.10141
0.081545
0.075548
0.10468
0.094989
0.084217
0.062509
0.062241
0.065603
0.084731
0.099253
0.10165
