2.0018
2.181
2.4682
2.284
2.3459
2.2963
2.3322
2.3693
2.465
2.5871
2.6341
2.6186
2.6373
2.5001
2.3411
2.1831
1.9092
2.0604
2.0653
1.7132
1.5141
1.4824
1.4403
1.4696
1.4099
1.5529
1.4821
1.3887
1.3919
1.3736
1.3333
1.1552
1.2145
1.3953
1.4544
1.3229
1.4733
1.6165
1.9635
2.0305
1.8661
2.0137
1.9184
1.8704
1.7769
1.429
1.044
1.1336
1.0738
1.3017
1.3695
1.3134
1.312
1.1145
0.88931
0.95229
1.1637
1.3693
1.224
1.183
1.0613
1.0536
1.0302
1.056
1.1111
1.0469
1.0963
1.1105
1.2346
1.1238
1.0119
1.0525
1.269
1.2261
1.3253
1.2473
1.0353
1.1696
1.1393
1.047
1.2325
1.1567
1.1136
1.1952
0.82873
0.81087
0.35407
0.45976
0.53435
0.37937
0.49287
0.71627
1.2386
1.0227
1.0433
0.63728
0.52265
0.25522
0.35942
0.56422
0.77704
0.85209
0.72867
0.7428
0.41497
1.0312
1.2161
1.0018
0.98627
0.98643
0.89604
0.94093
0.71364
0.7411
0.83552
0.98783
1.1672
1.0898
1.2664
1.1516
0.99894
0.79436
0.69819
0.83792
0.59956
0.81747
0.92904
0.87328
0.83938
1.169
1.3009
1.3933
1.3826
1.5632
1.7043
1.5097
1.3979
1.3917
1.0945
0.98544
0.97377
0.97122
0.9308
0.8746
0.6436
0.55752
0.75293
1.0321
1.3313
1.2673
1.2343
1.0791
1.2423
1.1337
1.0715
0.91842
1.1066
0.914
0.78025
0.88215
0.8851
0.72444
1.0459
0.92495
0.70424
1.1252
1.3162
1.5609
1.778
1.5251
1.3158
1.3714
1.4123
1.4351
1.3829
1.4122
1.3788
1.2838
1.3765
1.5107
1.5736
1.4588
1.9556
1.971
1.9488
1.9109
1.9495
1.9764
1.9212
2.079
2.1675
2.1015
2.0798
2.0916
1.905
1.8625
2.0101
2.2296
2.3143
2.2361
1.7326
1.9226
1.9776
2.0763
1.9132
1.8813
1.7452
1.478
1.5446
1.8384
1.8931
1.9101
1.9948
1.9435
1.6646
1.6505
1.5571
1.5203
1.4611
1.4703
1.4343
1.4858
1.4539
1.561
1.8365
1.8915
1.8952
1.6854
1.657
1.4477
1.6012
1.4338
1.4551
1.4581
1.3078
1.3652
1.418
1.3216
1.3988
1.0914
0.77574
0.842
0.92126
1.0147
1.2644
1.472
1.4399
1.4
1.3474
1.3068
1.1597
1.0305
1.0006
0.89553
1.1054
1.0912
0.87406
0.87327
1.086
1.2046
1.4034
1.4622
1.3211
1.3443
1.2333
1.3666
1.3593
1.006
0.83394
0.76929
0.99669
1.3933
1.4571
1.375
1.2412
1.4885
1.4552
1.3349
1.1724
1.1058
1.1109
1.0092
0.77395
0.78089
0.75145
0.68429
0.99583
1.1338
1.3552
1.3221
1.1939
1.0686
0.7611
0.82267
0.9579
0.92924
0.82687
0.78765
0.79974
0.65518
0.61714
0.6642
0.59147
0.57794
0.65267
0.73501
0.65634
0.6345
0.51961
0.58062
0.5916
0.55424
0.55839
0.50582
0.63952
0.60096
0.66565
0.50016
0.37502
0.22058
0.24451
0.16143
0.28478
0.24048
0.28527
0.28338
0.19121
0.26316
0.1858
0.24366
0.26029
0.21957
0.25568
0.30158
0.33986
0.41715
0.39833
0.39208
0.47712
0.48881
0.45712
0.4504
0.58029
0.60615
0.58248
0.72775
0.5637
0.78222
0.62966
0.6282
0.66448
1.0958
0.91698
1.3567
1.2942
1.5122
1.4337
1.2211
1.3977
1.5654
1.6157
1.6591
1.3631
1.0352
1.0341
0.94762
1.0059
1.0085
1.0514
0.89142
0.79649
0.81728
0.80173
0.81688
0.69893
0.59334
0.69968
0.81303
1.0277
1.2688
1.2899
1.4816
1.5763
1.6714
1.8044
1.9509
2.0466
2.1049
2.0975
1.9119
1.6886
1.4615
1.584
1.434
1.4134
1.4603
1.608
1.5364
1.6388
1.7669
1.8685
1.5241
1.6693
1.6863
1.7822
1.531
1.2911
1.2134
1.1434
1.0855
1.036
0.99811
1.0653
0.85407
0.69806
0.72242
0.73369
0.88553
0.8412
0.87099
0.96409
0.91705
0.71651
0.67899
1.1623
0.68171
0.58288
1.1314
1.0045
1.0295
1.176
0.98424
0.82795
0.92464
0.91823
0.96842
1.017
0.92063
0.87172
0.86205
1.0086
0.94223
0.90689
0.63991
0.49716
0.86868
0.87222
1.0089
0.73871
0.48124
0.72654
0.98223
1.019
0.97636
0.94222
0.86115
0.75932
0.95846
0.85732
0.88422
0.82194
0.64284
0.50084
0.68159
0.75273
0.80332
0.69822
0.5896
0.6999
0.70857
0.74313
0.87885
0.66396
0.76306
0.80807
0.84953
0.8616
0.70791
0.69902
0.75306
0.81644
0.57154
0.54839
0.54595
0.61312
0.7257
0.68718
0.64526
0.70816
0.5348
0.59009
0.8047
1.0336
0.72439
0.60753
0.44426
0.64017
0.77058
0.74247
0.69061
0.58284
0.64415
0.60171
0.55308
0.46336
0.56521
0.76664
0.81454
0.7909
0.84715
0.60933
0.5893
0.85127
0.91013
0.97617
0.86191
0.57301
0.62185
0.46431
0.42677
0.59856
0.49233
0.55609
0.49368
0.30317
0.29301
0.2555
0.39232
0.82012
0.7105
0.69307
0.58501
0.70363
0.86724
0.80058
0.66427
0.80439
0.59683
0.3809
0.54366
0.32784
0.39957
0.41385
0.58755
0.4768
0.92071
0.87602
0.50011
0.27246
0.27463
0.42476
0.49318
0.19041
0.355
0.4512
0.42622
0.40019
0.35864
0.3263
0.34312
0.1425
0.2497
0.30681
0.26042
0.36076
0.49452
0.53755
0.62474
0.99554
0.91663
1.0159
1.0496
1.0645
0.95539
0.85427
0.86173
0.85871
0.98225
1.0794
1.1976
0.9153
0.65489
0.41211
0.51468
0.61609
0.88806
0.85634
0.99071
0.85481
0.9049
0.90886
0.93846
0.6847
0.71783
0.79237
0.81786
0.91983
0.6626
0.99811
1.0232
0.82692
0.99856
0.93466
0.96962
1.0237
1.1336
1.3054
1.4933
1.3802
1.3107
1.3943
1.6274
1.6271
1.6701
1.6495
1.2094
1.451
1.6703
1.9406
2.1187
2.1388
2.1511
2.0179
1.9996
1.8702
1.5563
1.5225
1.8182
2.023
1.7276
1.6905
1.6893
1.7308
1.7179
1.7351
1.5683
1.5022
1.5333
1.5095
1.2535
1.291
1.2935
1.4545
1.5175
1.4936
1.3803
1.2537
1.3793
1.313
1.2578
1.3374
1.3686
1.4922
1.369
1.3619
1.2865
1.2218
1.055
0.75067
0.65829
0.7935
0.89807
1.0422
1.2161
1.3232
1.3349
1.3154
1.2465
1.2449
1.0959
1.2037
1.376
1.5687
1.6101
1.5373
1.5233
1.2895
1.4835
1.5476
1.5357
1.3591
1.0852
1.4961
1.6109
1.4631
1.7719
1.7085
1.95
1.7571
1.5267
1.5911
1.7673
1.5395
1.6216
1.3677
1.1962
1.1568
1.1347
1.1992
1.2744
0.8202
0.83611
0.98148
1.2213
1.0892
1.0127
1.0329
0.68275
1.0102
1.1117
0.95397
1.036
0.84305
0.80207
0.77498
1.0952
1.0676
0.99535
1.0116
1.1969
1.2789
1.3637
1.2335
1.1738
1.3091
1.4252
1.3732
1.3209
1.2625
1.3266
1.4823
1.5417
1.5239
1.7859
1.8363
1.9074
1.8058
1.7575
1.6615
1.6094
1.6261
1.6156
1.541
1.5276
1.8054
1.8069
2.0705
2.0398
2.0129
1.9176
1.6684
1.4862
1.3218
1.5016
1.6361
1.8578
1.7795
1.5381
1.5807
1.8402
1.7935
1.6708
1.8838
2.0458
2.021
2.18
2.1933
2.3375
2.4019
2.3605
1.9766
1.6595
1.6061
1.541
1.1962
1.3384
1.3129
1.553
1.7496
1.5875
1.4724
1.5339
1.4002
1.0731
1.1563
1.0934
1.028
0.92543
1.1906
1.0977
1.3692
0.86901
0.94909
1.052
1.2493
1.246
1.4328
1.3755
1.2218
1.3976
0.97041
0.82078
0.89216
0.78395
0.87674
0.89512
0.96994
1.0142
0.84997
1.0495
1.3201
1.4553
1.4705
1.5508
1.4862
1.4614
1.2547
1.2456
1.3589
1.3642
1.262
1.1833
1.3356
1.3762
1.2557
1.1173
1.0569
0.85894
0.86528
0.82067
0.84618
0.81321
0.67138
0.38389
0.4973
0.56556
0.65488
0.47148
0.45622
0.4337
0.4595
0.50212
0.36745
0.32322
0.48365
0.48055
0.4989
0.55011
0.65702
0.82685
0.87618
0.49271
0.84478
0.96883
0.67772
0.6965
0.84297
0.97363
1.1019
1.0322
0.70991
0.78615
0.74346
0.78574
0.46548
0.73855
0.89418
0.98453
1.0339
0.95753
1.0697
1.183
1.3663
1.2146
1.1516
1.0685
1.3269
1.5025
1.2491
1.141
1.2908
1.4214
1.3746
1.2319
1.2823
1.4627
1.325
1.2414
0.94345
0.8918
0.87971
0.6761
0.69
0.81054
0.81743
0.98166
0.99259
0.95542
0.89703
0.87068
0.77324
0.85631
0.74873
0.76955
0.71082
0.36189
0.57529
0.79297
0.71508
0.69855
0.89003
0.92227
0.7866
0.71125
0.78882
0.73952
0.78012
1.0162
1.0259
0.91731
0.90514
0.68289
0.57931
0.28421
0.56396
0.58464
0.68296
0.82088
0.6835
0.65824
0.76474
0.95728
1.016
1.0942
0.84306
0.87764
0.85337
0.89478
0.85207
0.95549
1.0677
1.105
0.9013
1.0184
1.0911
1.2172
1.2524
1.296
1.5141
1.68
1.7551
1.9833
1.6307
1.165
0.74024
0.94718
0.90112
1.008
0.89494
0.79828
0.98358
1.0149
0.96715
0.86422
0.95764
0.91929
0.98665
1.0189
0.87523
0.88159
0.87855
0.97554
1.0752
1.5621
1.4013
1.4937
1.6934
1.9953
2.1352
2.1415
2.1575
1.9649
1.5074
1.1646
1.1702
1.0392
1.1765
1.2146
1.2126
0.93406
0.93883
0.89924
1.1655
1.1498
1.2127
1.0347
1.0193
0.7629
0.69441
0.67529
1.214
1.1356
1.0977
1.1107
1.1255
1.0669
1.0933
1.0589
1.0069
1.0375
1.036
0.96771
1.4393
1.4321
1.2481
0.9883
1.0861
0.69834
0.51199
0.7709
0.7326
0.90968
0.94832
1.0978
0.92717
0.69287
0.6553
0.56108
0.47731
0.51789
0.63839
0.6044
0.6087
0.67081
0.67247
0.51742
0.50149
0.33588
0.45797
0.59881
0.62904
0.49624
0.36006
0.45494
0.44012
0.43325
0.47579
0.44085
0.43531
0.47493
0.75387
0.79897
0.64455
0.70798
0.73838
0.65252
0.45868
0.67612
0.65182
0.78828
0.70856
0.9702
1.1133
1.2016
0.90622
1.1031
1.1958
0.82011
0.8154
0.85868
0.80493
0.92705
1.105
1.3023
1.4065
1.4997
1.4431
1.4812
1.5087
1.5537
1.5383
1.5286
1.3508
1.2835
1.3688
1.311
1.2272
1.2012
1.2097
1.1614
1.301
1.3974
1.4435
1.4401
1.4292
1.4008
1.3893
1.3196
1.2572
1.0706
0.77782
0.97922
1.2193
0.98351
0.99185
1.0133
0.96568
1.1132
0.93583
1.1457
1.2624
1.1342
1.1879
1.0924
1.0696
0.93771
0.92537
0.7593
0.52392
0.45159
0.47648
0.39303
0.48695
0.6796
0.63298
0.62737
0.49831
0.2972
0.26154
0.34873
0.28419
0.22071
0.35454
0.51236
0.43663
0.68254
1.028
1.1033
1.0619
0.90742
0.8764
0.70888
0.96875
1.0077
0.83221
0.81434
0.97677
1.1142
1.0421
1.0159
0.8733
0.69332
0.71304
0.62369
0.52432
0.56624
0.51243
0.39781
0.24881
0.19239
0.41595
0.99371
0.89422
0.64266
0.77114
0.93577
1.0705
0.93067
0.41861
0.73631
0.76471
0.95603
0.98058
1.0698
0.96186
1.1578
1.1178
1.1029
1.1662
1.3044
1.3946
1.4838
1.6894
1.7685
1.7977
1.7037
1.7728
1.6653
1.4514
1.6136
1.5758
1.6438
1.8605
1.9763
2.0165
2.1106
2.1248
2.0247
1.9435
1.7493
1.8325
1.7219
1.6402
1.4503
1.079
0.85103
1.1358
1.4798
1.3782
1.1405
1.0057
1.0204
1.1547
1.0561
1.2641
1.433
1.6826
1.7008
1.6224
1.6515
1.6774
1.6464
1.5485
1.3817
1.4637
1.5709
1.6449
1.8063
1.8977
1.7814
1.698
1.4274
1.5018
1.2557
0.91553
0.79165
0.74627
0.94266
0.85952
0.68749
0.58283
0.4475
0.40153
0.48713
0.4198
0.23716
0.2122
0.24251
0.22401
0.22609
0.24925
0.34201
0.38388
0.45778
0.5906
0.77214
0.8999
0.92128
0.84916
0.9639
0.79699
0.65292
0.70486
0.65476
0.77456
0.6973
0.67802
0.57651
1.0658
1.4673
1.3653
1.1583
0.93593
0.87722
0.85589
0.82595
1.0055
0.97853
0.85346
0.75138
0.77247
0.73407
0.77386
0.85601
0.87217
0.75266
0.87381
0.81325
0.82899
0.78416
0.71796
0.69106
0.69046
0.72564
0.74654
0.83363
0.7604
0.6749
0.76262
0.74864
0.77059
0.81899
0.84788
0.76893
0.73391
0.84763
0.78347
0.9504
1.3027
1.279
1.2962
1.2126
1.2398
1.2296
1.2189
1.1714
1.0569
1.0801
1.1499
1.0335
1.0365
0.98309
0.9463
1.0515
1.0711
1.1591
1.1945
1.1492
1.0923
1.1407
0.9428
0.76476
0.67922
0.90088
0.83278
0.69645
0.61709
0.73077
0.72115
0.85674
0.9154
0.79553
0.8292
0.76722
0.78274
0.8316
0.77218
0.8683
0.88178
0.78073
0.91227
1.0116
0.96047
0.90152
0.71633
0.63296
0.75389
0.68733
0.55324
0.50801
0.56832
0.71804
0.97934
0.99901
0.93365
0.78434
0.73929
0.79971
0.84002
0.54504
0.48982
0.31601
0.71266
0.69183
0.66399
0.55591
0.49231
0.46071
0.51403
0.5546
0.68971
0.76665
0.50422
0.6074
0.53884
0.71358
0.56818
0.55155
0.55866
0.44343
0.44845
0.49438
0.62408
0.72655
0.74633
0.64595
0.59217
0.55308
0.63769
1.1056
1.2158
1.2718
1.2315
1.1846
1.0675
0.85092
0.88043
1.0742
1.2407
1.353
1.3344
1.5627
1.6888
1.4246
1.5396
1.5192
1.5901
1.6459
1.5613
1.2958
1.1817
1.1545
1.2458
1.2349
0.9801
1.0372
1.1007
1.089
0.9888
1.005
0.84918
0.80853
0.8297
0.78856
0.72485
0.85691
0.86734
0.78254
0.95738
0.94371
0.93656
0.95948
1.0137
1.0252
1.0041
0.88171
0.54655
0.88696
0.80595
0.7087
0.7441
0.82665
0.8824
0.96432
1.0574
1.0407
1.2305
1.2773
1.3123
1.2734
1.1549
1.079
1.1102
0.99591
1.052
1.094
1.0013
1.1603
1.2243
1.3132
1.0602
0.84005
0.60234
0.62454
0.63712
0.86565
0.9099
1.0468
0.94568
0.83429
0.72519
0.93962
1.0711
1.2802
1.2885
1.2741
1.1058
1.1798
1.0565
0.94649
0.85541
0.8605
0.72112
1.0118
1.1585
1.2596
1.1785
1.181
1.0305
0.76632
0.7613
0.75807
0.71061
0.80242
0.79474
0.86057
0.97074
0.8846
0.86158
0.86423
0.87423
0.80047
0.90881
0.84231
1.0379
0.93143
0.85796
0.85726
0.96966
1.1568
1.3568
1.1456
1.257
1.2854
1.3319
1.1053
0.84579
0.8906
1.1226
1.1039
1.0735
1.2501
1.2623
1.2947
1.2237
1.0998
1.357
1.3634
1.3584
1.0306
0.96975
1.0266
0.88708
0.88095
0.91653
0.75774
0.68623
0.53561
0.46
0.50588
0.71344
0.73545
0.60101
0.46568
0.60096
0.88102
0.89747
0.97201
0.92869
0.95386
0.9491
0.88236
1.1634
1.1467
1.3631
1.3041
1.1547
1.0243
1.2842
1.2728
1.453
1.4487
1.526
1.7302
1.8009
1.871
2.0086
2.0233
2.0507
2.0035
2.0728
2.1914
2.1244
1.93
1.9585
2.041
1.9981
1.955
2.1737
2.1163
2.0946
2.0963
2.0389
2.042
1.9176
1.9531
2.1571
2.094
2.3026
2.2955
2.3284
2.2956
2.3134
2.2689
2.2639
2.0972
2.0411
1.9612
1.8576
1.7891
1.8539
1.6204
