list.txt
scene00001.jpg
scene00011.jpg
scene00021.jpg
scene00031.jpg
scene00041.jpg
scene00051.jpg
scene00061.jpg
scene00071.jpg
scene00081.jpg
scene00091.jpg
scene00101.jpg
scene00111.jpg
scene00121.jpg
scene00131.jpg
scene00141.jpg
scene00151.jpg
scene00161.jpg
scene00171.jpg
scene00181.jpg
scene00191.jpg
scene00201.jpg
scene00211.jpg
scene00221.jpg
scene00231.jpg
scene00241.jpg
scene00251.jpg
scene00261.jpg
scene00271.jpg
scene00281.jpg
scene00291.jpg
scene00301.jpg
scene00311.jpg
scene00321.jpg
scene00331.jpg
scene00341.jpg
scene00351.jpg
scene00361.jpg
scene00371.jpg
scene00381.jpg
scene00391.jpg
scene00401.jpg
scene00411.jpg
scene00421.jpg
scene00431.jpg
scene00441.jpg
scene00451.jpg
scene00461.jpg
scene00471.jpg
scene00481.jpg
scene00491.jpg
scene00501.jpg
scene00511.jpg
scene00521.jpg
scene00531.jpg
scene00541.jpg
scene00551.jpg
scene00561.jpg
scene00571.jpg
scene00581.jpg
scene00591.jpg
scene00601.jpg
scene00611.jpg
scene00621.jpg
scene00631.jpg
scene00641.jpg
scene00651.jpg
scene00661.jpg
scene00671.jpg
scene00681.jpg
scene00691.jpg
scene00701.jpg
scene00711.jpg
scene00721.jpg
scene00731.jpg
scene00741.jpg
scene00751.jpg
scene00761.jpg
scene00771.jpg
scene00781.jpg
scene00791.jpg
scene00801.jpg
scene00811.jpg
scene00821.jpg
scene00831.jpg
scene00841.jpg
scene00851.jpg
scene00861.jpg
scene00871.jpg
scene00881.jpg
scene00891.jpg
scene00901.jpg
scene00911.jpg
scene00921.jpg
scene00931.jpg
scene00941.jpg
scene00951.jpg
scene00961.jpg
scene00971.jpg
scene00981.jpg
scene00991.jpg
scene01001.jpg
scene01011.jpg
scene01021.jpg
scene01031.jpg
scene01041.jpg
scene01051.jpg
scene01061.jpg
scene01071.jpg
scene01081.jpg
scene01091.jpg
scene01101.jpg
scene01111.jpg
scene01121.jpg
scene01131.jpg
scene01141.jpg
scene01151.jpg
scene01161.jpg
scene01171.jpg
scene01181.jpg
scene01191.jpg
scene01201.jpg
scene01211.jpg
scene01221.jpg
scene01231.jpg
scene01241.jpg
scene01251.jpg
scene01261.jpg
scene01271.jpg
scene01281.jpg
scene01291.jpg
scene01301.jpg
scene01311.jpg
scene01321.jpg
scene01331.jpg
scene01341.jpg
scene01351.jpg
scene01361.jpg
scene01371.jpg
scene01381.jpg
scene01391.jpg
scene01401.jpg
scene01411.jpg
scene01421.jpg
scene01431.jpg
scene01441.jpg
scene01451.jpg
scene01461.jpg
scene01471.jpg
scene01481.jpg
scene01491.jpg
scene01501.jpg
scene01511.jpg
scene01521.jpg
scene01531.jpg
scene01541.jpg
scene01551.jpg
scene01561.jpg
scene01571.jpg
scene01581.jpg
scene01591.jpg
scene01601.jpg
scene01611.jpg
scene01621.jpg
scene01631.jpg
scene01641.jpg
scene01651.jpg
scene01661.jpg
scene01671.jpg
scene01681.jpg
scene01691.jpg
scene01701.jpg
scene01711.jpg
scene01721.jpg
scene01731.jpg
scene01741.jpg
scene01751.jpg
scene01761.jpg
scene01771.jpg
scene01781.jpg
scene01791.jpg
scene01801.jpg
scene01811.jpg
scene01821.jpg
scene01831.jpg
scene01841.jpg
scene01851.jpg
scene01861.jpg
scene01871.jpg
scene01881.jpg
scene01891.jpg
scene01901.jpg
scene01911.jpg
scene01921.jpg
scene01931.jpg
scene01941.jpg
scene01951.jpg
scene01961.jpg
scene01971.jpg
scene01981.jpg
scene01991.jpg
scene02001.jpg
scene02011.jpg
scene02021.jpg
scene02031.jpg
scene02041.jpg
scene02051.jpg
scene02061.jpg
scene02071.jpg
scene02081.jpg
scene02091.jpg
scene02101.jpg
scene02111.jpg
scene02121.jpg
scene02131.jpg
scene02141.jpg
scene02151.jpg
scene02161.jpg
scene02171.jpg
scene02181.jpg
scene02191.jpg
scene02201.jpg
scene02211.jpg
scene02221.jpg
scene02231.jpg
scene02241.jpg
scene02251.jpg
scene02261.jpg
scene02271.jpg
scene02281.jpg
scene02291.jpg
scene02301.jpg
scene02311.jpg
scene02321.jpg
scene02331.jpg
scene02341.jpg
scene02351.jpg
scene02361.jpg
scene02371.jpg
scene02381.jpg
scene02391.jpg
scene02401.jpg
scene02411.jpg
scene02421.jpg
scene02431.jpg
scene02441.jpg
scene02451.jpg
scene02461.jpg
scene02471.jpg
scene02481.jpg
scene02491.jpg
scene02501.jpg
scene02511.jpg
scene02521.jpg
scene02531.jpg
scene02541.jpg
scene02551.jpg
scene02561.jpg
scene02571.jpg
scene02581.jpg
scene02591.jpg
scene02601.jpg
scene02611.jpg
scene02621.jpg
scene02631.jpg
scene02641.jpg
scene02651.jpg
scene02661.jpg
scene02671.jpg
scene02681.jpg
scene02691.jpg
scene02701.jpg
scene02711.jpg
scene02721.jpg
scene02731.jpg
scene02741.jpg
scene02751.jpg
scene02761.jpg
scene02771.jpg
scene02781.jpg
scene02791.jpg
scene02801.jpg
scene02811.jpg
scene02821.jpg
scene02831.jpg
scene02841.jpg
scene02851.jpg
scene02861.jpg
scene02871.jpg
scene02881.jpg
scene02891.jpg
scene02901.jpg
scene02911.jpg
scene02921.jpg
scene02931.jpg
scene02941.jpg
scene02951.jpg
scene02961.jpg
scene02971.jpg
scene02981.jpg
scene02991.jpg
scene03001.jpg
scene03011.jpg
scene03021.jpg
scene03031.jpg
scene03041.jpg
scene03051.jpg
scene03061.jpg
scene03071.jpg
scene03081.jpg
scene03091.jpg
scene03101.jpg
scene03111.jpg
scene03121.jpg
scene03131.jpg
scene03141.jpg
scene03151.jpg
scene03161.jpg
scene03171.jpg
scene03181.jpg
scene03191.jpg
scene03201.jpg
scene03211.jpg
scene03221.jpg
scene03231.jpg
scene03241.jpg
scene03251.jpg
scene03261.jpg
scene03271.jpg
scene03281.jpg
scene03291.jpg
scene03301.jpg
scene03311.jpg
scene03321.jpg
scene03331.jpg
scene03341.jpg
scene03351.jpg
scene03361.jpg
scene03371.jpg
scene03381.jpg
scene03391.jpg
scene03401.jpg
scene03411.jpg
scene03421.jpg
scene03431.jpg
scene03441.jpg
scene03451.jpg
scene03461.jpg
scene03471.jpg
scene03481.jpg
scene03491.jpg
scene03501.jpg
scene03511.jpg
scene03521.jpg
scene03531.jpg
scene03541.jpg
scene03551.jpg
scene03561.jpg
scene03571.jpg
scene03581.jpg
scene03591.jpg
scene03601.jpg
scene03611.jpg
scene03621.jpg
scene03631.jpg
scene03641.jpg
scene03651.jpg
scene03661.jpg
scene03671.jpg
scene03681.jpg
scene03691.jpg
scene03701.jpg
scene03711.jpg
scene03721.jpg
scene03731.jpg
scene03741.jpg
scene03751.jpg
scene03761.jpg
scene03771.jpg
scene03781.jpg
scene03791.jpg
scene03801.jpg
scene03811.jpg
scene03821.jpg
scene03831.jpg
scene03841.jpg
scene03851.jpg
scene03861.jpg
scene03871.jpg
scene03881.jpg
scene03891.jpg
scene03901.jpg
scene03911.jpg
scene03921.jpg
scene03931.jpg
scene03941.jpg
scene03951.jpg
scene03961.jpg
scene03971.jpg
scene03981.jpg
scene03991.jpg
scene04001.jpg
scene04011.jpg
scene04021.jpg
scene04031.jpg
scene04041.jpg
scene04051.jpg
scene04061.jpg
scene04071.jpg
scene04081.jpg
scene04091.jpg
scene04101.jpg
scene04111.jpg
scene04121.jpg
scene04131.jpg
scene04141.jpg
scene04151.jpg
scene04161.jpg
scene04171.jpg
scene04181.jpg
scene04191.jpg
scene04201.jpg
scene04211.jpg
scene04221.jpg
scene04231.jpg
scene04241.jpg
scene04251.jpg
scene04261.jpg
scene04271.jpg
scene04281.jpg
scene04291.jpg
scene04301.jpg
scene04311.jpg
scene04321.jpg
scene04331.jpg
scene04341.jpg
scene04351.jpg
scene04361.jpg
scene04371.jpg
scene04381.jpg
scene04391.jpg
scene04401.jpg
scene04411.jpg
scene04421.jpg
scene04431.jpg
scene04441.jpg
scene04451.jpg
scene04461.jpg
scene04471.jpg
scene04481.jpg
scene04491.jpg
scene04501.jpg
scene04511.jpg
scene04521.jpg
scene04531.jpg
scene04541.jpg
scene04551.jpg
scene04561.jpg
scene04571.jpg
scene04581.jpg
scene04591.jpg
scene04601.jpg
scene04611.jpg
scene04621.jpg
scene04631.jpg
scene04641.jpg
scene04651.jpg
scene04661.jpg
scene04671.jpg
scene04681.jpg
scene04691.jpg
scene04701.jpg
scene04711.jpg
scene04721.jpg
scene04731.jpg
scene04741.jpg
scene04751.jpg
scene04761.jpg
scene04771.jpg
scene04781.jpg
scene04791.jpg
scene04801.jpg
scene04811.jpg
scene04821.jpg
scene04831.jpg
scene04841.jpg
scene04851.jpg
scene04861.jpg
scene04871.jpg
scene04881.jpg
scene04891.jpg
scene04901.jpg
scene04911.jpg
scene04921.jpg
scene04931.jpg
scene04941.jpg
scene04951.jpg
scene04961.jpg
scene04971.jpg
scene04981.jpg
scene04991.jpg
scene05001.jpg
scene05011.jpg
scene05021.jpg
scene05031.jpg
scene05041.jpg
scene05051.jpg
scene05061.jpg
scene05071.jpg
scene05081.jpg
scene05091.jpg
scene05101.jpg
scene05111.jpg
scene05121.jpg
scene05131.jpg
scene05141.jpg
scene05151.jpg
scene05161.jpg
scene05171.jpg
scene05181.jpg
scene05191.jpg
scene05201.jpg
scene05211.jpg
scene05221.jpg
scene05231.jpg
scene05241.jpg
scene05251.jpg
scene05261.jpg
scene05271.jpg
scene05281.jpg
scene05291.jpg
scene05301.jpg
scene05311.jpg
scene05321.jpg
scene05331.jpg
scene05341.jpg
scene05351.jpg
scene05361.jpg
scene05371.jpg
scene05381.jpg
scene05391.jpg
scene05401.jpg
scene05411.jpg
scene05421.jpg
scene05431.jpg
scene05441.jpg
scene05451.jpg
scene05461.jpg
scene05471.jpg
scene05481.jpg
scene05491.jpg
scene05501.jpg
scene05511.jpg
scene05521.jpg
scene05531.jpg
scene05541.jpg
scene05551.jpg
scene05561.jpg
scene05571.jpg
scene05581.jpg
scene05591.jpg
scene05601.jpg
scene05611.jpg
scene05621.jpg
scene05631.jpg
scene05641.jpg
scene05651.jpg
scene05661.jpg
scene05671.jpg
scene05681.jpg
scene05691.jpg
scene05701.jpg
scene05711.jpg
scene05721.jpg
scene05731.jpg
scene05741.jpg
scene05751.jpg
scene05761.jpg
scene05771.jpg
scene05781.jpg
scene05791.jpg
scene05801.jpg
scene05811.jpg
scene05821.jpg
scene05831.jpg
scene05841.jpg
scene05851.jpg
scene05861.jpg
scene05871.jpg
scene05881.jpg
scene05891.jpg
scene05901.jpg
scene05911.jpg
scene05921.jpg
scene05931.jpg
scene05941.jpg
scene05951.jpg
scene05961.jpg
scene05971.jpg
scene05981.jpg
scene05991.jpg
scene06001.jpg
scene06011.jpg
scene06021.jpg
scene06031.jpg
scene06041.jpg
scene06051.jpg
scene06061.jpg
scene06071.jpg
scene06081.jpg
scene06091.jpg
scene06101.jpg
scene06111.jpg
scene06121.jpg
scene06131.jpg
scene06141.jpg
scene06151.jpg
scene06161.jpg
scene06171.jpg
scene06181.jpg
scene06191.jpg
scene06201.jpg
scene06211.jpg
scene06221.jpg
scene06231.jpg
scene06241.jpg
scene06251.jpg
scene06261.jpg
scene06271.jpg
scene06281.jpg
scene06291.jpg
scene06301.jpg
scene06311.jpg
scene06321.jpg
scene06331.jpg
scene06341.jpg
scene06351.jpg
scene06361.jpg
scene06371.jpg
scene06381.jpg
scene06391.jpg
scene06401.jpg
scene06411.jpg
scene06421.jpg
scene06431.jpg
scene06441.jpg
scene06451.jpg
scene06461.jpg
scene06471.jpg
scene06481.jpg
scene06491.jpg
scene06501.jpg
scene06511.jpg
scene06521.jpg
scene06531.jpg
scene06541.jpg
scene06551.jpg
scene06561.jpg
scene06571.jpg
scene06581.jpg
scene06591.jpg
scene06601.jpg
scene06611.jpg
scene06621.jpg
scene06631.jpg
scene06641.jpg
scene06651.jpg
scene06661.jpg
scene06671.jpg
scene06681.jpg
scene06691.jpg
scene06701.jpg
scene06711.jpg
scene06721.jpg
scene06731.jpg
scene06741.jpg
scene06751.jpg
scene06761.jpg
scene06771.jpg
scene06781.jpg
scene06791.jpg
scene06801.jpg
scene06811.jpg
scene06821.jpg
scene06831.jpg
scene06841.jpg
scene06851.jpg
scene06861.jpg
scene06871.jpg
scene06881.jpg
scene06891.jpg
scene06901.jpg
scene06911.jpg
scene06921.jpg
scene06931.jpg
scene06941.jpg
scene06951.jpg
scene06961.jpg
scene06971.jpg
scene06981.jpg
scene06991.jpg
scene07001.jpg
scene07011.jpg
scene07021.jpg
scene07031.jpg
scene07041.jpg
scene07051.jpg
scene07061.jpg
scene07071.jpg
scene07081.jpg
scene07091.jpg
scene07101.jpg
scene07111.jpg
scene07121.jpg
scene07131.jpg
scene07141.jpg
scene07151.jpg
scene07161.jpg
scene07171.jpg
scene07181.jpg
scene07191.jpg
scene07201.jpg
scene07211.jpg
scene07221.jpg
scene07231.jpg
scene07241.jpg
scene07251.jpg
scene07261.jpg
scene07271.jpg
scene07281.jpg
scene07291.jpg
scene07301.jpg
scene07311.jpg
scene07321.jpg
scene07331.jpg
scene07341.jpg
scene07351.jpg
scene07361.jpg
scene07371.jpg
scene07381.jpg
scene07391.jpg
scene07401.jpg
scene07411.jpg
scene07421.jpg
scene07431.jpg
scene07441.jpg
scene07451.jpg
scene07461.jpg
scene07471.jpg
scene07481.jpg
scene07491.jpg
scene07501.jpg
scene07511.jpg
scene07521.jpg
scene07531.jpg
scene07541.jpg
scene07551.jpg
scene07561.jpg
scene07571.jpg
scene07581.jpg
scene07591.jpg
scene07601.jpg
scene07611.jpg
scene07621.jpg
scene07631.jpg
scene07641.jpg
scene07651.jpg
scene07661.jpg
scene07671.jpg
scene07681.jpg
scene07691.jpg
scene07701.jpg
scene07711.jpg
scene07721.jpg
scene07731.jpg
scene07741.jpg
scene07751.jpg
scene07761.jpg
scene07771.jpg
scene07781.jpg
scene07791.jpg
scene07801.jpg
scene07811.jpg
scene07821.jpg
scene07831.jpg
scene07841.jpg
scene07851.jpg
scene07861.jpg
scene07871.jpg
scene07881.jpg
scene07891.jpg
scene07901.jpg
scene07911.jpg
scene07921.jpg
scene07931.jpg
scene07941.jpg
scene07951.jpg
scene07961.jpg
scene07971.jpg
scene07981.jpg
scene07991.jpg
scene08001.jpg
scene08011.jpg
scene08021.jpg
scene08031.jpg
scene08041.jpg
scene08051.jpg
scene08061.jpg
scene08071.jpg
scene08081.jpg
scene08091.jpg
scene08101.jpg
scene08111.jpg
scene08121.jpg
scene08131.jpg
scene08141.jpg
scene08151.jpg
scene08161.jpg
scene08171.jpg
scene08181.jpg
scene08191.jpg
scene08201.jpg
scene08211.jpg
scene08221.jpg
scene08231.jpg
scene08241.jpg
scene08251.jpg
scene08261.jpg
scene08271.jpg
scene08281.jpg
scene08291.jpg
scene08301.jpg
scene08311.jpg
scene08321.jpg
scene08331.jpg
scene08341.jpg
scene08351.jpg
scene08361.jpg
scene08371.jpg
scene08381.jpg
scene08391.jpg
scene08401.jpg
scene08411.jpg
scene08421.jpg
scene08431.jpg
scene08441.jpg
scene08451.jpg
scene08461.jpg
scene08471.jpg
scene08481.jpg
scene08491.jpg
scene08501.jpg
scene08511.jpg
scene08521.jpg
scene08531.jpg
scene08541.jpg
scene08551.jpg
scene08561.jpg
scene08571.jpg
scene08581.jpg
scene08591.jpg
scene08601.jpg
scene08611.jpg
scene08621.jpg
scene08631.jpg
scene08641.jpg
scene08651.jpg
scene08661.jpg
scene08671.jpg
scene08681.jpg
scene08691.jpg
scene08701.jpg
scene08711.jpg
scene08721.jpg
scene08731.jpg
scene08741.jpg
scene08751.jpg
scene08761.jpg
scene08771.jpg
scene08781.jpg
scene08791.jpg
scene08801.jpg
scene08811.jpg
scene08821.jpg
scene08831.jpg
scene08841.jpg
scene08851.jpg
scene08861.jpg
scene08871.jpg
scene08881.jpg
scene08891.jpg
scene08901.jpg
scene08911.jpg
scene08921.jpg
scene08931.jpg
scene08941.jpg
scene08951.jpg
scene08961.jpg
scene08971.jpg
scene08981.jpg
scene08991.jpg
scene09001.jpg
scene09011.jpg
scene09021.jpg
scene09031.jpg
scene09041.jpg
scene09051.jpg
scene09061.jpg
scene09071.jpg
scene09081.jpg
scene09091.jpg
scene09101.jpg
scene09111.jpg
scene09121.jpg
scene09131.jpg
scene09141.jpg
scene09151.jpg
scene09161.jpg
scene09171.jpg
scene09181.jpg
scene09191.jpg
scene09201.jpg
scene09211.jpg
scene09221.jpg
scene09231.jpg
scene09241.jpg
scene09251.jpg
scene09261.jpg
scene09271.jpg
scene09281.jpg
scene09291.jpg
scene09301.jpg
scene09311.jpg
scene09321.jpg
scene09331.jpg
scene09341.jpg
scene09351.jpg
scene09361.jpg
scene09371.jpg
scene09381.jpg
scene09391.jpg
scene09401.jpg
scene09411.jpg
scene09421.jpg
scene09431.jpg
scene09441.jpg
scene09451.jpg
scene09461.jpg
scene09471.jpg
scene09481.jpg
scene09491.jpg
scene09501.jpg
scene09511.jpg
scene09521.jpg
scene09531.jpg
scene09541.jpg
scene09551.jpg
scene09561.jpg
scene09571.jpg
scene09581.jpg
scene09591.jpg
scene09601.jpg
scene09611.jpg
scene09621.jpg
scene09631.jpg
scene09641.jpg
scene09651.jpg
scene09661.jpg
scene09671.jpg
scene09681.jpg
scene09691.jpg
scene09701.jpg
scene09711.jpg
scene09721.jpg
scene09731.jpg
scene09741.jpg
scene09751.jpg
scene09761.jpg
scene09771.jpg
scene09781.jpg
scene09791.jpg
scene09801.jpg
scene09811.jpg
scene09821.jpg
scene09831.jpg
scene09841.jpg
scene09851.jpg
scene09861.jpg
scene09871.jpg
scene09881.jpg
scene09891.jpg
scene09901.jpg
scene09911.jpg
scene09921.jpg
scene09931.jpg
scene09941.jpg
scene09951.jpg
scene09961.jpg
scene09971.jpg
scene09981.jpg
scene09991.jpg
scene10001.jpg
scene10011.jpg
scene10021.jpg
scene10031.jpg
scene10041.jpg
scene10051.jpg
scene10061.jpg
scene10071.jpg
scene10081.jpg
scene10091.jpg
scene10101.jpg
scene10111.jpg
scene10121.jpg
scene10131.jpg
scene10141.jpg
scene10151.jpg
scene10161.jpg
scene10171.jpg
scene10181.jpg
scene10191.jpg
scene10201.jpg
scene10211.jpg
scene10221.jpg
scene10231.jpg
scene10241.jpg
scene10251.jpg
scene10261.jpg
scene10271.jpg
scene10281.jpg
scene10291.jpg
scene10301.jpg
scene10311.jpg
scene10321.jpg
scene10331.jpg
scene10341.jpg
scene10351.jpg
scene10361.jpg
scene10371.jpg
scene10381.jpg
scene10391.jpg
scene10401.jpg
scene10411.jpg
scene10421.jpg
scene10431.jpg
scene10441.jpg
scene10451.jpg
scene10461.jpg
scene10471.jpg
scene10481.jpg
scene10491.jpg
scene10501.jpg
scene10511.jpg
scene10521.jpg
scene10531.jpg
scene10541.jpg
scene10551.jpg
scene10561.jpg
scene10571.jpg
scene10581.jpg
scene10591.jpg
scene10601.jpg
scene10611.jpg
scene10621.jpg
scene10631.jpg
scene10641.jpg
scene10651.jpg
scene10661.jpg
scene10671.jpg
scene10681.jpg
scene10691.jpg
scene10701.jpg
scene10711.jpg
scene10721.jpg
scene10731.jpg
scene10741.jpg
scene10751.jpg
scene10761.jpg
scene10771.jpg
scene10781.jpg
scene10791.jpg
scene10801.jpg
scene10811.jpg
scene10821.jpg
scene10831.jpg
scene10841.jpg
scene10851.jpg
scene10861.jpg
scene10871.jpg
scene10881.jpg
scene10891.jpg
scene10901.jpg
scene10911.jpg
scene10921.jpg
scene10931.jpg
scene10941.jpg
scene10951.jpg
scene10961.jpg
scene10971.jpg
scene10981.jpg
scene10991.jpg
scene11001.jpg
scene11011.jpg
scene11021.jpg
scene11031.jpg
scene11041.jpg
scene11051.jpg
scene11061.jpg
scene11071.jpg
scene11081.jpg
scene11091.jpg
scene11101.jpg
scene11111.jpg
scene11121.jpg
scene11131.jpg
scene11141.jpg
scene11151.jpg
scene11161.jpg
scene11171.jpg
scene11181.jpg
scene11191.jpg
scene11201.jpg
scene11211.jpg
scene11221.jpg
scene11231.jpg
scene11241.jpg
scene11251.jpg
scene11261.jpg
scene11271.jpg
scene11281.jpg
scene11291.jpg
scene11301.jpg
scene11311.jpg
scene11321.jpg
scene11331.jpg
scene11341.jpg
scene11351.jpg
scene11361.jpg
scene11371.jpg
scene11381.jpg
scene11391.jpg
scene11401.jpg
scene11411.jpg
scene11421.jpg
scene11431.jpg
scene11441.jpg
scene11451.jpg
scene11461.jpg
scene11471.jpg
scene11481.jpg
scene11491.jpg
scene11501.jpg
scene11511.jpg
scene11521.jpg
scene11531.jpg
scene11541.jpg
scene11551.jpg
scene11561.jpg
scene11571.jpg
scene11581.jpg
scene11591.jpg
scene11601.jpg
scene11611.jpg
scene11621.jpg
scene11631.jpg
scene11641.jpg
scene11651.jpg
scene11661.jpg
scene11671.jpg
scene11681.jpg
scene11691.jpg
scene11701.jpg
scene11711.jpg
scene11721.jpg
scene11731.jpg
scene11741.jpg
scene11751.jpg
scene11761.jpg
scene11771.jpg
scene11781.jpg
scene11791.jpg
scene11801.jpg
scene11811.jpg
scene11821.jpg
scene11831.jpg
scene11841.jpg
scene11851.jpg
scene11861.jpg
scene11871.jpg
scene11881.jpg
scene11891.jpg
scene11901.jpg
scene11911.jpg
scene11921.jpg
scene11931.jpg
scene11941.jpg
scene11951.jpg
scene11961.jpg
scene11971.jpg
scene11981.jpg
scene11991.jpg
scene12001.jpg
scene12011.jpg
scene12021.jpg
scene12031.jpg
scene12041.jpg
scene12051.jpg
scene12061.jpg
scene12071.jpg
scene12081.jpg
scene12091.jpg
scene12101.jpg
scene12111.jpg
scene12121.jpg
scene12131.jpg
scene12141.jpg
scene12151.jpg
scene12161.jpg
scene12171.jpg
scene12181.jpg
scene12191.jpg
scene12201.jpg
scene12211.jpg
scene12221.jpg
scene12231.jpg
scene12241.jpg
scene12251.jpg
scene12261.jpg
scene12271.jpg
scene12281.jpg
scene12291.jpg
scene12301.jpg
scene12311.jpg
scene12321.jpg
scene12331.jpg
scene12341.jpg
scene12351.jpg
scene12361.jpg
scene12371.jpg
scene12381.jpg
scene12391.jpg
scene12401.jpg
scene12411.jpg
scene12421.jpg
scene12431.jpg
scene12441.jpg
scene12451.jpg
scene12461.jpg
scene12471.jpg
scene12481.jpg
scene12491.jpg
scene12501.jpg
scene12511.jpg
scene12521.jpg
scene12531.jpg
scene12541.jpg
scene12551.jpg
scene12561.jpg
scene12571.jpg
scene12581.jpg
scene12591.jpg
scene12601.jpg
scene12611.jpg
scene12621.jpg
scene12631.jpg
scene12641.jpg
scene12651.jpg
scene12661.jpg
scene12671.jpg
scene12681.jpg
scene12691.jpg
scene12701.jpg
scene12711.jpg
scene12721.jpg
scene12731.jpg
scene12741.jpg
scene12751.jpg
scene12761.jpg
scene12771.jpg
scene12781.jpg
scene12791.jpg
scene12801.jpg
scene12811.jpg
scene12821.jpg
scene12831.jpg
scene12841.jpg
scene12851.jpg
scene12861.jpg
scene12871.jpg
scene12881.jpg
scene12891.jpg
scene12901.jpg
scene12911.jpg
scene12921.jpg
scene12931.jpg
scene12941.jpg
scene12951.jpg
scene12961.jpg
scene12971.jpg
scene12981.jpg
scene12991.jpg
scene13001.jpg
scene13011.jpg
scene13021.jpg
scene13031.jpg
scene13041.jpg
scene13051.jpg
scene13061.jpg
scene13071.jpg
scene13081.jpg
scene13091.jpg
scene13101.jpg
scene13111.jpg
scene13121.jpg
scene13131.jpg
scene13141.jpg
scene13151.jpg
scene13161.jpg
scene13171.jpg
scene13181.jpg
scene13191.jpg
scene13201.jpg
scene13211.jpg
scene13221.jpg
scene13231.jpg
scene13241.jpg
scene13251.jpg
scene13261.jpg
scene13271.jpg
scene13281.jpg
scene13291.jpg
scene13301.jpg
scene13311.jpg
scene13321.jpg
scene13331.jpg
scene13341.jpg
scene13351.jpg
scene13361.jpg
scene13371.jpg
scene13381.jpg
scene13391.jpg
scene13401.jpg
scene13411.jpg
scene13421.jpg
scene13431.jpg
scene13441.jpg
scene13451.jpg
scene13461.jpg
scene13471.jpg
scene13481.jpg
scene13491.jpg
scene13501.jpg
scene13511.jpg
scene13521.jpg
scene13531.jpg
scene13541.jpg
scene13551.jpg
scene13561.jpg
scene13571.jpg
scene13581.jpg
scene13591.jpg
scene13601.jpg
scene13611.jpg
scene13621.jpg
scene13631.jpg
scene13641.jpg
scene13651.jpg
scene13661.jpg
scene13671.jpg
scene13681.jpg
scene13691.jpg
scene13701.jpg
scene13711.jpg
scene13721.jpg
scene13731.jpg
scene13741.jpg
scene13751.jpg
scene13761.jpg
scene13771.jpg
scene13781.jpg
scene13791.jpg
scene13801.jpg
scene13811.jpg
scene13821.jpg
scene13831.jpg
scene13841.jpg
scene13851.jpg
scene13861.jpg
scene13871.jpg
scene13881.jpg
scene13891.jpg
scene13901.jpg
scene13911.jpg
scene13921.jpg
scene13931.jpg
scene13941.jpg
scene13951.jpg
scene13961.jpg
scene13971.jpg
scene13981.jpg
scene13991.jpg
scene14001.jpg
scene14011.jpg
scene14021.jpg
scene14031.jpg
scene14041.jpg
scene14051.jpg
scene14061.jpg
scene14071.jpg
scene14081.jpg
scene14091.jpg
scene14101.jpg
scene14111.jpg
scene14121.jpg
scene14131.jpg
scene14141.jpg
scene14151.jpg
scene14161.jpg
scene14171.jpg
scene14181.jpg
scene14191.jpg
scene14201.jpg
scene14211.jpg
scene14221.jpg
scene14231.jpg
scene14241.jpg
scene14251.jpg
scene14261.jpg
scene14271.jpg
scene14281.jpg
scene14291.jpg
scene14301.jpg
scene14311.jpg
scene14321.jpg
scene14331.jpg
scene14341.jpg
scene14351.jpg
scene14361.jpg
scene14371.jpg
scene14381.jpg
scene14391.jpg
scene14401.jpg
scene14411.jpg
scene14421.jpg
scene14431.jpg
scene14441.jpg
scene14451.jpg
scene14461.jpg
scene14471.jpg
scene14481.jpg
scene14491.jpg
scene14501.jpg
scene14511.jpg
scene14521.jpg
scene14531.jpg
scene14541.jpg
scene14551.jpg
scene14561.jpg
scene14571.jpg
scene14581.jpg
scene14591.jpg
scene14601.jpg
scene14611.jpg
scene14621.jpg
scene14631.jpg
scene14641.jpg
scene14651.jpg
scene14661.jpg
scene14671.jpg
scene14681.jpg
scene14691.jpg
scene14701.jpg
scene14711.jpg
scene14721.jpg
scene14731.jpg
scene14741.jpg
scene14751.jpg
scene14761.jpg
scene14771.jpg
scene14781.jpg
scene14791.jpg
scene14801.jpg
scene14811.jpg
scene14821.jpg
scene14831.jpg
scene14841.jpg
scene14851.jpg
scene14861.jpg
scene14871.jpg
scene14881.jpg
scene14891.jpg
scene14901.jpg
scene14911.jpg
scene14921.jpg
scene14931.jpg
scene14941.jpg
scene14951.jpg
scene14961.jpg
scene14971.jpg
scene14981.jpg
scene14991.jpg
scene15001.jpg
scene15011.jpg
scene15021.jpg
scene15031.jpg
scene15041.jpg
scene15051.jpg
scene15061.jpg
scene15071.jpg
scene15081.jpg
scene15091.jpg
scene15101.jpg
scene15111.jpg
scene15121.jpg
scene15131.jpg
scene15141.jpg
scene15151.jpg
scene15161.jpg
scene15171.jpg
scene15181.jpg
scene15191.jpg
scene15201.jpg
scene15211.jpg
scene15221.jpg
scene15231.jpg
scene15241.jpg
scene15251.jpg
scene15261.jpg
scene15271.jpg
scene15281.jpg
scene15291.jpg
scene15301.jpg
scene15311.jpg
scene15321.jpg
scene15331.jpg
scene15341.jpg
scene15351.jpg
scene15361.jpg
scene15371.jpg
scene15381.jpg
scene15391.jpg
scene15401.jpg
scene15411.jpg
scene15421.jpg
scene15431.jpg
scene15441.jpg
scene15451.jpg
scene15461.jpg
scene15471.jpg
scene15481.jpg
scene15491.jpg
scene15501.jpg
scene15511.jpg
scene15521.jpg
scene15531.jpg
scene15541.jpg
scene15551.jpg
scene15561.jpg
scene15571.jpg
scene15581.jpg
scene15591.jpg
scene15601.jpg
scene15611.jpg
scene15621.jpg
scene15631.jpg
scene15641.jpg
scene15651.jpg
scene15661.jpg
scene15671.jpg
scene15681.jpg
scene15691.jpg
scene15701.jpg
scene15711.jpg
scene15721.jpg
scene15731.jpg
scene15741.jpg
scene15751.jpg
scene15761.jpg
scene15771.jpg
scene15781.jpg
scene15791.jpg
scene15801.jpg
scene15811.jpg
scene15821.jpg
scene15831.jpg
scene15841.jpg
scene15851.jpg
scene15861.jpg
scene15871.jpg
scene15881.jpg
scene15891.jpg
scene15901.jpg
scene15911.jpg
scene15921.jpg
scene15931.jpg
scene15941.jpg
scene15951.jpg
scene15961.jpg
scene15971.jpg
scene15981.jpg
scene15991.jpg
scene16001.jpg
scene16011.jpg
scene16021.jpg
scene16031.jpg
scene16041.jpg
scene16051.jpg
scene16061.jpg
scene16071.jpg
scene16081.jpg
scene16091.jpg
scene16101.jpg
scene16111.jpg
scene16121.jpg
scene16131.jpg
scene16141.jpg
scene16151.jpg
scene16161.jpg
scene16171.jpg
scene16181.jpg
scene16191.jpg
scene16201.jpg
scene16211.jpg
scene16221.jpg
scene16231.jpg
scene16241.jpg
scene16251.jpg
scene16261.jpg
scene16271.jpg
scene16281.jpg
scene16291.jpg
scene16301.jpg
scene16311.jpg
scene16321.jpg
scene16331.jpg
scene16341.jpg
scene16351.jpg
scene16361.jpg
scene16371.jpg
scene16381.jpg
scene16391.jpg
scene16401.jpg
scene16411.jpg
scene16421.jpg
scene16431.jpg
scene16441.jpg
scene16451.jpg
scene16461.jpg
scene16471.jpg
scene16481.jpg
scene16491.jpg
scene16501.jpg
scene16511.jpg
scene16521.jpg
scene16531.jpg
scene16541.jpg
scene16551.jpg
scene16561.jpg
scene16571.jpg
scene16581.jpg
scene16591.jpg
scene16601.jpg
scene16611.jpg
scene16621.jpg
scene16631.jpg
scene16641.jpg
scene16651.jpg
scene16661.jpg
scene16671.jpg
scene16681.jpg
scene16691.jpg
scene16701.jpg
scene16711.jpg
scene16721.jpg
scene16731.jpg
scene16741.jpg
scene16751.jpg
scene16761.jpg
scene16771.jpg
scene16781.jpg
scene16791.jpg
scene16801.jpg
scene16811.jpg
scene16821.jpg
scene16831.jpg
scene16841.jpg
scene16851.jpg
scene16861.jpg
scene16871.jpg
scene16881.jpg
scene16891.jpg
scene16901.jpg
scene16911.jpg
scene16921.jpg
scene16931.jpg
scene16941.jpg
scene16951.jpg
scene16961.jpg
scene16971.jpg
scene16981.jpg
scene16991.jpg
scene17001.jpg
scene17011.jpg
scene17021.jpg
scene17031.jpg
scene17041.jpg
scene17051.jpg
scene17061.jpg
scene17071.jpg
scene17081.jpg
scene17091.jpg
scene17101.jpg
scene17111.jpg
scene17121.jpg
scene17131.jpg
scene17141.jpg
scene17151.jpg
scene17161.jpg
scene17171.jpg
scene17181.jpg
scene17191.jpg
scene17201.jpg
scene17211.jpg
scene17221.jpg
scene17231.jpg
scene17241.jpg
scene17251.jpg
scene17261.jpg
scene17271.jpg
scene17281.jpg
scene17291.jpg
scene17301.jpg
scene17311.jpg
scene17321.jpg
scene17331.jpg
scene17341.jpg
scene17351.jpg
scene17361.jpg
scene17371.jpg
scene17381.jpg
scene17391.jpg
scene17401.jpg
scene17411.jpg
scene17421.jpg
scene17431.jpg
scene17441.jpg
scene17451.jpg
scene17461.jpg
scene17471.jpg
scene17481.jpg
scene17491.jpg
scene17501.jpg
scene17511.jpg
scene17521.jpg
scene17531.jpg
scene17541.jpg
scene17551.jpg
scene17561.jpg
scene17571.jpg
scene17581.jpg
scene17591.jpg
scene17601.jpg
scene17611.jpg
scene17621.jpg
scene17631.jpg
scene17641.jpg
scene17651.jpg
scene17661.jpg
scene17671.jpg
scene17681.jpg
scene17691.jpg
scene17701.jpg
scene17711.jpg
scene17721.jpg
scene17731.jpg
scene17741.jpg
scene17751.jpg
scene17761.jpg
scene17771.jpg
scene17781.jpg
scene17791.jpg
scene17801.jpg
scene17811.jpg
scene17821.jpg
scene17831.jpg
scene17841.jpg
scene17851.jpg
scene17861.jpg
scene17871.jpg
scene17881.jpg
scene17891.jpg
scene17901.jpg
scene17911.jpg
scene17921.jpg
scene17931.jpg
scene17941.jpg
scene17951.jpg
scene17961.jpg
scene17971.jpg
scene17981.jpg
scene17991.jpg
scene18001.jpg
scene18011.jpg
scene18021.jpg
scene18031.jpg
scene18041.jpg
scene18051.jpg
scene18061.jpg
scene18071.jpg
scene18081.jpg
scene18091.jpg
scene18101.jpg
scene18111.jpg
scene18121.jpg
scene18131.jpg
scene18141.jpg
scene18151.jpg
scene18161.jpg
scene18171.jpg
scene18181.jpg
scene18191.jpg
scene18201.jpg
scene18211.jpg
scene18221.jpg
scene18231.jpg
scene18241.jpg
scene18251.jpg
scene18261.jpg
scene18271.jpg
scene18281.jpg
scene18291.jpg
scene18301.jpg
scene18311.jpg
scene18321.jpg
scene18331.jpg
scene18341.jpg
scene18351.jpg
scene18361.jpg
scene18371.jpg
scene18381.jpg
scene18391.jpg
scene18401.jpg
scene18411.jpg
scene18421.jpg
scene18431.jpg
scene18441.jpg
scene18451.jpg
scene18461.jpg
scene18471.jpg
scene18481.jpg
scene18491.jpg
scene18501.jpg
scene18511.jpg
scene18521.jpg
scene18531.jpg
scene18541.jpg
scene18551.jpg
scene18561.jpg
scene18571.jpg
scene18581.jpg
scene18591.jpg
scene18601.jpg
scene18611.jpg
scene18621.jpg
scene18631.jpg
scene18641.jpg
scene18651.jpg
scene18661.jpg
scene18671.jpg
scene18681.jpg
scene18691.jpg
scene18701.jpg
scene18711.jpg
scene18721.jpg
scene18731.jpg
scene18741.jpg
scene18751.jpg
scene18761.jpg
scene18771.jpg
scene18781.jpg
scene18791.jpg
scene18801.jpg
scene18811.jpg
scene18821.jpg
scene18831.jpg
scene18841.jpg
scene18851.jpg
scene18861.jpg
scene18871.jpg
scene18881.jpg
scene18891.jpg
scene18901.jpg
scene18911.jpg
scene18921.jpg
scene18931.jpg
scene18941.jpg
scene18951.jpg
scene18961.jpg
scene18971.jpg
scene18981.jpg
scene18991.jpg
scene19001.jpg
scene19011.jpg
scene19021.jpg
scene19031.jpg
scene19041.jpg
scene19051.jpg
scene19061.jpg
scene19071.jpg
scene19081.jpg
scene19091.jpg
scene19101.jpg
scene19111.jpg
scene19121.jpg
scene19131.jpg
scene19141.jpg
scene19151.jpg
scene19161.jpg
scene19171.jpg
scene19181.jpg
scene19191.jpg
scene19201.jpg
scene19211.jpg
scene19221.jpg
scene19231.jpg
scene19241.jpg
scene19251.jpg
scene19261.jpg
scene19271.jpg
scene19281.jpg
scene19291.jpg
scene19301.jpg
scene19311.jpg
scene19321.jpg
scene19331.jpg
scene19341.jpg
scene19351.jpg
scene19361.jpg
scene19371.jpg
scene19381.jpg
scene19391.jpg
scene19401.jpg
scene19411.jpg
scene19421.jpg
scene19431.jpg
scene19441.jpg
scene19451.jpg
scene19461.jpg
scene19471.jpg
scene19481.jpg
scene19491.jpg
scene19501.jpg
scene19511.jpg
scene19521.jpg
scene19531.jpg
scene19541.jpg
scene19551.jpg
scene19561.jpg
scene19571.jpg
scene19581.jpg
scene19591.jpg
scene19601.jpg
scene19611.jpg
scene19621.jpg
scene19631.jpg
scene19641.jpg
scene19651.jpg
scene19661.jpg
scene19671.jpg
scene19681.jpg
scene19691.jpg
scene19701.jpg
scene19711.jpg
scene19721.jpg
scene19731.jpg
scene19741.jpg
scene19751.jpg
scene19761.jpg
scene19771.jpg
scene19781.jpg
scene19791.jpg
scene19801.jpg
scene19811.jpg
scene19821.jpg
scene19831.jpg
scene19841.jpg
scene19851.jpg
scene19861.jpg
scene19871.jpg
scene19881.jpg
scene19891.jpg
scene19901.jpg
scene19911.jpg
scene19921.jpg
scene19931.jpg
scene19941.jpg
scene19951.jpg
scene19961.jpg
scene19971.jpg
scene19981.jpg
scene19991.jpg
scene20001.jpg
scene20011.jpg
scene20021.jpg
scene20031.jpg
scene20041.jpg
scene20051.jpg
scene20061.jpg
scene20071.jpg
scene20081.jpg
scene20091.jpg
scene20101.jpg
scene20111.jpg
scene20121.jpg
scene20131.jpg
scene20141.jpg
scene20151.jpg
scene20161.jpg
scene20171.jpg
scene20181.jpg
scene20191.jpg
scene20201.jpg
scene20211.jpg
scene20221.jpg
scene20231.jpg
scene20241.jpg
scene20251.jpg
scene20261.jpg
scene20271.jpg
scene20281.jpg
scene20291.jpg
scene20301.jpg
scene20311.jpg
scene20321.jpg
scene20331.jpg
scene20341.jpg
scene20351.jpg
scene20361.jpg
scene20371.jpg
scene20381.jpg
scene20391.jpg
scene20401.jpg
scene20411.jpg
scene20421.jpg
scene20431.jpg
scene20441.jpg
scene20451.jpg
scene20461.jpg
scene20471.jpg
scene20481.jpg
scene20491.jpg
scene20501.jpg
scene20511.jpg
scene20521.jpg
scene20531.jpg
scene20541.jpg
scene20551.jpg
scene20561.jpg
scene20571.jpg
scene20581.jpg
scene20591.jpg
scene20601.jpg
scene20611.jpg
scene20621.jpg
scene20631.jpg
scene20641.jpg
scene20651.jpg
scene20661.jpg
scene20671.jpg
scene20681.jpg
scene20691.jpg
scene20701.jpg
scene20711.jpg
scene20721.jpg
scene20731.jpg
scene20741.jpg
scene20751.jpg
scene20761.jpg
scene20771.jpg
scene20781.jpg
scene20791.jpg
scene20801.jpg
scene20811.jpg
scene20821.jpg
scene20831.jpg
scene20841.jpg
scene20851.jpg
scene20861.jpg
scene20871.jpg
scene20881.jpg
scene20891.jpg
scene20901.jpg
scene20911.jpg
scene20921.jpg
scene20931.jpg
scene20941.jpg
scene20951.jpg
scene20961.jpg
scene20971.jpg
scene20981.jpg
scene20991.jpg
scene21001.jpg
scene21011.jpg
scene21021.jpg
scene21031.jpg
scene21041.jpg
scene21051.jpg
scene21061.jpg
scene21071.jpg
scene21081.jpg
scene21091.jpg
scene21101.jpg
scene21111.jpg
scene21121.jpg
scene21131.jpg
scene21141.jpg
scene21151.jpg
scene21161.jpg
scene21171.jpg
scene21181.jpg
scene21191.jpg
scene21201.jpg
scene21211.jpg
scene21221.jpg
scene21231.jpg
scene21241.jpg
scene21251.jpg
scene21261.jpg
scene21271.jpg
scene21281.jpg
scene21291.jpg
scene21301.jpg
scene21311.jpg
scene21321.jpg
scene21331.jpg
scene21341.jpg
scene21351.jpg
scene21361.jpg
scene21371.jpg
scene21381.jpg
scene21391.jpg
scene21401.jpg
scene21411.jpg
scene21421.jpg
scene21431.jpg
scene21441.jpg
scene21451.jpg
scene21461.jpg
scene21471.jpg
scene21481.jpg
scene21491.jpg
scene21501.jpg
scene21511.jpg
scene21521.jpg
scene21531.jpg
scene21541.jpg
scene21551.jpg
scene21561.jpg
scene21571.jpg
scene21581.jpg
scene21591.jpg
scene21601.jpg
scene21611.jpg
scene21621.jpg
scene21631.jpg
scene21641.jpg
scene21651.jpg
scene21661.jpg
scene21671.jpg
scene21681.jpg
scene21691.jpg
scene21701.jpg
scene21711.jpg
scene21721.jpg
scene21731.jpg
scene21741.jpg
scene21751.jpg
scene21761.jpg
scene21771.jpg
scene21781.jpg
scene21791.jpg
scene21801.jpg
scene21811.jpg
scene21821.jpg
scene21831.jpg
scene21841.jpg
scene21851.jpg
scene21861.jpg
scene21871.jpg
scene21881.jpg
scene21891.jpg
scene21901.jpg
scene21911.jpg
scene21921.jpg
scene21931.jpg
scene21941.jpg
scene21951.jpg
scene21961.jpg
scene21971.jpg
scene21981.jpg
scene21991.jpg
scene22001.jpg
scene22011.jpg
scene22021.jpg
scene22031.jpg
scene22041.jpg
scene22051.jpg
scene22061.jpg
scene22071.jpg
scene22081.jpg
scene22091.jpg
scene22101.jpg
scene22111.jpg
scene22121.jpg
scene22131.jpg
scene22141.jpg
scene22151.jpg
scene22161.jpg
scene22171.jpg
scene22181.jpg
scene22191.jpg
scene22201.jpg
scene22211.jpg
scene22221.jpg
scene22231.jpg
scene22241.jpg
scene22251.jpg
scene22261.jpg
scene22271.jpg
scene22281.jpg
scene22291.jpg
scene22301.jpg
scene22311.jpg
scene22321.jpg
scene22331.jpg
scene22341.jpg
scene22351.jpg
scene22361.jpg
scene22371.jpg
scene22381.jpg
scene22391.jpg
scene22401.jpg
scene22411.jpg
scene22421.jpg
scene22431.jpg
scene22441.jpg
scene22451.jpg
scene22461.jpg
scene22471.jpg
scene22481.jpg
scene22491.jpg
scene22501.jpg
scene22511.jpg
scene22521.jpg
scene22531.jpg
scene22541.jpg
scene22551.jpg
scene22561.jpg
scene22571.jpg
scene22581.jpg
scene22591.jpg
scene22601.jpg
scene22611.jpg
scene22621.jpg
scene22631.jpg
scene22641.jpg
scene22651.jpg
scene22661.jpg
scene22671.jpg
scene22681.jpg
scene22691.jpg
scene22701.jpg
scene22711.jpg
scene22721.jpg
scene22731.jpg
scene22741.jpg
scene22751.jpg
scene22761.jpg
scene22771.jpg
scene22781.jpg
scene22791.jpg
scene22801.jpg
scene22811.jpg
scene22821.jpg
scene22831.jpg
scene22841.jpg
scene22851.jpg
scene22861.jpg
scene22871.jpg
scene22881.jpg
scene22891.jpg
scene22901.jpg
scene22911.jpg
scene22921.jpg
scene22931.jpg
scene22941.jpg
scene22951.jpg
scene22961.jpg
scene22971.jpg
scene22981.jpg
scene22991.jpg
scene23001.jpg
scene23011.jpg
scene23021.jpg
scene23031.jpg
scene23041.jpg
scene23051.jpg
scene23061.jpg
scene23071.jpg
scene23081.jpg
scene23091.jpg
scene23101.jpg
scene23111.jpg
scene23121.jpg
scene23131.jpg
scene23141.jpg
scene23151.jpg
scene23161.jpg
scene23171.jpg
scene23181.jpg
scene23191.jpg
scene23201.jpg
scene23211.jpg
scene23221.jpg
scene23231.jpg
scene23241.jpg
scene23251.jpg
scene23261.jpg
scene23271.jpg
scene23281.jpg
scene23291.jpg
scene23301.jpg
scene23311.jpg
scene23321.jpg
scene23331.jpg
scene23341.jpg
scene23351.jpg
scene23361.jpg
scene23371.jpg
scene23381.jpg
scene23391.jpg
scene23401.jpg
scene23411.jpg
scene23421.jpg
scene23431.jpg
scene23441.jpg
scene23451.jpg
scene23461.jpg
scene23471.jpg
scene23481.jpg
scene23491.jpg
scene23501.jpg
scene23511.jpg
scene23521.jpg
scene23531.jpg
scene23541.jpg
scene23551.jpg
scene23561.jpg
scene23571.jpg
scene23581.jpg
scene23591.jpg
scene23601.jpg
scene23611.jpg
scene23621.jpg
scene23631.jpg
scene23641.jpg
scene23651.jpg
scene23661.jpg
scene23671.jpg
scene23681.jpg
scene23691.jpg
scene23701.jpg
scene23711.jpg
scene23721.jpg
scene23731.jpg
scene23741.jpg
scene23751.jpg
scene23761.jpg
scene23771.jpg
scene23781.jpg
scene23791.jpg
scene23801.jpg
scene23811.jpg
scene23821.jpg
scene23831.jpg
scene23841.jpg
scene23851.jpg
scene23861.jpg
scene23871.jpg
scene23881.jpg
scene23891.jpg
scene23901.jpg
scene23911.jpg
scene23921.jpg
scene23931.jpg
scene23941.jpg
scene23951.jpg
scene23961.jpg
scene23971.jpg
scene23981.jpg
scene23991.jpg
scene24001.jpg
scene24011.jpg
scene24021.jpg
scene24031.jpg
scene24041.jpg
scene24051.jpg
scene24061.jpg
scene24071.jpg
scene24081.jpg
scene24091.jpg
scene24101.jpg
scene24111.jpg
scene24121.jpg
scene24131.jpg
scene24141.jpg
scene24151.jpg
scene24161.jpg
scene24171.jpg
scene24181.jpg
scene24191.jpg
scene24201.jpg
scene24211.jpg
scene24221.jpg
scene24231.jpg
scene24241.jpg
scene24251.jpg
scene24261.jpg
scene24271.jpg
scene24281.jpg
scene24291.jpg
scene24301.jpg
scene24311.jpg
scene24321.jpg
scene24331.jpg
scene24341.jpg
scene24351.jpg
scene24361.jpg
scene24371.jpg
scene24381.jpg
scene24391.jpg
scene24401.jpg
scene24411.jpg
scene24421.jpg
scene24431.jpg
scene24441.jpg
scene24451.jpg
scene24461.jpg
scene24471.jpg
scene24481.jpg
scene24491.jpg
scene24501.jpg
scene24511.jpg
scene24521.jpg
scene24531.jpg
scene24541.jpg
scene24551.jpg
scene24561.jpg
scene24571.jpg
scene24581.jpg
scene24591.jpg
scene24601.jpg
scene24611.jpg
scene24621.jpg
scene24631.jpg
scene24641.jpg
scene24651.jpg
scene24661.jpg
scene24671.jpg
scene24681.jpg
scene24691.jpg
scene24701.jpg
scene24711.jpg
scene24721.jpg
scene24731.jpg
scene24741.jpg
scene24751.jpg
scene24761.jpg
scene24771.jpg
scene24781.jpg
scene24791.jpg
scene24801.jpg
scene24811.jpg
scene24821.jpg
scene24831.jpg
scene24841.jpg
scene24851.jpg
scene24861.jpg
scene24871.jpg
scene24881.jpg
scene24891.jpg
scene24901.jpg
scene24911.jpg
scene24921.jpg
scene24931.jpg
scene24941.jpg
scene24951.jpg
scene24961.jpg
scene24971.jpg
scene24981.jpg
scene24991.jpg
scene25001.jpg
scene25011.jpg
scene25021.jpg
scene25031.jpg
scene25041.jpg
scene25051.jpg
scene25061.jpg
scene25071.jpg
scene25081.jpg
scene25091.jpg
scene25101.jpg
scene25111.jpg
scene25121.jpg
scene25131.jpg
scene25141.jpg
scene25151.jpg
scene25161.jpg
scene25171.jpg
scene25181.jpg
scene25191.jpg
scene25201.jpg
scene25211.jpg
scene25221.jpg
scene25231.jpg
scene25241.jpg
scene25251.jpg
scene25261.jpg
scene25271.jpg
scene25281.jpg
scene25291.jpg
scene25301.jpg
scene25311.jpg
scene25321.jpg
scene25331.jpg
scene25341.jpg
scene25351.jpg
scene25361.jpg
scene25371.jpg
scene25381.jpg
scene25391.jpg
scene25401.jpg
scene25411.jpg
scene25421.jpg
scene25431.jpg
scene25441.jpg
scene25451.jpg
scene25461.jpg
scene25471.jpg
scene25481.jpg
scene25491.jpg
scene25501.jpg
scene25511.jpg
scene25521.jpg
scene25531.jpg
scene25541.jpg
scene25551.jpg
scene25561.jpg
scene25571.jpg
scene25581.jpg
scene25591.jpg
scene25601.jpg
scene25611.jpg
scene25621.jpg
scene25631.jpg
scene25641.jpg
scene25651.jpg
scene25661.jpg
scene25671.jpg
scene25681.jpg
scene25691.jpg
scene25701.jpg
scene25711.jpg
scene25721.jpg
scene25731.jpg
scene25741.jpg
scene25751.jpg
scene25761.jpg
scene25771.jpg
scene25781.jpg
scene25791.jpg
scene25801.jpg
scene25811.jpg
scene25821.jpg
scene25831.jpg
scene25841.jpg
scene25851.jpg
scene25861.jpg
scene25871.jpg
scene25881.jpg
scene25891.jpg
scene25901.jpg
scene25911.jpg
scene25921.jpg
scene25931.jpg
scene25941.jpg
scene25951.jpg
scene25961.jpg
scene25971.jpg
scene25981.jpg
scene25991.jpg
scene26001.jpg
scene26011.jpg
scene26021.jpg
scene26031.jpg
scene26041.jpg
scene26051.jpg
scene26061.jpg
scene26071.jpg
scene26081.jpg
scene26091.jpg
scene26101.jpg
scene26111.jpg
scene26121.jpg
scene26131.jpg
scene26141.jpg
scene26151.jpg
scene26161.jpg
scene26171.jpg
scene26181.jpg
scene26191.jpg
scene26201.jpg
scene26211.jpg
scene26221.jpg
scene26231.jpg
scene26241.jpg
scene26251.jpg
scene26261.jpg
scene26271.jpg
scene26281.jpg
scene26291.jpg
scene26301.jpg
scene26311.jpg
scene26321.jpg
scene26331.jpg
scene26341.jpg
scene26351.jpg
scene26361.jpg
scene26371.jpg
scene26381.jpg
scene26391.jpg
scene26401.jpg
scene26411.jpg
scene26421.jpg
scene26431.jpg
scene26441.jpg
scene26451.jpg
scene26461.jpg
scene26471.jpg
scene26481.jpg
scene26491.jpg
scene26501.jpg
scene26511.jpg
scene26521.jpg
scene26531.jpg
scene26541.jpg
scene26551.jpg
scene26561.jpg
scene26571.jpg
scene26581.jpg
scene26591.jpg
scene26601.jpg
scene26611.jpg
scene26621.jpg
scene26631.jpg
scene26641.jpg
scene26651.jpg
scene26661.jpg
scene26671.jpg
scene26681.jpg
scene26691.jpg
scene26701.jpg
scene26711.jpg
scene26721.jpg
scene26731.jpg
scene26741.jpg
scene26751.jpg
scene26761.jpg
scene26771.jpg
scene26781.jpg
scene26791.jpg
scene26801.jpg
scene26811.jpg
scene26821.jpg
scene26831.jpg
scene26841.jpg
scene26851.jpg
scene26861.jpg
scene26871.jpg
scene26881.jpg
scene26891.jpg
scene26901.jpg
scene26911.jpg
scene26921.jpg
scene26931.jpg
scene26941.jpg
scene26951.jpg
scene26961.jpg
scene26971.jpg
scene26981.jpg
scene26991.jpg
scene27001.jpg
scene27011.jpg
scene27021.jpg
scene27031.jpg
scene27041.jpg
scene27051.jpg
scene27061.jpg
scene27071.jpg
scene27081.jpg
scene27091.jpg
scene27101.jpg
scene27111.jpg
scene27121.jpg
scene27131.jpg
scene27141.jpg
scene27151.jpg
scene27161.jpg
scene27171.jpg
scene27181.jpg
scene27191.jpg
scene27201.jpg
scene27211.jpg
scene27221.jpg
scene27231.jpg
scene27241.jpg
scene27251.jpg
scene27261.jpg
scene27271.jpg
scene27281.jpg
scene27291.jpg
scene27301.jpg
scene27311.jpg
scene27321.jpg
scene27331.jpg
scene27341.jpg
scene27351.jpg
scene27361.jpg
scene27371.jpg
scene27381.jpg
scene27391.jpg
scene27401.jpg
scene27411.jpg
scene27421.jpg
scene27431.jpg
scene27441.jpg
scene27451.jpg
scene27461.jpg
scene27471.jpg
scene27481.jpg
scene27491.jpg
scene27501.jpg
scene27511.jpg
scene27521.jpg
scene27531.jpg
scene27541.jpg
scene27551.jpg
scene27561.jpg
scene27571.jpg
scene27581.jpg
scene27591.jpg
scene27601.jpg
scene27611.jpg
scene27621.jpg
scene27631.jpg
scene27641.jpg
scene27651.jpg
scene27661.jpg
scene27671.jpg
scene27681.jpg
scene27691.jpg
scene27701.jpg
scene27711.jpg
scene27721.jpg
scene27731.jpg
scene27741.jpg
scene27751.jpg
scene27761.jpg
scene27771.jpg
scene27781.jpg
scene27791.jpg
scene27801.jpg
scene27811.jpg
scene27821.jpg
scene27831.jpg
scene27841.jpg
scene27851.jpg
scene27861.jpg
scene27871.jpg
scene27881.jpg
scene27891.jpg
scene27901.jpg
scene27911.jpg
scene27921.jpg
scene27931.jpg
scene27941.jpg
scene27951.jpg
scene27961.jpg
scene27971.jpg
scene27981.jpg
scene27991.jpg
scene28001.jpg
scene28011.jpg
scene28021.jpg
scene28031.jpg
scene28041.jpg
scene28051.jpg
scene28061.jpg
scene28071.jpg
scene28081.jpg
scene28091.jpg
scene28101.jpg
scene28111.jpg
scene28121.jpg
scene28131.jpg
scene28141.jpg
scene28151.jpg
scene28161.jpg
scene28171.jpg
scene28181.jpg
scene28191.jpg
scene28201.jpg
scene28211.jpg
scene28221.jpg
scene28231.jpg
scene28241.jpg
scene28251.jpg
scene28261.jpg
scene28271.jpg
scene28281.jpg
scene28291.jpg
scene28301.jpg
scene28311.jpg
scene28321.jpg
scene28331.jpg
scene28341.jpg
scene28351.jpg
scene28361.jpg
scene28371.jpg
scene28381.jpg
scene28391.jpg
scene28401.jpg
scene28411.jpg
scene28421.jpg
scene28431.jpg
scene28441.jpg
scene28451.jpg
scene28461.jpg
scene28471.jpg
scene28481.jpg
scene28491.jpg
scene28501.jpg
scene28511.jpg
scene28521.jpg
scene28531.jpg
scene28541.jpg
scene28551.jpg
scene28561.jpg
scene28571.jpg
scene28581.jpg
scene28591.jpg
scene28601.jpg
scene28611.jpg
scene28621.jpg
scene28631.jpg
scene28641.jpg
scene28651.jpg
scene28661.jpg
scene28671.jpg
scene28681.jpg
scene28691.jpg
scene28701.jpg
scene28711.jpg
scene28721.jpg
scene28731.jpg
scene28741.jpg
scene28751.jpg
scene28761.jpg
scene28771.jpg
scene28781.jpg
scene28791.jpg
scene28801.jpg
scene28811.jpg
scene28821.jpg
scene28831.jpg
scene28841.jpg
scene28851.jpg
scene28861.jpg
scene28871.jpg
scene28881.jpg
scene28891.jpg
scene28901.jpg
scene28911.jpg
scene28921.jpg
scene28931.jpg
scene28941.jpg
scene28951.jpg
scene28961.jpg
scene28971.jpg
scene28981.jpg
scene28991.jpg
scene29001.jpg
scene29011.jpg
scene29021.jpg
scene29031.jpg
scene29041.jpg
scene29051.jpg
scene29061.jpg
scene29071.jpg
scene29081.jpg
scene29091.jpg
scene29101.jpg
scene29111.jpg
scene29121.jpg
scene29131.jpg
scene29141.jpg
scene29151.jpg
scene29161.jpg
scene29171.jpg
scene29181.jpg
scene29191.jpg
scene29201.jpg
scene29211.jpg
scene29221.jpg
scene29231.jpg
scene29241.jpg
scene29251.jpg
scene29261.jpg
scene29271.jpg
scene29281.jpg
scene29291.jpg
scene29301.jpg
scene29311.jpg
scene29321.jpg
scene29331.jpg
scene29341.jpg
scene29351.jpg
scene29361.jpg
scene29371.jpg
scene29381.jpg
scene29391.jpg
scene29401.jpg
scene29411.jpg
scene29421.jpg
scene29431.jpg
scene29441.jpg
scene29451.jpg
scene29461.jpg
scene29471.jpg
scene29481.jpg
scene29491.jpg
scene29501.jpg
scene29511.jpg
scene29521.jpg
scene29531.jpg
scene29541.jpg
scene29551.jpg
scene29561.jpg
scene29571.jpg
scene29581.jpg
scene29591.jpg
scene29601.jpg
scene29611.jpg
scene29621.jpg
scene29631.jpg
scene29641.jpg
scene29651.jpg
scene29661.jpg
scene29671.jpg
scene29681.jpg
scene29691.jpg
scene29701.jpg
scene29711.jpg
scene29721.jpg
scene29731.jpg
scene29741.jpg
scene29751.jpg
scene29761.jpg
scene29771.jpg
scene29781.jpg
scene29791.jpg
scene29801.jpg
scene29811.jpg
scene29821.jpg
scene29831.jpg
scene29841.jpg
scene29851.jpg
scene29861.jpg
scene29871.jpg
scene29881.jpg
scene29891.jpg
scene29901.jpg
scene29911.jpg
scene29921.jpg
scene29931.jpg
scene29941.jpg
scene29951.jpg
scene29961.jpg
scene29971.jpg
scene29981.jpg
scene29991.jpg
scene30001.jpg
scene30011.jpg
scene30021.jpg
scene30031.jpg
scene30041.jpg
scene30051.jpg
scene30061.jpg
scene30071.jpg
scene30081.jpg
scene30091.jpg
scene30101.jpg
scene30111.jpg
scene30121.jpg
scene30131.jpg
scene30141.jpg
scene30151.jpg
scene30161.jpg
scene30171.jpg
scene30181.jpg
scene30191.jpg
scene30201.jpg
scene30211.jpg
scene30221.jpg
scene30231.jpg
scene30241.jpg
scene30251.jpg
scene30261.jpg
scene30271.jpg
scene30281.jpg
scene30291.jpg
scene30301.jpg
scene30311.jpg
scene30321.jpg
scene30331.jpg
scene30341.jpg
scene30351.jpg
scene30361.jpg
scene30371.jpg
scene30381.jpg
scene30391.jpg
