2.1942
1.7745
1.8856
2.1993
2.1966
2.343
2.2107
1.9471
2.1511
2.1852
2.3245
2.3083
2.42
2.5025
2.5433
2.8518
2.7764
2.5827
2.5762
2.6481
2.5748
2.6919
2.8642
2.6062
2.6089
2.6177
2.6337
2.909
2.9641
3.0247
2.8471
2.8481
2.9085
2.7608
2.6397
2.3929
2.257
2.4199
2.6983
2.4669
2.2193
1.7821
1.6025
1.4076
1.3297
1.1683
1.5799
1.8352
2.0265
2.1357
2.1603
2.291
2.4394
2.4562
2.5034
2.4548
2.4002
2.3239
1.8335
1.8133
1.6687
1.4539
1.5245
1.364
1.5095
1.6145
1.7801
1.9164
1.89
1.9313
2.3241
2.5468
2.7822
2.6392
2.4872
2.4192
2.436
2.3508
2.1436
1.8986
1.7229
1.5494
1.5804
1.7039
1.9395
2.2772
2.4454
2.5164
2.4368
2.2263
2.3376
2.7059
2.8574
2.9286
2.7235
2.5182
2.4097
2.0125
1.5654
1.7531
1.6999
2.1224
2.3437
2.4156
2.5369
2.5636
2.462
2.3651
2.1216
1.9319
2.0128
1.8238
2.232
2.5478
2.3494
1.979
2.0773
2.0994
1.6748
1.8361
1.2697
1.3602
1.0592
1.0379
1.0364
1.1122
1.081
1.2292
1.224
1.3209
1.2869
1.4842
1.5739
1.24
0.80091
1.3075
1.2725
1.2976
1.1461
1.1473
1.6192
1.8686
1.8356
2.1589
2.1169
2.1912
2.2825
1.9526
2.0672
2.0253
1.7274
1.8998
1.9965
1.8838
1.7728
1.815
1.751
1.5742
1.6592
2.0742
2.1443
2.0561
2.253
2.3204
2.372
2.4953
2.5704
2.6155
2.7329
2.9217
2.9312
2.8268
2.9082
2.8714
2.719
2.5194
2.3611
2.5312
2.7138
2.423
2.3873
2.2608
2.1751
2.1726
2.1643
2.1089
1.991
1.6677
1.6668
1.816
2.2708
2.2573
2.1615
1.8501
1.837
1.5148
1.6031
1.7782
1.9732
1.7197
1.3554
1.2123
0.97445
1.3358
1.6709
1.786
1.3542
