0.047526
0.04229
0.056938
0.047582
0.04855
0.044618
0.052861
0.056306
0.062158
0.071489
0.069754
0.069326
0.076219
0.076004
0.082722
0.084878
0.074839
0.082416
0.08933
0.079918
0.071559
0.078086
0.070651
0.059853
0.059661
0.070914
0.07954
0.08134
0.087702
0.089227
0.081966
0.075644
0.072971
0.06821
0.069178
0.073037
0.070965
0.067916
0.061783
0.071781
0.071919
0.068529
0.075522
0.078015
0.074937
0.076439
0.074746
0.078344
0.078072
0.083867
0.079929
0.074591
0.070626
