37.123
37.309
35.275
36.172
37.256
38.479
37.424
37.204
35.58
33.726
32.606
33.758
31.506
32.392
30.885
32.647
32.82
31.69
30.397
31.388
33.82
32.379
34.985
34.288
33.298
31.374
30.123
30.03
28.645
29.707
31.639
30.4
32.041
34.326
34.624
34.782
34.212
34.237
34.522
32.837
32.277
33.402
33.144
32.678
32.625
33.692
34.622
34.676
35.576
34.547
35.129
36.623
37.704
