0.14651
0.15863
0.20185
0.16136
0.16868
0.16117
0.18301
0.22441
0.26318
0.304
0.28846
0.27491
0.28581
0.28326
0.3339
0.32689
0.26509
0.31087
0.3517
0.28842
0.22823
0.30535
0.26724
0.26036
0.26683
0.28842
0.28378
0.2872
0.3198
0.32373
0.2967
0.29744
0.35205
0.33362
0.32584
0.31598
0.29545
0.28181
0.25218
0.31227
0.3119
0.32821
0.36685
0.38203
0.35746
0.35229
0.34371
0.36137
0.35953
0.38748
0.36954
0.34742
0.32817
