6.0343
5.5929
5.9014
7.293
6.9237
8.6806
8.8095
9.2094
9.3325
9.4531
8.6798
11.363
14.312
13.354
13.353
13.27
9.7859
10.564
10.297
9.6983
12.375
14.611
15.005
16.463
13.653
13.43
15.213
15.11
13.847
13.637
17.794
18.467
15.905
13.564
12.986
14.331
14.27
14.061
14.741
15.644
15.618
14.375
16.368
17.34
16.815
16.351
16.388
17.996
18.4
19.989
20.229
18.689
19.625
19.07
18.229
19.359
20.335
20.52
18.878
19.586
20.178
18.879
19.393
19.535
19.878
17.033
15.052
15.129
13.888
12.969
12.471
15.407
17.865
17.823
16.158
15.315
17.17
14.815
15.82
13.01
12.992
12.577
14.651
13.985
14.219
13.232
13.305
16.446
17.994
20.51
18.682
18.363
18.623
15.771
14.543
13.424
12.366
11.867
13.184
16.874
17.075
17.961
17.904
15.632
17.574
16.663
17.125
15.658
12.332
13.395
12.826
13.602
13.677
13.066
13.438
13.556
12.202
11.446
15.35
15.037
10.54
12.527
13.972
12.854
15.044
14.137
14.392
11.927
10.966
12.277
10.891
11.445
14.136
12.828
13.517
15.421
14.62
15.984
18.007
18.83
16.723
13.747
12.201
11.807
12.793
10.859
11.974
9.4682
12.076
13.837
17.442
12.512
11.534
12.98
12.833
11.437
13.65
16.287
17.364
16.632
15.366
14.055
14.945
13.414
13.617
15.414
19.46
14.323
17.757
16.033
16.934
18.487
19.476
17.7
15.686
16.951
15.933
15.688
19.977
19.072
19.479
19.9
19.594
19.811
19.87
19.954
20.652
18.009
18.107
17.847
21.156
19.522
13.927
11.267
11.189
11.291
13.62
12.552
11.7
14.559
14.661
14.491
10.467
12.465
14.9
15.102
14.687
15.368
16.219
17.304
14.755
18.679
17.606
16.414
16.959
16.496
16.244
15.575
15.206
13.685
13.055
15.89
16.795
17.749
17.469
15.937
16.21
19.352
21.191
22.692
21.176
20.966
21.279
20.744
22.2
19.74
20.756
17.552
18.26
17.925
19.291
20.403
16.099
17.228
17.557
16.378
17.026
14.289
14.635
14.168
12.012
13.469
16.624
16.811
13.842
10.865
14.097
13.493
12.277
13.893
13.371
18.745
21.464
21.494
24.409
23.288
22.148
23.099
24.1
24.129
22.408
20.848
20.049
19.139
19.535
17.476
16.733
16.989
16.954
17.267
16.984
17.177
17.51
16.948
17.446
17.497
15.615
13.789
17.589
19.955
21.957
21.268
21.16
20.679
20.593
20.529
23.558
21.358
20.819
19.474
17.921
15.693
18.153
18.934
20.17
19.686
20.232
18.472
17.731
17.048
14.359
13.914
15.448
16.27
12.529
12.308
14.704
14.392
16.584
15.936
14.945
15.493
16.258
16.755
17.804
17.747
16.891
16.317
15.014
14.669
14.814
17.581
19.303
19.716
22.26
21.274
20.995
19.939
18.117
16.451
13.208
14.076
14.141
16.058
16.787
15.824
12.734
11.013
11.831
11.954
13.698
14.922
14.22
14.326
17.204
17.969
17.613
18.085
18.987
19.66
19.137
19.237
20.408
22.008
24.032
22.42
24.502
24.235
24.404
23.964
24.383
24.367
25.556
24.362
25.322
25.11
23.592
22.91
22.091
22.12
24.295
23.915
22.931
26.386
26.939
27.758
27.414
27.638
27.888
26.678
26.834
26.773
26.579
27.694
26.977
26.858
25.176
25.216
25.897
26.779
25.162
25.076
24.481
24.473
23.105
22.344
21.631
23.048
24.141
24.706
24.958
23.116
21.584
20.307
18.477
17.714
16.632
16.863
17.373
17.989
18.18
19.676
18.452
18.628
17.686
17.978
18.761
18.652
18.133
17.531
19.371
20.764
19.255
19.633
16.221
16.562
16.407
13.296
12.94
11.693
16.634
16.814
14.819
14.332
11.791
12.625
11.536
9.9136
9.8924
9.2316
11.496
11.811
12.228
10.626
10.88
7.5842
1.9064
2.6538
5.2311
2.6991
4.0474
8.8295
10.678
9.9385
11.269
8.2739
6.0043
7.0605
3.6817
6.1262
8.6163
10.287
10.87
11.074
10.448
11.345
13.492
11.329
10.37
9.0353
7.807
8.0684
6.776
7.9411
5.3975
8.517
11.159
12.653
14.182
13.227
14.911
13.805
12.209
11.782
11.387
11.425
10.83
10.233
13.428
12.33
11.214
12.777
13.54
12.244
13.695
15.429
14.531
15.062
16.249
12.044
13.951
15.08
14.978
14.419
13.795
14.083
14.631
15.549
16.557
17.194
16.575
14.574
14.063
13.131
13.203
13.304
12.257
11.955
11.828
12.812
14.541
14.48
14.656
15.612
17.843
16.307
17.901
20.009
19.48
19.343
18.12
16.376
18.91
19.415
17.803
17.191
13.618
13.267
12.115
14.557
16.178
17.049
17.628
17.891
17.823
17.461
17.333
14.909
15.483
16.038
14.184
13.776
15.479
13.032
10.843
10.229
13.805
12.065
8.3817
8.7454
9.0347
6.7735
9.2669
9.2717
10.177
10.413
10.739
8.5587
10.455
10.859
6.1293
4.3913
6.2241
8.3099
7.0401
11.241
11.631
11.081
15.436
16.3
15.906
14.53
15.206
16.879
16.508
19.031
19.704
21.305
21.143
21.466
20.158
20.292
21.01
20.302
16.47
17.904
19.386
14.766
14.687
14.461
14.805
14.984
17.423
18.289
19.227
19.722
16.908
16.591
16.6
19.764
19.012
19.983
21.5
21.232
20.713
19.66
17.941
18.584
18.363
16.531
17.78
17.779
16.26
16.25
17.179
15.378
12.723
10.653
10.722
10.785
9.0976
7.8496
7.3473
5.7626
4.5377
4.8918
5.9698
5.8414
4.2116
3.7501
3.0138
4.5106
5.4368
5.5538
4.8063
4.2563
6.2461
7.7266
7.5664
6.8524
7.7998
6.3782
7.5124
7.8441
8.0832
7.8641
9.2953
9.3083
8.7579
6.5195
5.9564
4.4569
7.1292
9.4625
9.459
9.447
8.5137
6.0002
5.8022
7.456
7.4561
6.1572
6.6758
8.1471
7.7586
8.3096
9.8423
8.5357
7.2122
7.6018
7.0995
6.6899
8.363
9.735
9.5728
8.1993
9.5388
8.9579
8.0502
4.6489
4.2902
3.3813
3.0149
6.5609
6.6519
5.5658
6.839
5.0278
4.2556
9.059
6.7089
6.0611
3.5985
4.3521
5.3299
3.2781
2.8456
5.1817
8.9465
7.9404
10.304
10.138
12.569
11.933
11.282
10.232
6.7538
7.4742
6.8849
9.3513
8.5624
9.0848
6.5083
5.3998
6.8087
5.6038
7.5367
6.8338
5.1668
5.1073
4.3727
5.8148
2.1698
1.8633
3.1959
1.0497
2.0889
1.1826
1.5188
1.3526
1.3625
4.5414
3.1473
3.7846
3.2986
4.4039
6.9254
8.4034
9.5883
7.8641
7.878
9.4821
8.3131
9.8403
9.7811
9.7562
7.8197
6.0789
5.5397
3.6729
3.3278
1.6264
1.811
2.3581
3.2341
1.6193
3.8589
3.7224
2.558
3.0264
3.61
5.0631
5.0592
5.2392
2.1242
2.3208
2.1442
4.7056
6.3136
